{
  "version": "v1.0",
  "description": "juno-gen-sim-reco-bmk",
  "cvmfs_checksum": "9b89356640987276ff7f0402d2e16b81",
  "bmkdata_checksum": "4a0c5c3ce067d1ef5c4e52aed8884666",
  "bmk_checksum": "32309ac022cfe7e6539afbf180e0a3c4"
}
