[doOneWrapper (8)] Tue Dec 14 18:18:21 CET 2021 : process 8 configured
[doOneWrapper (8)] HOME=/results/proc_8/HOME
[doOneWrapper (8)] current process pid is 1241
[doOneWrapper (8)] run doOne as root

[doOne (8)] Tue Dec 14 18:18:21 CET 2021 starting in /results/proc_8
[doOne (8)] do one! (process 8 of 32)
Current directory: /results/proc_8
#CMT---> Warning: unexpected parameter 8
#CMT---> Warning: unexpected parameter 8
Executing the following number of threads:
1
Start gen-sim:
[2021-12-14 18:18:24,623] p4498 {/cvmfs/juno.ihep.ac.cn/centos7_amd64_gcc830/Pre-Release/J21v2r0-branch/offline/InstallArea/python/Tutorial/JUNODetSimModule.py:1560} INFO - PMTName PMTMask --pmt20inch-name 
[2021-12-14 18:18:24,623] p4498 {/cvmfs/juno.ihep.ac.cn/centos7_amd64_gcc830/Pre-Release/J21v2r0-branch/offline/InstallArea/python/Tutorial/JUNODetSimModule.py:1561} INFO - LPMTExtra TWO-mask --pmt20inch-extra 
[2021-12-14 18:18:24,624] p4498 {/cvmfs/juno.ihep.ac.cn/centos7_amd64_gcc830/Pre-Release/J21v2r0-branch/offline/InstallArea/python/Tutorial/JUNODetSimModule.py:1647} INFO - TWO-mask . args.pmt20inch_extra TWO-mask 
End gen-sim and Start Elec sim
End Elec sim and start calb rec
Warning in <TGeoManager>: Changing system of units to ROOT units (cm, s, GeV).
Info in <TGeoManager::Import>: Reading geometry from file: /cvmfs/juno.ihep.ac.cn/centos7_amd64_gcc830/Pre-Release/J21v2r0-branch/offline/Detector/Geometry/share/JunoGeom.root
Info in <TGeoManager::CloseGeometry>: Geometry loaded from file...
Info in <TGeoManager::SetTopVolume>: Top volume is lWorld. Master volume is lWorld
Info in <TGeoNavigator::BuildCache>: --- Maximum geometry depth set to 100
Info in <TGeoManager::Voxelize>: Voxelizing...
Info in <TGeoManager::CountLevels>: max level = 9, max placements = 46278
Info in <TGeoManager::CloseGeometry>: 319040 nodes/ 134 volume UID's in Geometry imported from GDML
Info in <TGeoManager::CloseGeometry>: ----------------modeler ready----------------
End calb rec and start envent rec
Warning in <TGeoManager>: Changing system of units to ROOT units (cm, s, GeV).
Info in <TGeoManager::Import>: Reading geometry from file: /cvmfs/juno.ihep.ac.cn/centos7_amd64_gcc830/Pre-Release/J21v2r0-branch/offline/Detector/Geometry/share/JunoGeom.root
Info in <TGeoManager::CloseGeometry>: Geometry loaded from file...
Info in <TGeoManager::SetTopVolume>: Top volume is lWorld. Master volume is lWorld
Info in <TGeoNavigator::BuildCache>: --- Maximum geometry depth set to 100
Info in <TGeoManager::Voxelize>: Voxelizing...
Info in <TGeoManager::CountLevels>: max level = 9, max placements = 46278
Info in <TGeoManager::CloseGeometry>: 319040 nodes/ 134 volume UID's in Geometry imported from GDML
Info in <TGeoManager::CloseGeometry>: ----------------modeler ready----------------
Warning in <Minuit2>: DavidonErrorUpdator delgam < 0 : first derivatives increasing along search line
Warning in <Minuit2>: DavidonErrorUpdator delgam < 0 : first derivatives increasing along search line
Warning in <Minuit2>: VariableMetricBuilder No improvement in line search
Warning in <Minuit2>: VariableMetricBuilder Iterations finish without convergence; Edm 5493.01 Requested 2e-07
Warning in <Minuit2>: MnPosDef Matrix forced pos-def by adding to diagonal 94.7101
Warning in <Minuit2>: VariableMetricBuilder No improvement in line search
Warning in <Minuit2>: VariableMetricBuilder Iterations finish without convergence; Edm 861229 Requested 2e-07
Warning in <Minuit2>: VariableMetricBuilder FunctionMinimum is invalid after second try
Warning in <Minuit2>: Minuit2Minimizer::Minimize Minimization did NOT converge, Edm is above max
Warning in <Minuit2>: MnPosDef Matrix forced pos-def by adding to diagonal 0.237917
Warning in <Minuit2>: VariableMetricBuilder No improvement in line search
Warning in <Minuit2>: VariableMetricBuilder Iterations finish without convergence; Edm 2.19462 Requested 2e-07
Warning in <Minuit2>: MnPosDef non-positive diagonal element in covariance matrix[ 2 ] = -2858.99
Warning in <Minuit2>: MnPosDef Added to diagonal of Error matrix a value 2859.49
Warning in <Minuit2>: MnPosDef Matrix forced pos-def by adding to diagonal 2.78348
Warning in <Minuit2>: VariableMetricBuilder No improvement in line search
Warning in <Minuit2>: VariableMetricBuilder Iterations finish without convergence; Edm 1531 Requested 2e-07
Warning in <Minuit2>: VariableMetricBuilder FunctionMinimum is invalid after second try
Warning in <Minuit2>: Minuit2Minimizer::Minimize Minimization did NOT converge, Edm is above max
Warning in <Minuit2>: MnPosDef Matrix forced pos-def by adding to diagonal 0.423949
Warning in <Minuit2>: DavidonErrorUpdator delgam < 0 : first derivatives increasing along search line
Warning in <Minuit2>: VariableMetricBuilder Matrix not pos.def, gdel = 0.0310909 > 0
Warning in <Minuit2>: MnPosDef non-positive diagonal element in covariance matrix[ 0 ] = -0.0115613
Warning in <Minuit2>: MnPosDef non-positive diagonal element in covariance matrix[ 1 ] = -0.0188741
Warning in <Minuit2>: MnPosDef non-positive diagonal element in covariance matrix[ 2 ] = -0.000959795
Warning in <Minuit2>: MnPosDef non-positive diagonal element in covariance matrix[ 3 ] = -2.32133e-05
Warning in <Minuit2>: MnPosDef Added to diagonal of Error matrix a value 0.518875
Warning in <Minuit2>: VariableMetricBuilder gdel = -1.83463
Warning in <Minuit2>: DavidonErrorUpdator delgam < 0 : first derivatives increasing along search line
Warning in <Minuit2>: VariableMetricBuilder Matrix not pos.def, gdel = 0.00597833 > 0
Warning in <Minuit2>: MnPosDef non-positive diagonal element in covariance matrix[ 3 ] = -0.00062335
Warning in <Minuit2>: MnPosDef Added to diagonal of Error matrix a value 0.500624
Warning in <Minuit2>: VariableMetricBuilder gdel = -0.227134
Warning in <Minuit2>: DavidonErrorUpdator delgam < 0 : first derivatives increasing along search line
Warning in <Minuit2>: VariableMetricBuilder Matrix not pos.def, gdel = 0.000196485 > 0
Warning in <Minuit2>: MnPosDef non-positive diagonal element in covariance matrix[ 2 ] = -8.57383e-05
Warning in <Minuit2>: MnPosDef Added to diagonal of Error matrix a value 0.500087
Warning in <Minuit2>: VariableMetricBuilder gdel = -0.0665288
Warning in <Minuit2>: DavidonErrorUpdator delgam < 0 : first derivatives increasing along search line
Warning in <Minuit2>: VariableMetricBuilder Matrix not pos.def, gdel = 0.00183755 > 0
Warning in <Minuit2>: MnPosDef non-positive diagonal element in covariance matrix[ 1 ] = -0.0113202
Warning in <Minuit2>: MnPosDef Added to diagonal of Error matrix a value 0.511321
Warning in <Minuit2>: VariableMetricBuilder gdel = -0.165521
Warning in <Minuit2>: DavidonErrorUpdator delgam < 0 : first derivatives increasing along search line
Warning in <Minuit2>: VariableMetricBuilder Matrix not pos.def, gdel = 0.00030593 > 0
Warning in <Minuit2>: MnPosDef non-positive diagonal element in covariance matrix[ 1 ] = -0.000513588
Warning in <Minuit2>: MnPosDef Added to diagonal of Error matrix a value 0.500515
Warning in <Minuit2>: VariableMetricBuilder gdel = -0.157105
Warning in <Minuit2>: DavidonErrorUpdator delgam < 0 : first derivatives increasing along search line
Warning in <Minuit2>: VariableMetricBuilder Matrix not pos.def, gdel = 0.00211207 > 0
Warning in <Minuit2>: MnPosDef Matrix forced pos-def by adding to diagonal 0.0156491
Warning in <Minuit2>: VariableMetricBuilder gdel = -0.0030972
Warning in <Minuit2>: VariableMetricBuilder No improvement in line search
Warning in <Minuit2>: VariableMetricBuilder Iterations finish without convergence; Edm 14.6905 Requested 2e-07
Warning in <Minuit2>: MnPosDef Matrix forced pos-def by adding to diagonal 170.122
Warning in <Minuit2>: VariableMetricBuilder No improvement in line search
Warning in <Minuit2>: VariableMetricBuilder Iterations finish without convergence; Edm 14641.1 Requested 2e-07
Warning in <Minuit2>: VariableMetricBuilder FunctionMinimum is invalid after second try
Warning in <Minuit2>: Minuit2Minimizer::Minimize Minimization did NOT converge, Edm is above max
Warning in <Minuit2>: VariableMetricBuilder No improvement in line search
Warning in <Minuit2>: VariableMetricBuilder Machine accuracy limits further improvement
Warning in <Minuit2>: VariableMetricBuilder Reached machine accuracy limit; Edm 2.20559e-07 is smaller than machine limit 4.51166e-07 while 2e-07 was requested
Warning in <Minuit2>: MnPosDef Matrix forced pos-def by adding to diagonal 5.59118
Warning in <Minuit2>: VariableMetricBuilder No improvement in line search
Warning in <Minuit2>: VariableMetricBuilder Iterations finish without convergence; Edm 0.46795 Requested 2e-07
Warning in <Minuit2>: MnPosDef non-positive diagonal element in covariance matrix[ 0 ] = -3188.15
Warning in <Minuit2>: MnPosDef non-positive diagonal element in covariance matrix[ 3 ] = -1098.24
Warning in <Minuit2>: MnPosDef Added to diagonal of Error matrix a value 3188.65
Warning in <Minuit2>: MnPosDef Matrix forced pos-def by adding to diagonal 17.3489
Warning in <Minuit2>: VariableMetricBuilder No improvement in line search
Warning in <Minuit2>: VariableMetricBuilder Iterations finish without convergence; Edm 486055 Requested 2e-07
Warning in <Minuit2>: VariableMetricBuilder FunctionMinimum is invalid after second try
Warning in <Minuit2>: Minuit2Minimizer::Minimize Minimization did NOT converge, Edm is above max
Warning in <Minuit2>: DavidonErrorUpdator delgam < 0 : first derivatives increasing along search line
Warning in <Minuit2>: VariableMetricBuilder Matrix not pos.def, gdel = 0.0388637 > 0
Warning in <Minuit2>: MnPosDef Matrix forced pos-def by adding to diagonal 0.0786911
Warning in <Minuit2>: VariableMetricBuilder gdel = -0.00393978
Warning in <Minuit2>: DavidonErrorUpdator delgam < 0 : first derivatives increasing along search line
Warning in <Minuit2>: VariableMetricBuilder Matrix not pos.def, gdel = 0.146044 > 0
Warning in <Minuit2>: MnPosDef non-positive diagonal element in covariance matrix[ 0 ] = -3.86314e-06
Warning in <Minuit2>: MnPosDef non-positive diagonal element in covariance matrix[ 3 ] = -6.63013e-06
Warning in <Minuit2>: MnPosDef Added to diagonal of Error matrix a value 0.500008
Warning in <Minuit2>: VariableMetricBuilder gdel = -5708.25
Warning in <Minuit2>: VariableMetricBuilder No improvement in line search
Warning in <Minuit2>: VariableMetricBuilder Iterations finish without convergence; Edm 59.9389 Requested 2e-07
Warning in <Minuit2>: MnPosDef Matrix forced pos-def by adding to diagonal 74.167
Warning in <Minuit2>: DavidonErrorUpdator delgam < 0 : first derivatives increasing along search line
Warning in <Minuit2>: VariableMetricBuilder Matrix not pos.def, gdel = 2.74788e-06 > 0
Warning in <Minuit2>: MnPosDef Matrix forced pos-def by adding to diagonal 0.122604
Warning in <Minuit2>: VariableMetricBuilder gdel = -8.27711e-08
Warning in <Minuit2>: VariableMetricBuilder No improvement in line search
Warning in <Minuit2>: VariableMetricBuilder Iterations finish without convergence; Edm 0.0114509 Requested 2e-07
Warning in <Minuit2>: VariableMetricBuilder FunctionMinimum is invalid after second try
Warning in <Minuit2>: Minuit2Minimizer::Minimize Minimization did NOT converge, Edm is above max
Warning in <Minuit2>: DavidonErrorUpdator delgam < 0 : first derivatives increasing along search line
Warning in <Minuit2>: VariableMetricBuilder Matrix not pos.def, gdel = 0.47228 > 0
Warning in <Minuit2>: MnPosDef non-positive diagonal element in covariance matrix[ 1 ] = -0.000104933
Warning in <Minuit2>: MnPosDef Added to diagonal of Error matrix a value 0.500106
Warning in <Minuit2>: VariableMetricBuilder gdel = -1488.33
Warning in <Minuit2>: VariableMetricBuilder No improvement in line search
Warning in <Minuit2>: VariableMetricBuilder Iterations finish without convergence; Edm 33.8151 Requested 2e-07
Warning in <Minuit2>: MnPosDef Matrix forced pos-def by adding to diagonal 0.0338424
Warning in <Minuit2>: DavidonErrorUpdator delgam < 0 : first derivatives increasing along search line
Warning in <Minuit2>: DavidonErrorUpdator delgam < 0 : first derivatives increasing along search line
Warning in <Minuit2>: VariableMetricBuilder Matrix not pos.def, gdel = 0.0231323 > 0
Warning in <Minuit2>: MnPosDef non-positive diagonal element in covariance matrix[ 0 ] = -0.000392314
Warning in <Minuit2>: MnPosDef non-positive diagonal element in covariance matrix[ 1 ] = -4.08873e-08
Warning in <Minuit2>: MnPosDef non-positive diagonal element in covariance matrix[ 2 ] = -4.3926e-05
Warning in <Minuit2>: MnPosDef Added to diagonal of Error matrix a value 0.500393
Warning in <Minuit2>: VariableMetricBuilder gdel = -242.206
Warning in <Minuit2>: VariableMetricBuilder No improvement in line search
Warning in <Minuit2>: VariableMetricBuilder Iterations finish without convergence; Edm 2.30468 Requested 2e-07
Warning in <Minuit2>: VariableMetricBuilder FunctionMinimum is invalid after second try
Warning in <Minuit2>: Minuit2Minimizer::Minimize Minimization did NOT converge, Edm is above max
Warning in <Minuit2>: VariableMetricBuilder No improvement in line search
Warning in <Minuit2>: MnPosDef Matrix forced pos-def by adding to diagonal 0.139174
Warning in <Minuit2>: VariableMetricBuilder No improvement in line search
Warning in <Minuit2>: VariableMetricBuilder Iterations finish without convergence; Edm 0.00276723 Requested 2e-07
Warning in <Minuit2>: VariableMetricBuilder FunctionMinimum is invalid after second try
Warning in <Minuit2>: Minuit2Minimizer::Minimize Minimization did NOT converge, Edm is above max
Warning in <Minuit2>: DavidonErrorUpdator delgam < 0 : first derivatives increasing along search line
Warning in <Minuit2>: VariableMetricBuilder No improvement in line search
Warning in <Minuit2>: VariableMetricBuilder Iterations finish without convergence; Edm 2.94772e-05 Requested 2e-07
Warning in <Minuit2>: MnPosDef Matrix forced pos-def by adding to diagonal 3.92944
Warning in <Minuit2>: VariableMetricBuilder No improvement in line search
Warning in <Minuit2>: VariableMetricBuilder Iterations finish without convergence; Edm 746946 Requested 2e-07
Warning in <Minuit2>: VariableMetricBuilder FunctionMinimum is invalid after second try
Warning in <Minuit2>: Minuit2Minimizer::Minimize Minimization did NOT converge, Edm is above max
Warning in <Minuit2>: MnPosDef Matrix forced pos-def by adding to diagonal 0.291277
Warning in <Minuit2>: DavidonErrorUpdator delgam < 0 : first derivatives increasing along search line
Warning in <Minuit2>: VariableMetricBuilder Matrix not pos.def, gdel = 0.00133419 > 0
Warning in <Minuit2>: MnPosDef Matrix forced pos-def by adding to diagonal 0.00444155
Warning in <Minuit2>: VariableMetricBuilder gdel = -0.00312236
Warning in <Minuit2>: VariableMetricBuilder No improvement in line search
Warning in <Minuit2>: VariableMetricBuilder Iterations finish without convergence; Edm 0.579062 Requested 2e-07
Warning in <Minuit2>: MnPosDef non-positive diagonal element in covariance matrix[ 2 ] = -435.952
Warning in <Minuit2>: MnPosDef Added to diagonal of Error matrix a value 436.452
Warning in <Minuit2>: MnPosDef Matrix forced pos-def by adding to diagonal 701.316
Warning in <Minuit2>: MnPosDef Matrix forced pos-def by adding to diagonal 0.184648
Warning in <Minuit2>: DavidonErrorUpdator delgam < 0 : first derivatives increasing along search line
Warning in <Minuit2>: VariableMetricBuilder Matrix not pos.def, gdel = 1.80115e-07 > 0
Warning in <Minuit2>: MnPosDef Matrix forced pos-def by adding to diagonal 0.270102
Warning in <Minuit2>: VariableMetricBuilder gdel = -0.00749088
Warning in <Minuit2>: MnPosDef Matrix forced pos-def by adding to diagonal 1.20629
Warning in <Minuit2>: VariableMetricBuilder No improvement in line search
Warning in <Minuit2>: VariableMetricBuilder Iterations finish without convergence; Edm 5.17266e-06 Requested 2e-07
Warning in <Minuit2>: VariableMetricBuilder FunctionMinimum is invalid after second try
Warning in <Minuit2>: Minuit2Minimizer::Minimize Minimization did NOT converge, Edm is above max
Warning in <Minuit2>: DavidonErrorUpdator delgam < 0 : first derivatives increasing along search line
Warning in <Minuit2>: VariableMetricBuilder Matrix not pos.def, gdel = 0.0929782 > 0
Warning in <Minuit2>: MnPosDef non-positive diagonal element in covariance matrix[ 1 ] = -8.76556e-05
Warning in <Minuit2>: MnPosDef Added to diagonal of Error matrix a value 0.500089
Warning in <Minuit2>: VariableMetricBuilder gdel = -81.9328
Warning in <Minuit2>: VariableMetricBuilder No improvement in line search
Warning in <Minuit2>: VariableMetricBuilder Iterations finish without convergence; Edm 6.09376 Requested 2e-07
Warning in <Minuit2>: MnPosDef Matrix forced pos-def by adding to diagonal 405.485
Warning in <Minuit2>: VariableMetricBuilder No improvement in line search
Warning in <Minuit2>: VariableMetricBuilder Iterations finish without convergence; Edm 383.331 Requested 2e-07
Warning in <Minuit2>: VariableMetricBuilder FunctionMinimum is invalid after second try
Warning in <Minuit2>: Minuit2Minimizer::Minimize Minimization did NOT converge, Edm is above max
Warning in <Minuit2>: MnPosDef Matrix forced pos-def by adding to diagonal 0.442363
Warning in <Minuit2>: VariableMetricBuilder No improvement in line search
Warning in <Minuit2>: VariableMetricBuilder Iterations finish without convergence; Edm 3.00109 Requested 2e-07
Warning in <Minuit2>: MnPosDef Matrix forced pos-def by adding to diagonal 1.56336
Warning in <Minuit2>: VariableMetricBuilder No improvement in line search
Warning in <Minuit2>: VariableMetricBuilder Iterations finish without convergence; Edm 15426.1 Requested 2e-07
Warning in <Minuit2>: VariableMetricBuilder FunctionMinimum is invalid after second try
Warning in <Minuit2>: Minuit2Minimizer::Minimize Minimization did NOT converge, Edm is above max
Warning in <Minuit2>: DavidonErrorUpdator delgam < 0 : first derivatives increasing along search line
Warning in <Minuit2>: VariableMetricBuilder Matrix not pos.def, gdel = 0.0132948 > 0
Warning in <Minuit2>: MnPosDef non-positive diagonal element in covariance matrix[ 0 ] = -0.00634819
Warning in <Minuit2>: MnPosDef non-positive diagonal element in covariance matrix[ 1 ] = -0.00345049
Warning in <Minuit2>: MnPosDef non-positive diagonal element in covariance matrix[ 2 ] = -0.00862728
Warning in <Minuit2>: MnPosDef Added to diagonal of Error matrix a value 0.508628
Warning in <Minuit2>: VariableMetricBuilder gdel = -0.345905
Warning in <Minuit2>: DavidonErrorUpdator delgam < 0 : first derivatives increasing along search line
Warning in <Minuit2>: DavidonErrorUpdator delgam < 0 : first derivatives increasing along search line
Warning in <Minuit2>: DavidonErrorUpdator delgam < 0 : first derivatives increasing along search line
Warning in <Minuit2>: VariableMetricBuilder Matrix not pos.def, gdel = 0.00251005 > 0
Warning in <Minuit2>: MnPosDef non-positive diagonal element in covariance matrix[ 0 ] = -0.000431199
Warning in <Minuit2>: MnPosDef non-positive diagonal element in covariance matrix[ 1 ] = -3.73941e-07
Warning in <Minuit2>: MnPosDef non-positive diagonal element in covariance matrix[ 2 ] = -0.000371686
Warning in <Minuit2>: MnPosDef Added to diagonal of Error matrix a value 0.500432
Warning in <Minuit2>: VariableMetricBuilder gdel = -3172.81
Warning in <Minuit2>: VariableMetricBuilder No improvement in line search
Warning in <Minuit2>: VariableMetricBuilder Iterations finish without convergence; Edm 16207.5 Requested 2e-07
Warning in <Minuit2>: MnPosDef Matrix forced pos-def by adding to diagonal 53.5026
Warning in <Minuit2>: VariableMetricBuilder No improvement in line search
Warning in <Minuit2>: VariableMetricBuilder Machine accuracy limits further improvement
Warning in <Minuit2>: MnPosDef Matrix forced pos-def by adding to diagonal 0.731106
Warning in <Minuit2>: DavidonErrorUpdator delgam < 0 : first derivatives increasing along search line
Warning in <Minuit2>: VariableMetricBuilder Matrix not pos.def, gdel = 0.00125007 > 0
Warning in <Minuit2>: MnPosDef non-positive diagonal element in covariance matrix[ 0 ] = -0.000191972
Warning in <Minuit2>: MnPosDef non-positive diagonal element in covariance matrix[ 2 ] = -0.00147324
Warning in <Minuit2>: MnPosDef Added to diagonal of Error matrix a value 0.501474
Warning in <Minuit2>: VariableMetricBuilder gdel = -0.349832
Warning in <Minuit2>: DavidonErrorUpdator delgam < 0 : first derivatives increasing along search line
Warning in <Minuit2>: VariableMetricBuilder Matrix not pos.def, gdel = 0.0220585 > 0
Warning in <Minuit2>: MnPosDef non-positive diagonal element in covariance matrix[ 0 ] = -1.04297e-07
Warning in <Minuit2>: MnPosDef non-positive diagonal element in covariance matrix[ 2 ] = -2.95052e-07
Warning in <Minuit2>: MnPosDef non-positive diagonal element in covariance matrix[ 3 ] = -0.404544
Warning in <Minuit2>: MnPosDef Added to diagonal of Error matrix a value 0.904545
Warning in <Minuit2>: VariableMetricBuilder gdel = -0.576498
Warning in <Minuit2>: VariableMetricBuilder No improvement in line search
Warning in <Minuit2>: VariableMetricBuilder Iterations finish without convergence; Edm 1.60743e+07 Requested 2e-07
Warning in <Minuit2>: VariableMetricBuilder FunctionMinimum is invalid after second try
Warning in <Minuit2>: Minuit2Minimizer::Minimize Minimization did NOT converge, Edm is above max
Warning in <Minuit2>: DavidonErrorUpdator delgam < 0 : first derivatives increasing along search line
Warning in <Minuit2>: VariableMetricBuilder Matrix not pos.def, gdel = 8.41901 > 0
Warning in <Minuit2>: MnPosDef Matrix forced pos-def by adding to diagonal 0.0494577
Warning in <Minuit2>: VariableMetricBuilder gdel = -1.07967
Warning in <Minuit2>: VariableMetricBuilder No improvement in line search
Warning in <Minuit2>: VariableMetricBuilder Iterations finish without convergence; Edm 262366 Requested 2e-07
Warning in <Minuit2>: MnPosDef Matrix forced pos-def by adding to diagonal 76.542
Warning in <Minuit2>: MnPosDef Matrix forced pos-def by adding to diagonal 0.462628
Warning in <Minuit2>: DavidonErrorUpdator delgam < 0 : first derivatives increasing along search line
Warning in <Minuit2>: VariableMetricBuilder Matrix not pos.def, gdel = 0.0055714 > 0
Warning in <Minuit2>: MnPosDef non-positive diagonal element in covariance matrix[ 0 ] = -0.00225977
Warning in <Minuit2>: MnPosDef non-positive diagonal element in covariance matrix[ 1 ] = -0.000842514
Warning in <Minuit2>: MnPosDef non-positive diagonal element in covariance matrix[ 3 ] = -0.00154864
Warning in <Minuit2>: MnPosDef Added to diagonal of Error matrix a value 0.502261
Warning in <Minuit2>: VariableMetricBuilder gdel = -0.747324
Warning in <Minuit2>: VariableMetricBuilder No improvement in line search
Warning in <Minuit2>: VariableMetricBuilder Iterations finish without convergence; Edm 0.120366 Requested 2e-07
Warning in <Minuit2>: VariableMetricBuilder FunctionMinimum is invalid after second try
Warning in <Minuit2>: Minuit2Minimizer::Minimize Minimization did NOT converge, Edm is above max
Warning in <Minuit2>: DavidonErrorUpdator delgam < 0 : first derivatives increasing along search line
Warning in <Minuit2>: VariableMetricBuilder Matrix not pos.def., try to make pos.def.
Warning in <Minuit2>: MnPosDef non-positive diagonal element in covariance matrix[ 0 ] = -0.0010956
Warning in <Minuit2>: MnPosDef non-positive diagonal element in covariance matrix[ 1 ] = -0.00067024
Warning in <Minuit2>: MnPosDef Added to diagonal of Error matrix a value 0.501097
Warning in <Minuit2>: MnPosDef Matrix forced pos-def by adding to diagonal 0.297989
Warning in <Minuit2>: VariableMetricBuilder No improvement in line search
Warning in <Minuit2>: VariableMetricBuilder Iterations finish without convergence; Edm 0.000116698 Requested 2e-07
Warning in <Minuit2>: VariableMetricBuilder FunctionMinimum is invalid after second try
Warning in <Minuit2>: Minuit2Minimizer::Minimize Minimization did NOT converge, Edm is above max
Warning in <Minuit2>: MnPosDef Matrix forced pos-def by adding to diagonal 0.154211
Warning in <Minuit2>: VariableMetricBuilder No improvement in line search
Warning in <Minuit2>: MnPosDef Matrix forced pos-def by adding to diagonal 0.107026
Warning in <Minuit2>: VariableMetricBuilder Reached machine accuracy limit; Edm 3.60157e-07 is smaller than machine limit 4.47334e-07 while 2e-07 was requested
Warning in <Minuit2>: Minuit2Minimizer::Minimize Covar was made pos def
Warning in <Minuit2>: DavidonErrorUpdator delgam < 0 : first derivatives increasing along search line
Warning in <Minuit2>: VariableMetricBuilder Matrix not pos.def, gdel = 0.00366484 > 0
Warning in <Minuit2>: MnPosDef non-positive diagonal element in covariance matrix[ 1 ] = -0.00166319
Warning in <Minuit2>: MnPosDef Added to diagonal of Error matrix a value 0.501664
Warning in <Minuit2>: VariableMetricBuilder gdel = -1.10111
Warning in <Minuit2>: VariableMetricBuilder No improvement in line search
Warning in <Minuit2>: VariableMetricBuilder Iterations finish without convergence; Edm 64.5634 Requested 2e-07
Warning in <Minuit2>: MnPosDef Matrix forced pos-def by adding to diagonal 0.345605
Warning in <Minuit2>: VariableMetricBuilder No improvement in line search
Warning in <Minuit2>: VariableMetricBuilder Iterations finish without convergence; Edm 35.7532 Requested 2e-07
Warning in <Minuit2>: VariableMetricBuilder FunctionMinimum is invalid after second try
Warning in <Minuit2>: Minuit2Minimizer::Minimize Minimization did NOT converge, Edm is above max
Warning in <Minuit2>: MnPosDef Matrix forced pos-def by adding to diagonal 3.16982
Warning in <Minuit2>: DavidonErrorUpdator delgam < 0 : first derivatives increasing along search line
Warning in <Minuit2>: VariableMetricBuilder No improvement in line search
Warning in <Minuit2>: VariableMetricBuilder Iterations finish without convergence; Edm 1908.59 Requested 2e-07
Warning in <Minuit2>: VariableMetricBuilder No improvement in line search
Warning in <Minuit2>: VariableMetricBuilder Iterations finish without convergence; Edm 1.74037 Requested 2e-07
Warning in <Minuit2>: VariableMetricBuilder FunctionMinimum is invalid after second try
Warning in <Minuit2>: Minuit2Minimizer::Minimize Minimization did NOT converge, Edm is above max
Warning in <Minuit2>: VariableMetricBuilder No improvement in line search
Warning in <Minuit2>: VariableMetricBuilder Iterations finish without convergence; Edm 89.0017 Requested 2e-07
Warning in <Minuit2>: MnPosDef non-positive diagonal element in covariance matrix[ 2 ] = -590.951
Warning in <Minuit2>: MnPosDef Added to diagonal of Error matrix a value 591.451
Warning in <Minuit2>: MnPosDef Matrix forced pos-def by adding to diagonal 9.78524
Warning in <Minuit2>: DavidonErrorUpdator delgam < 0 : first derivatives increasing along search line
Warning in <Minuit2>: VariableMetricBuilder Matrix not pos.def, gdel = 7.34402e-05 > 0
Warning in <Minuit2>: MnPosDef non-positive diagonal element in covariance matrix[ 2 ] = -0.00193915
Warning in <Minuit2>: MnPosDef Added to diagonal of Error matrix a value 0.50194
Warning in <Minuit2>: VariableMetricBuilder gdel = -0.206015
Warning in <Minuit2>: DavidonErrorUpdator delgam < 0 : first derivatives increasing along search line
Warning in <Minuit2>: DavidonErrorUpdator delgam < 0 : first derivatives increasing along search line
Warning in <Minuit2>: VariableMetricBuilder Matrix not pos.def, gdel = 2.76731e-08 > 0
Warning in <Minuit2>: MnPosDef non-positive diagonal element in covariance matrix[ 0 ] = -7.97909e-12
Warning in <Minuit2>: MnPosDef non-positive diagonal element in covariance matrix[ 1 ] = -0.00777098
Warning in <Minuit2>: MnPosDef non-positive diagonal element in covariance matrix[ 2 ] = -4.17059e-10
Warning in <Minuit2>: MnPosDef non-positive diagonal element in covariance matrix[ 3 ] = -2.79844e-10
Warning in <Minuit2>: MnPosDef Added to diagonal of Error matrix a value 0.507772
Warning in <Minuit2>: VariableMetricBuilder gdel = -0.0922419
Warning in <Minuit2>: MnPosDef Matrix forced pos-def by adding to diagonal 0.267749
Warning in <Minuit2>: DavidonErrorUpdator delgam < 0 : first derivatives increasing along search line
Warning in <Minuit2>: VariableMetricBuilder Matrix not pos.def, gdel = 0.00394312 > 0
Warning in <Minuit2>: MnPosDef Matrix forced pos-def by adding to diagonal 0.00380999
Warning in <Minuit2>: VariableMetricBuilder gdel = -3.00812
Warning in <Minuit2>: DavidonErrorUpdator delgam < 0 : first derivatives increasing along search line
Warning in <Minuit2>: VariableMetricBuilder Matrix not pos.def, gdel = 0.0144636 > 0
Warning in <Minuit2>: MnPosDef non-positive diagonal element in covariance matrix[ 1 ] = -4.88242e-07
Warning in <Minuit2>: MnPosDef Added to diagonal of Error matrix a value 0.500001
Warning in <Minuit2>: VariableMetricBuilder gdel = -7008.51
Warning in <Minuit2>: VariableMetricBuilder No improvement in line search
Warning in <Minuit2>: VariableMetricBuilder Iterations finish without convergence; Edm 309982 Requested 2e-07
Warning in <Minuit2>: VariableMetricBuilder FunctionMinimum is invalid after second try
Warning in <Minuit2>: Minuit2Minimizer::Minimize Minimization did NOT converge, Edm is above max
Warning in <Minuit2>: DavidonErrorUpdator delgam < 0 : first derivatives increasing along search line
Warning in <Minuit2>: VariableMetricBuilder Matrix not pos.def, gdel = 0.290257 > 0
Warning in <Minuit2>: MnPosDef non-positive diagonal element in covariance matrix[ 1 ] = -0.00119754
Warning in <Minuit2>: MnPosDef non-positive diagonal element in covariance matrix[ 2 ] = -0.0231984
Warning in <Minuit2>: MnPosDef non-positive diagonal element in covariance matrix[ 3 ] = -0.0151682
Warning in <Minuit2>: MnPosDef Added to diagonal of Error matrix a value 0.523199
Warning in <Minuit2>: VariableMetricBuilder gdel = -6.89069
Warning in <Minuit2>: VariableMetricBuilder No improvement in line search
Warning in <Minuit2>: VariableMetricBuilder Iterations finish without convergence; Edm 2.31825e-05 Requested 2e-07
Warning in <Minuit2>: VariableMetricBuilder No improvement in line search
Warning in <Minuit2>: VariableMetricBuilder Iterations finish without convergence; Edm 1.10226e-05 Requested 2e-07
Warning in <Minuit2>: VariableMetricBuilder FunctionMinimum is invalid after second try
Warning in <Minuit2>: Minuit2Minimizer::Minimize Minimization did NOT converge, Edm is above max
Warning in <Minuit2>: DavidonErrorUpdator delgam < 0 : first derivatives increasing along search line
Warning in <Minuit2>: VariableMetricBuilder Matrix not pos.def., try to make pos.def.
Warning in <Minuit2>: MnPosDef Matrix forced pos-def by adding to diagonal 0.596125
Warning in <Minuit2>: DavidonErrorUpdator delgam < 0 : first derivatives increasing along search line
Warning in <Minuit2>: VariableMetricBuilder Matrix not pos.def, gdel = 0.0909368 > 0
Warning in <Minuit2>: MnPosDef Matrix forced pos-def by adding to diagonal 0.00255364
Warning in <Minuit2>: VariableMetricBuilder gdel = -44.0489
Warning in <Minuit2>: VariableMetricBuilder No improvement in line search
Warning in <Minuit2>: VariableMetricBuilder Iterations finish without convergence; Edm 12058 Requested 2e-07
Warning in <Minuit2>: MnPosDef Matrix forced pos-def by adding to diagonal 1.002
Warning in <Minuit2>: MnPosDef Matrix forced pos-def by adding to diagonal 3.13319
Warning in <Minuit2>: DavidonErrorUpdator delgam < 0 : first derivatives increasing along search line
Warning in <Minuit2>: VariableMetricBuilder Matrix not pos.def., try to make pos.def.
Warning in <Minuit2>: MnPosDef non-positive diagonal element in covariance matrix[ 1 ] = -0.000238775
Warning in <Minuit2>: MnPosDef Added to diagonal of Error matrix a value 0.50024
Warning in <Minuit2>: VariableMetricBuilder No improvement in line search
Warning in <Minuit2>: VariableMetricBuilder Iterations finish without convergence; Edm 8.62583e-05 Requested 2e-07
Warning in <Minuit2>: VariableMetricBuilder FunctionMinimum is invalid after second try
Warning in <Minuit2>: Minuit2Minimizer::Minimize Minimization did NOT converge, Edm is above max
Warning in <Minuit2>: VariableMetricBuilder No improvement in line search
Warning in <Minuit2>: VariableMetricBuilder Iterations finish without convergence; Edm 4.6728 Requested 2e-07
Warning in <Minuit2>: MnPosDef non-positive diagonal element in covariance matrix[ 2 ] = -240.023
Warning in <Minuit2>: MnPosDef Added to diagonal of Error matrix a value 240.523
Warning in <Minuit2>: MnPosDef Matrix forced pos-def by adding to diagonal 1.04657
Warning in <Minuit2>: DavidonErrorUpdator delgam < 0 : first derivatives increasing along search line
Warning in <Minuit2>: VariableMetricBuilder Matrix not pos.def, gdel = 0.0012106 > 0
Warning in <Minuit2>: MnPosDef non-positive diagonal element in covariance matrix[ 0 ] = -0.0398301
Warning in <Minuit2>: MnPosDef non-positive diagonal element in covariance matrix[ 1 ] = -0.0584121
Warning in <Minuit2>: MnPosDef non-positive diagonal element in covariance matrix[ 2 ] = -0.000559224
Warning in <Minuit2>: MnPosDef non-positive diagonal element in covariance matrix[ 3 ] = -0.0145265
Warning in <Minuit2>: MnPosDef Added to diagonal of Error matrix a value 0.558413
Warning in <Minuit2>: VariableMetricBuilder gdel = -0.524481
Warning in <Minuit2>: DavidonErrorUpdator delgam < 0 : first derivatives increasing along search line
Warning in <Minuit2>: VariableMetricBuilder Matrix not pos.def, gdel = 8.29423e-05 > 0
Warning in <Minuit2>: MnPosDef non-positive diagonal element in covariance matrix[ 0 ] = -0.00118322
Warning in <Minuit2>: MnPosDef non-positive diagonal element in covariance matrix[ 3 ] = -0.000263866
Warning in <Minuit2>: MnPosDef Added to diagonal of Error matrix a value 0.501184
Warning in <Minuit2>: VariableMetricBuilder gdel = -0.0836315
Warning in <Minuit2>: DavidonErrorUpdator delgam < 0 : first derivatives increasing along search line
Warning in <Minuit2>: DavidonErrorUpdator delgam < 0 : first derivatives increasing along search line
Warning in <Minuit2>: VariableMetricBuilder Matrix not pos.def, gdel = 0.000322976 > 0
Warning in <Minuit2>: MnPosDef non-positive diagonal element in covariance matrix[ 3 ] = -0.00779243
Warning in <Minuit2>: MnPosDef Added to diagonal of Error matrix a value 0.507793
Warning in <Minuit2>: VariableMetricBuilder gdel = -0.0967207
Warning in <Minuit2>: VariableMetricBuilder No improvement in line search
Warning in <Minuit2>: VariableMetricBuilder Iterations finish without convergence; Edm 1.63973 Requested 2e-07
Warning in <Minuit2>: VariableMetricBuilder FunctionMinimum is invalid after second try
Warning in <Minuit2>: Minuit2Minimizer::Minimize Minimization did NOT converge, Edm is above max
Warning in <Minuit2>: DavidonErrorUpdator delgam < 0 : first derivatives increasing along search line
Warning in <Minuit2>: VariableMetricBuilder Matrix not pos.def, gdel = 0.0770628 > 0
Warning in <Minuit2>: MnPosDef non-positive diagonal element in covariance matrix[ 0 ] = -0.00119619
Warning in <Minuit2>: MnPosDef non-positive diagonal element in covariance matrix[ 1 ] = -0.0679657
Warning in <Minuit2>: MnPosDef non-positive diagonal element in covariance matrix[ 2 ] = -0.00678262
Warning in <Minuit2>: MnPosDef Added to diagonal of Error matrix a value 0.567967
Warning in <Minuit2>: VariableMetricBuilder gdel = -1.41143
Warning in <Minuit2>: VariableMetricBuilder No improvement in line search
Warning in <Minuit2>: VariableMetricBuilder Iterations finish without convergence; Edm 3.18785e-06 Requested 2e-07
Warning in <Minuit2>: VariableMetricBuilder No improvement in line search
Warning in <Minuit2>: VariableMetricBuilder Machine accuracy limits further improvement
Warning in <Minuit2>: VariableMetricBuilder No improvement in line search
Warning in <Minuit2>: VariableMetricBuilder Machine accuracy limits further improvement
Warning in <Minuit2>: VariableMetricBuilder No improvement in line search
Warning in <Minuit2>: VariableMetricBuilder Iterations finish without convergence; Edm 1.02448e-05 Requested 2e-07
Warning in <Minuit2>: VariableMetricBuilder FunctionMinimum is invalid after second try
Warning in <Minuit2>: Minuit2Minimizer::Minimize Minimization did NOT converge, Edm is above max
Warning in <Minuit2>: VariableMetricBuilder No improvement in line search
Warning in <Minuit2>: VariableMetricBuilder Iterations finish without convergence; Edm 3.27207e-06 Requested 2e-07
Warning in <Minuit2>: MnPosDef non-positive diagonal element in covariance matrix[ 1 ] = -77.7059
Warning in <Minuit2>: MnPosDef Added to diagonal of Error matrix a value 78.2059
Warning in <Minuit2>: MnPosDef Matrix forced pos-def by adding to diagonal 21.2983
Warning in <Minuit2>: DavidonErrorUpdator delgam < 0 : first derivatives increasing along search line
Warning in <Minuit2>: VariableMetricBuilder Matrix not pos.def., try to make pos.def.
Warning in <Minuit2>: MnPosDef non-positive diagonal element in covariance matrix[ 1 ] = -0.0052351
Warning in <Minuit2>: MnPosDef Added to diagonal of Error matrix a value 0.505236
Warning in <Minuit2>: MnPosDef Matrix forced pos-def by adding to diagonal 1.11205
Warning in <Minuit2>: DavidonErrorUpdator delgam < 0 : first derivatives increasing along search line
Warning in <Minuit2>: VariableMetricBuilder Matrix not pos.def, gdel = 4.88902e-08 > 0
Warning in <Minuit2>: MnPosDef non-positive diagonal element in covariance matrix[ 1 ] = -0.00058628
Warning in <Minuit2>: MnPosDef non-positive diagonal element in covariance matrix[ 2 ] = -0.00117516
Warning in <Minuit2>: MnPosDef Added to diagonal of Error matrix a value 0.501176
Warning in <Minuit2>: VariableMetricBuilder gdel = -2.05812e-05
Warning in <Minuit2>: VariableMetricBuilder No improvement in line search
Warning in <Minuit2>: VariableMetricBuilder Iterations finish without convergence; Edm 2.27308e-06 Requested 2e-07
Warning in <Minuit2>: VariableMetricBuilder FunctionMinimum is invalid after second try
Warning in <Minuit2>: Minuit2Minimizer::Minimize Minimization did NOT converge, Edm is above max
Warning in <Minuit2>: MnPosDef Matrix forced pos-def by adding to diagonal 1.77733
Warning in <Minuit2>: DavidonErrorUpdator delgam < 0 : first derivatives increasing along search line
Warning in <Minuit2>: VariableMetricBuilder Matrix not pos.def, gdel = 1.16118e-06 > 0
Warning in <Minuit2>: MnPosDef non-positive diagonal element in covariance matrix[ 0 ] = -0.00451738
Warning in <Minuit2>: MnPosDef non-positive diagonal element in covariance matrix[ 1 ] = -0.00477958
Warning in <Minuit2>: MnPosDef non-positive diagonal element in covariance matrix[ 2 ] = -0.00196106
Warning in <Minuit2>: MnPosDef non-positive diagonal element in covariance matrix[ 3 ] = -0.000655035
Warning in <Minuit2>: MnPosDef Added to diagonal of Error matrix a value 0.504781
Warning in <Minuit2>: VariableMetricBuilder gdel = -9.53344e-05
Warning in <Minuit2>: VariableMetricBuilder No improvement in line search
Warning in <Minuit2>: VariableMetricBuilder Iterations finish without convergence; Edm 4350.05 Requested 2e-07
Warning in <Minuit2>: MnPosDef Matrix forced pos-def by adding to diagonal 6.60247
Warning in <Minuit2>: VariableMetricBuilder No improvement in line search
Warning in <Minuit2>: VariableMetricBuilder Iterations finish without convergence; Edm 0.0281716 Requested 2e-07
Warning in <Minuit2>: VariableMetricBuilder FunctionMinimum is invalid after second try
Warning in <Minuit2>: Minuit2Minimizer::Minimize Minimization did NOT converge, Edm is above max
Warning in <Minuit2>: DavidonErrorUpdator delgam < 0 : first derivatives increasing along search line
Warning in <Minuit2>: VariableMetricBuilder Matrix not pos.def, gdel = 0.0924494 > 0
Warning in <Minuit2>: MnPosDef non-positive diagonal element in covariance matrix[ 0 ] = -0.0203648
Warning in <Minuit2>: MnPosDef non-positive diagonal element in covariance matrix[ 1 ] = -0.0065418
Warning in <Minuit2>: MnPosDef non-positive diagonal element in covariance matrix[ 2 ] = -0.00392038
Warning in <Minuit2>: MnPosDef non-positive diagonal element in covariance matrix[ 3 ] = -0.00977014
Warning in <Minuit2>: MnPosDef Added to diagonal of Error matrix a value 0.520366
Warning in <Minuit2>: VariableMetricBuilder gdel = -12.9844
Warning in <Minuit2>: DavidonErrorUpdator delgam < 0 : first derivatives increasing along search line
Warning in <Minuit2>: VariableMetricBuilder Matrix not pos.def., try to make pos.def.
Warning in <Minuit2>: MnPosDef non-positive diagonal element in covariance matrix[ 1 ] = -0.00101413
Warning in <Minuit2>: MnPosDef Added to diagonal of Error matrix a value 0.501015
Warning in <Minuit2>: DavidonErrorUpdator delgam < 0 : first derivatives increasing along search line
Warning in <Minuit2>: VariableMetricBuilder Matrix not pos.def, gdel = 0.000171261 > 0
Warning in <Minuit2>: MnPosDef Matrix forced pos-def by adding to diagonal 0.280361
Warning in <Minuit2>: VariableMetricBuilder gdel = -5.25208e-05
Warning in <Minuit2>: DavidonErrorUpdator delgam < 0 : first derivatives increasing along search line
Warning in <Minuit2>: VariableMetricBuilder Matrix not pos.def, gdel = 0.000244391 > 0
Warning in <Minuit2>: MnPosDef non-positive diagonal element in covariance matrix[ 0 ] = -0.00750203
Warning in <Minuit2>: MnPosDef non-positive diagonal element in covariance matrix[ 1 ] = -8.53282e-10
Warning in <Minuit2>: MnPosDef non-positive diagonal element in covariance matrix[ 2 ] = -0.0213745
Warning in <Minuit2>: MnPosDef non-positive diagonal element in covariance matrix[ 3 ] = -0.0108772
Warning in <Minuit2>: MnPosDef Added to diagonal of Error matrix a value 0.521375
Warning in <Minuit2>: VariableMetricBuilder gdel = -0.255323
Warning in <Minuit2>: VariableMetricBuilder No improvement in line search
Warning in <Minuit2>: VariableMetricBuilder Iterations finish without convergence; Edm 7.92147 Requested 2e-07
Warning in <Minuit2>: MnPosDef Matrix forced pos-def by adding to diagonal 114.962
Warning in <Minuit2>: DavidonErrorUpdator delgam < 0 : first derivatives increasing along search line
Warning in <Minuit2>: VariableMetricBuilder Matrix not pos.def, gdel = 3.18269e-05 > 0
Warning in <Minuit2>: MnPosDef non-positive diagonal element in covariance matrix[ 0 ] = -0.00021229
Warning in <Minuit2>: MnPosDef non-positive diagonal element in covariance matrix[ 1 ] = -2.04739e-06
Warning in <Minuit2>: MnPosDef non-positive diagonal element in covariance matrix[ 2 ] = -0.000190866
Warning in <Minuit2>: MnPosDef non-positive diagonal element in covariance matrix[ 3 ] = -0.00123749
Warning in <Minuit2>: MnPosDef Added to diagonal of Error matrix a value 0.501238
Warning in <Minuit2>: VariableMetricBuilder gdel = -0.061725
Warning in <Minuit2>: DavidonErrorUpdator delgam < 0 : first derivatives increasing along search line
Warning in <Minuit2>: VariableMetricBuilder No improvement in line search
Warning in <Minuit2>: VariableMetricBuilder Iterations finish without convergence; Edm 16876 Requested 2e-07
Warning in <Minuit2>: VariableMetricBuilder FunctionMinimum is invalid after second try
Warning in <Minuit2>: Minuit2Minimizer::Minimize Minimization did NOT converge, Edm is above max
Warning in <Minuit2>: MnPosDef Matrix forced pos-def by adding to diagonal 0.951807
Warning in <Minuit2>: VariableMetricBuilder No improvement in line search
Warning in <Minuit2>: VariableMetricBuilder Iterations finish without convergence; Edm 242343 Requested 2e-07
Warning in <Minuit2>: MnPosDef Matrix forced pos-def by adding to diagonal 3059.91
Warning in <Minuit2>: VariableMetricBuilder No improvement in line search
Warning in <Minuit2>: MnPosDef non-positive diagonal element in covariance matrix[ 0 ] = -82.9177
Warning in <Minuit2>: MnPosDef non-positive diagonal element in covariance matrix[ 2 ] = -65.032
Warning in <Minuit2>: MnPosDef non-positive diagonal element in covariance matrix[ 3 ] = -209.932
Warning in <Minuit2>: MnPosDef Added to diagonal of Error matrix a value 210.432
Warning in <Minuit2>: MnPosDef Matrix forced pos-def by adding to diagonal 73.4232
Warning in <Minuit2>: DavidonErrorUpdator delgam < 0 : first derivatives increasing along search line
Warning in <Minuit2>: VariableMetricBuilder Matrix not pos.def, gdel = 0.00338876 > 0
Warning in <Minuit2>: MnPosDef non-positive diagonal element in covariance matrix[ 0 ] = -5.8495e-05
Warning in <Minuit2>: MnPosDef non-positive diagonal element in covariance matrix[ 3 ] = -0.0272916
Warning in <Minuit2>: MnPosDef Added to diagonal of Error matrix a value 0.527293
Warning in <Minuit2>: VariableMetricBuilder gdel = -0.553667
Warning in <Minuit2>: DavidonErrorUpdator delgam < 0 : first derivatives increasing along search line
Warning in <Minuit2>: DavidonErrorUpdator delgam < 0 : first derivatives increasing along search line
Warning in <Minuit2>: VariableMetricBuilder No improvement in line search
Warning in <Minuit2>: VariableMetricBuilder Iterations finish without convergence; Edm 5010.78 Requested 2e-07
Warning in <Minuit2>: VariableMetricBuilder FunctionMinimum is invalid after second try
Warning in <Minuit2>: Minuit2Minimizer::Minimize Minimization did NOT converge, Edm is above max
Warning in <Minuit2>: MnPosDef Matrix forced pos-def by adding to diagonal 0.0840061
Warning in <Minuit2>: DavidonErrorUpdator delgam < 0 : first derivatives increasing along search line
Warning in <Minuit2>: VariableMetricBuilder Matrix not pos.def, gdel = 0.000477275 > 0
Warning in <Minuit2>: MnPosDef non-positive diagonal element in covariance matrix[ 0 ] = -4.59111e-08
Warning in <Minuit2>: MnPosDef non-positive diagonal element in covariance matrix[ 1 ] = -1.61067e-07
Warning in <Minuit2>: MnPosDef non-positive diagonal element in covariance matrix[ 2 ] = -0.000141866
Warning in <Minuit2>: MnPosDef non-positive diagonal element in covariance matrix[ 3 ] = -0.00252122
Warning in <Minuit2>: MnPosDef Added to diagonal of Error matrix a value 0.502522
Warning in <Minuit2>: VariableMetricBuilder gdel = -24.2241
Warning in <Minuit2>: DavidonErrorUpdator delgam < 0 : first derivatives increasing along search line
Warning in <Minuit2>: DavidonErrorUpdator delgam < 0 : first derivatives increasing along search line
Warning in <Minuit2>: VariableMetricBuilder Matrix not pos.def, gdel = 0.0088142 > 0
Warning in <Minuit2>: MnPosDef non-positive diagonal element in covariance matrix[ 1 ] = -0.00316835
Warning in <Minuit2>: MnPosDef non-positive diagonal element in covariance matrix[ 2 ] = -0.0217846
Warning in <Minuit2>: MnPosDef non-positive diagonal element in covariance matrix[ 3 ] = -1.98143
Warning in <Minuit2>: MnPosDef Added to diagonal of Error matrix a value 2.48143
Warning in <Minuit2>: VariableMetricBuilder gdel = -1.19592
Warning in <Minuit2>: VariableMetricBuilder No improvement in line search
Warning in <Minuit2>: VariableMetricBuilder Iterations finish without convergence; Edm 304.234 Requested 2e-07
Warning in <Minuit2>: MnPosDef non-positive diagonal element in covariance matrix[ 2 ] = -143.843
Warning in <Minuit2>: MnPosDef Added to diagonal of Error matrix a value 144.343
Warning in <Minuit2>: MnPosDef Matrix forced pos-def by adding to diagonal 11.2058
Warning in <Minuit2>: DavidonErrorUpdator delgam < 0 : first derivatives increasing along search line
Warning in <Minuit2>: VariableMetricBuilder Matrix not pos.def, gdel = 1.09273e-05 > 0
Warning in <Minuit2>: MnPosDef non-positive diagonal element in covariance matrix[ 0 ] = -0.00183183
Warning in <Minuit2>: MnPosDef non-positive diagonal element in covariance matrix[ 1 ] = -0.00966972
Warning in <Minuit2>: MnPosDef non-positive diagonal element in covariance matrix[ 2 ] = -0.0547019
Warning in <Minuit2>: MnPosDef non-positive diagonal element in covariance matrix[ 3 ] = -0.0182708
Warning in <Minuit2>: MnPosDef Added to diagonal of Error matrix a value 0.554703
Warning in <Minuit2>: VariableMetricBuilder gdel = -0.000670691
Warning in <Minuit2>: VariableMetricBuilder No improvement in line search
Warning in <Minuit2>: VariableMetricBuilder Reached machine accuracy limit; Edm 3.25064e-07 is smaller than machine limit 4.58225e-07 while 2e-07 was requested
Warning in <Minuit2>: MnPosDef Matrix forced pos-def by adding to diagonal 5.92311
Warning in <Minuit2>: VariableMetricBuilder No improvement in line search
Warning in <Minuit2>: VariableMetricBuilder Iterations finish without convergence; Edm 785.288 Requested 2e-07
Warning in <Minuit2>: MnPosDef Matrix forced pos-def by adding to diagonal 12784.3
Warning in <Minuit2>: Minuit2Minimizer::Minimize Covar was made pos def
Warning in <Minuit2>: DavidonErrorUpdator delgam < 0 : first derivatives increasing along search line
Warning in <Minuit2>: VariableMetricBuilder Matrix not pos.def, gdel = 0.0151544 > 0
Warning in <Minuit2>: MnPosDef non-positive diagonal element in covariance matrix[ 1 ] = -0.00108687
Warning in <Minuit2>: MnPosDef non-positive diagonal element in covariance matrix[ 2 ] = -0.00291365
Warning in <Minuit2>: MnPosDef non-positive diagonal element in covariance matrix[ 3 ] = -0.0354092
Warning in <Minuit2>: MnPosDef Added to diagonal of Error matrix a value 0.53541
Warning in <Minuit2>: VariableMetricBuilder gdel = -0.262383
Warning in <Minuit2>: DavidonErrorUpdator delgam < 0 : first derivatives increasing along search line
Warning in <Minuit2>: VariableMetricBuilder No improvement in line search
Warning in <Minuit2>: VariableMetricBuilder Iterations finish without convergence; Edm 49006.6 Requested 2e-07
Warning in <Minuit2>: MnPosDef non-positive diagonal element in covariance matrix[ 0 ] = -1731.83
Warning in <Minuit2>: MnPosDef non-positive diagonal element in covariance matrix[ 2 ] = -185.758
Warning in <Minuit2>: MnPosDef Added to diagonal of Error matrix a value 1732.33
Warning in <Minuit2>: MnPosDef Matrix forced pos-def by adding to diagonal 41.5786
Warning in <Minuit2>: DavidonErrorUpdator delgam < 0 : first derivatives increasing along search line
Warning in <Minuit2>: VariableMetricBuilder No improvement in line search
Warning in <Minuit2>: VariableMetricBuilder Iterations finish without convergence; Edm 1.46048e+08 Requested 2e-07
Warning in <Minuit2>: VariableMetricBuilder FunctionMinimum is invalid after second try
Warning in <Minuit2>: Minuit2Minimizer::Minimize Minimization did NOT converge, Edm is above max
Warning in <Minuit2>: MnPosDef Matrix forced pos-def by adding to diagonal 1.48807
Warning in <Minuit2>: VariableMetricBuilder No improvement in line search
Warning in <Minuit2>: VariableMetricBuilder Machine accuracy limits further improvement
Warning in <Minuit2>: MnPosDef Matrix forced pos-def by adding to diagonal 0.207768
Warning in <Minuit2>: DavidonErrorUpdator delgam < 0 : first derivatives increasing along search line
Warning in <Minuit2>: VariableMetricBuilder Matrix not pos.def, gdel = 2.26788e-06 > 0
Warning in <Minuit2>: MnPosDef non-positive diagonal element in covariance matrix[ 1 ] = -0.00455106
Warning in <Minuit2>: MnPosDef non-positive diagonal element in covariance matrix[ 2 ] = -0.00776396
Warning in <Minuit2>: MnPosDef non-positive diagonal element in covariance matrix[ 3 ] = -1.03018e-05
Warning in <Minuit2>: MnPosDef Added to diagonal of Error matrix a value 0.507765
Warning in <Minuit2>: VariableMetricBuilder gdel = -0.000199614
Warning in <Minuit2>: VariableMetricBuilder No improvement in line search
Warning in <Minuit2>: MnPosDef Matrix forced pos-def by adding to diagonal 0.159723
Warning in <Minuit2>: VariableMetricBuilder No improvement in line search
Warning in <Minuit2>: MnPosDef Matrix forced pos-def by adding to diagonal 0.316958
Warning in <Minuit2>: VariableMetricBuilder No improvement in line search
Warning in <Minuit2>: VariableMetricBuilder Machine accuracy limits further improvement
Warning in <Minuit2>: MnPosDef Matrix forced pos-def by adding to diagonal 0.265186
Warning in <Minuit2>: MnPosDef Matrix forced pos-def by adding to diagonal 0.541812
Warning in <Minuit2>: VariableMetricBuilder Reached machine accuracy limit; Edm 3.50642e-07 is smaller than machine limit 4.53932e-07 while 2e-07 was requested
Warning in <Minuit2>: Minuit2Minimizer::Minimize Covar was made pos def
Warning in <Minuit2>: VariableMetricBuilder No improvement in line search
Warning in <Minuit2>: VariableMetricBuilder Iterations finish without convergence; Edm 77.7117 Requested 2e-07
Warning in <Minuit2>: VariableMetricBuilder No improvement in line search
Warning in <Minuit2>: VariableMetricBuilder Machine accuracy limits further improvement
Warning in <Minuit2>: MnPosDef Matrix forced pos-def by adding to diagonal 0.107064
Warning in <Minuit2>: VariableMetricBuilder No improvement in line search
Warning in <Minuit2>: VariableMetricBuilder Iterations finish without convergence; Edm 1.65464e-05 Requested 2e-07
Warning in <Minuit2>: VariableMetricBuilder FunctionMinimum is invalid after second try
Warning in <Minuit2>: Minuit2Minimizer::Minimize Minimization did NOT converge, Edm is above max
Warning in <Minuit2>: MnPosDef Matrix forced pos-def by adding to diagonal 0.571315
Warning in <Minuit2>: DavidonErrorUpdator delgam < 0 : first derivatives increasing along search line
Warning in <Minuit2>: VariableMetricBuilder Matrix not pos.def, gdel = 1.90448e-07 > 0
Warning in <Minuit2>: MnPosDef non-positive diagonal element in covariance matrix[ 1 ] = -0.00134973
Warning in <Minuit2>: MnPosDef Added to diagonal of Error matrix a value 0.501351
Warning in <Minuit2>: VariableMetricBuilder gdel = -0.000146177
Warning in <Minuit2>: VariableMetricBuilder No improvement in line search
Warning in <Minuit2>: VariableMetricBuilder Iterations finish without convergence; Edm 0.000288316 Requested 2e-07
Warning in <Minuit2>: MnPosDef Matrix forced pos-def by adding to diagonal 0.190051
Warning in <Minuit2>: DavidonErrorUpdator delgam < 0 : first derivatives increasing along search line
Warning in <Minuit2>: VariableMetricBuilder Matrix not pos.def, gdel = 4.88051e-06 > 0
Warning in <Minuit2>: MnPosDef non-positive diagonal element in covariance matrix[ 0 ] = -0.00499056
Warning in <Minuit2>: MnPosDef non-positive diagonal element in covariance matrix[ 1 ] = -0.0210702
Warning in <Minuit2>: MnPosDef non-positive diagonal element in covariance matrix[ 2 ] = -0.00914038
Warning in <Minuit2>: MnPosDef non-positive diagonal element in covariance matrix[ 3 ] = -0.000495085
Warning in <Minuit2>: MnPosDef Added to diagonal of Error matrix a value 0.521071
Warning in <Minuit2>: VariableMetricBuilder gdel = -0.00169935
Warning in <Minuit2>: DavidonErrorUpdator delgam < 0 : first derivatives increasing along search line
Warning in <Minuit2>: VariableMetricBuilder Matrix not pos.def, gdel = 3.64542e-07 > 0
Warning in <Minuit2>: MnPosDef non-positive diagonal element in covariance matrix[ 1 ] = -0.00155413
Warning in <Minuit2>: MnPosDef Added to diagonal of Error matrix a value 0.501555
Warning in <Minuit2>: VariableMetricBuilder gdel = -0.00152651
Warning in <Minuit2>: VariableMetricBuilder No improvement in line search
Warning in <Minuit2>: VariableMetricBuilder Machine accuracy limits further improvement
Warning in <Minuit2>: MnPosDef Matrix forced pos-def by adding to diagonal 0.258329
Warning in <Minuit2>: VariableMetricBuilder No improvement in line search
Warning in <Minuit2>: VariableMetricBuilder Iterations finish without convergence; Edm 0.000877332 Requested 2e-07
Warning in <Minuit2>: VariableMetricBuilder FunctionMinimum is invalid after second try
Warning in <Minuit2>: Minuit2Minimizer::Minimize Minimization did NOT converge, Edm is above max
Warning in <Minuit2>: DavidonErrorUpdator delgam < 0 : first derivatives increasing along search line
Warning in <Minuit2>: VariableMetricBuilder Matrix not pos.def, gdel = 0.0115443 > 0
Warning in <Minuit2>: MnPosDef non-positive diagonal element in covariance matrix[ 1 ] = -0.00411364
Warning in <Minuit2>: MnPosDef non-positive diagonal element in covariance matrix[ 2 ] = -0.000674174
Warning in <Minuit2>: MnPosDef non-positive diagonal element in covariance matrix[ 3 ] = -0.0204454
Warning in <Minuit2>: MnPosDef Added to diagonal of Error matrix a value 0.520446
Warning in <Minuit2>: VariableMetricBuilder gdel = -0.469018
Warning in <Minuit2>: VariableMetricBuilder No improvement in line search
Warning in <Minuit2>: VariableMetricBuilder Iterations finish without convergence; Edm 708.536 Requested 2e-07
Warning in <Minuit2>: VariableMetricBuilder No improvement in line search
Warning in <Minuit2>: MnPosDef Matrix forced pos-def by adding to diagonal 1.41505
Warning in <Minuit2>: DavidonErrorUpdator delgam < 0 : first derivatives increasing along search line
Warning in <Minuit2>: VariableMetricBuilder Matrix not pos.def., try to make pos.def.
Warning in <Minuit2>: MnPosDef non-positive diagonal element in covariance matrix[ 1 ] = -7.35083e-05
Warning in <Minuit2>: MnPosDef non-positive diagonal element in covariance matrix[ 3 ] = -0.00383326
Warning in <Minuit2>: MnPosDef Added to diagonal of Error matrix a value 0.503834
Warning in <Minuit2>: MnPosDef Matrix forced pos-def by adding to diagonal 0.0301933
Warning in <Minuit2>: VariableMetricBuilder No improvement in line search
Warning in <Minuit2>: VariableMetricBuilder Iterations finish without convergence; Edm 4.49225e+07 Requested 2e-07
Warning in <Minuit2>: VariableMetricBuilder FunctionMinimum is invalid after second try
Warning in <Minuit2>: Minuit2Minimizer::Minimize Minimization did NOT converge, Edm is above max
Warning in <Minuit2>: DavidonErrorUpdator delgam < 0 : first derivatives increasing along search line
Warning in <Minuit2>: DavidonErrorUpdator delgam < 0 : first derivatives increasing along search line
Warning in <Minuit2>: VariableMetricBuilder No improvement in line search
Warning in <Minuit2>: VariableMetricBuilder Iterations finish without convergence; Edm 1714.92 Requested 2e-07
Warning in <Minuit2>: MnPosDef non-positive diagonal element in covariance matrix[ 2 ] = -8739.13
Warning in <Minuit2>: MnPosDef non-positive diagonal element in covariance matrix[ 3 ] = -338.304
Warning in <Minuit2>: MnPosDef Added to diagonal of Error matrix a value 8739.63
Warning in <Minuit2>: MnPosDef Matrix forced pos-def by adding to diagonal 12021
Warning in <Minuit2>: VariableMetricBuilder No improvement in line search
Warning in <Minuit2>: VariableMetricBuilder No improvement in line search
Warning in <Minuit2>: VariableMetricBuilder Iterations finish without convergence; Edm 0.0922661 Requested 2e-07
Warning in <Minuit2>: VariableMetricBuilder FunctionMinimum is invalid after second try
Warning in <Minuit2>: Minuit2Minimizer::Minimize Minimization did NOT converge, Edm is above max
Warning in <Minuit2>: MnPosDef non-positive diagonal element in covariance matrix[ 2 ] = -151.885
Warning in <Minuit2>: MnPosDef Added to diagonal of Error matrix a value 152.385
Warning in <Minuit2>: MnPosDef Matrix forced pos-def by adding to diagonal 23.4572
Warning in <Minuit2>: DavidonErrorUpdator delgam < 0 : first derivatives increasing along search line
Warning in <Minuit2>: VariableMetricBuilder Matrix not pos.def, gdel = 7.24079e-07 > 0
Warning in <Minuit2>: MnPosDef non-positive diagonal element in covariance matrix[ 0 ] = -0.00137996
Warning in <Minuit2>: MnPosDef non-positive diagonal element in covariance matrix[ 2 ] = -0.000937093
Warning in <Minuit2>: MnPosDef Added to diagonal of Error matrix a value 0.501381
Warning in <Minuit2>: VariableMetricBuilder gdel = -0.00123933
Warning in <Minuit2>: MnPosDef Matrix forced pos-def by adding to diagonal 0.236365
Warning in <Minuit2>: MnPosDef Matrix forced pos-def by adding to diagonal 0.148999
Warning in <Minuit2>: VariableMetricBuilder Reached machine accuracy limit; Edm 2.85425e-07 is smaller than machine limit 4.53795e-07 while 2e-07 was requested
Warning in <Minuit2>: Minuit2Minimizer::Minimize Covar was made pos def
Warning in <Minuit2>: MnPosDef Matrix forced pos-def by adding to diagonal 4.22447
Warning in <Minuit2>: DavidonErrorUpdator delgam < 0 : first derivatives increasing along search line
Warning in <Minuit2>: VariableMetricBuilder Matrix not pos.def, gdel = 0.152324 > 0
Warning in <Minuit2>: MnPosDef non-positive diagonal element in covariance matrix[ 0 ] = -0.000849115
Warning in <Minuit2>: MnPosDef non-positive diagonal element in covariance matrix[ 1 ] = -0.00197787
Warning in <Minuit2>: MnPosDef non-positive diagonal element in covariance matrix[ 2 ] = -0.0171597
Warning in <Minuit2>: MnPosDef non-positive diagonal element in covariance matrix[ 3 ] = -0.000880718
Warning in <Minuit2>: MnPosDef Added to diagonal of Error matrix a value 0.517161
Warning in <Minuit2>: VariableMetricBuilder gdel = -274.309
Warning in <Minuit2>: VariableMetricBuilder No improvement in line search
Warning in <Minuit2>: VariableMetricBuilder Iterations finish without convergence; Edm 2.10159e-06 Requested 2e-07
Warning in <Minuit2>: MnPosDef Matrix forced pos-def by adding to diagonal 0.964924
Warning in <Minuit2>: VariableMetricBuilder No improvement in line search
Warning in <Minuit2>: MnPosDef Matrix forced pos-def by adding to diagonal 0.167571
Warning in <Minuit2>: DavidonErrorUpdator delgam < 0 : first derivatives increasing along search line
Warning in <Minuit2>: VariableMetricBuilder No improvement in line search
Warning in <Minuit2>: VariableMetricBuilder Iterations finish without convergence; Edm 5.67965e-06 Requested 2e-07
Warning in <Minuit2>: VariableMetricBuilder FunctionMinimum is invalid after second try
Warning in <Minuit2>: Minuit2Minimizer::Minimize Minimization did NOT converge, Edm is above max
Warning in <Minuit2>: MnPosDef Matrix forced pos-def by adding to diagonal 0.97548
Warning in <Minuit2>: VariableMetricBuilder No improvement in line search
Warning in <Minuit2>: VariableMetricBuilder Iterations finish without convergence; Edm 2.89929 Requested 2e-07
Warning in <Minuit2>: MnPosDef Matrix forced pos-def by adding to diagonal 71.6877
Warning in <Minuit2>: DavidonErrorUpdator delgam < 0 : first derivatives increasing along search line
Warning in <Minuit2>: DavidonErrorUpdator delgam < 0 : first derivatives increasing along search line
Warning in <Minuit2>: VariableMetricBuilder Matrix not pos.def, gdel = 0.00161868 > 0
Warning in <Minuit2>: MnPosDef non-positive diagonal element in covariance matrix[ 0 ] = -3.4889e-10
Warning in <Minuit2>: MnPosDef non-positive diagonal element in covariance matrix[ 1 ] = -0.00293916
Warning in <Minuit2>: MnPosDef non-positive diagonal element in covariance matrix[ 2 ] = -2.39243e-07
Warning in <Minuit2>: MnPosDef non-positive diagonal element in covariance matrix[ 3 ] = -4.95452e-06
Warning in <Minuit2>: MnPosDef Added to diagonal of Error matrix a value 0.50294
Warning in <Minuit2>: VariableMetricBuilder gdel = -0.357018
Warning in <Minuit2>: DavidonErrorUpdator delgam < 0 : first derivatives increasing along search line
Warning in <Minuit2>: DavidonErrorUpdator delgam < 0 : first derivatives increasing along search line
Warning in <Minuit2>: VariableMetricBuilder Matrix not pos.def, gdel = 0.193628 > 0
Warning in <Minuit2>: MnPosDef non-positive diagonal element in covariance matrix[ 0 ] = -9.56014e-09
Warning in <Minuit2>: MnPosDef non-positive diagonal element in covariance matrix[ 2 ] = -9.26208e-08
Warning in <Minuit2>: MnPosDef Added to diagonal of Error matrix a value 0.500001
Warning in <Minuit2>: VariableMetricBuilder gdel = -1.88166e+08
Warning in <Minuit2>: VariableMetricBuilder No improvement in line search
Warning in <Minuit2>: VariableMetricBuilder Iterations finish without convergence; Edm 938628 Requested 2e-07
Warning in <Minuit2>: VariableMetricBuilder FunctionMinimum is invalid after second try
Warning in <Minuit2>: Minuit2Minimizer::Minimize Minimization did NOT converge, Edm is above max
Warning in <Minuit2>: MnPosDef Matrix forced pos-def by adding to diagonal 3.24123
Warning in <Minuit2>: DavidonErrorUpdator delgam < 0 : first derivatives increasing along search line
Warning in <Minuit2>: VariableMetricBuilder Matrix not pos.def, gdel = 0.00166892 > 0
Warning in <Minuit2>: MnPosDef non-positive diagonal element in covariance matrix[ 0 ] = -0.00117644
Warning in <Minuit2>: MnPosDef Added to diagonal of Error matrix a value 0.501177
Warning in <Minuit2>: VariableMetricBuilder gdel = -3.41484
Warning in <Minuit2>: DavidonErrorUpdator delgam < 0 : first derivatives increasing along search line
Warning in <Minuit2>: VariableMetricBuilder Matrix not pos.def., try to make pos.def.
Warning in <Minuit2>: MnPosDef Matrix forced pos-def by adding to diagonal 3.50266
Warning in <Minuit2>: VariableMetricBuilder No improvement in line search
Warning in <Minuit2>: VariableMetricBuilder Iterations finish without convergence; Edm 2.30227e-06 Requested 2e-07
Warning in <Minuit2>: VariableMetricBuilder FunctionMinimum is invalid after second try
Warning in <Minuit2>: Minuit2Minimizer::Minimize Minimization did NOT converge, Edm is above max
Warning in <Minuit2>: MnPosDef Matrix forced pos-def by adding to diagonal 1.72482
Warning in <Minuit2>: DavidonErrorUpdator delgam < 0 : first derivatives increasing along search line
Warning in <Minuit2>: VariableMetricBuilder Matrix not pos.def, gdel = 0.00110284 > 0
Warning in <Minuit2>: MnPosDef non-positive diagonal element in covariance matrix[ 0 ] = -0.000341215
Warning in <Minuit2>: MnPosDef non-positive diagonal element in covariance matrix[ 1 ] = -0.000595552
Warning in <Minuit2>: MnPosDef non-positive diagonal element in covariance matrix[ 2 ] = -0.000359285
Warning in <Minuit2>: MnPosDef non-positive diagonal element in covariance matrix[ 3 ] = -6.35301e-10
Warning in <Minuit2>: MnPosDef Added to diagonal of Error matrix a value 0.500597
Warning in <Minuit2>: VariableMetricBuilder gdel = -840.838
Warning in <Minuit2>: VariableMetricBuilder No improvement in line search
Warning in <Minuit2>: VariableMetricBuilder Iterations finish without convergence; Edm 0.000793736 Requested 2e-07
Warning in <Minuit2>: MnPosDef Matrix forced pos-def by adding to diagonal 51.6402
Warning in <Minuit2>: VariableMetricBuilder No improvement in line search
Warning in <Minuit2>: VariableMetricBuilder Iterations finish without convergence; Edm 5849.32 Requested 2e-07
Warning in <Minuit2>: VariableMetricBuilder FunctionMinimum is invalid after second try
Warning in <Minuit2>: Minuit2Minimizer::Minimize Minimization did NOT converge, Edm is above max
Warning in <Minuit2>: DavidonErrorUpdator delgam < 0 : first derivatives increasing along search line
Warning in <Minuit2>: VariableMetricBuilder Matrix not pos.def, gdel = 0.0054343 > 0
Warning in <Minuit2>: MnPosDef non-positive diagonal element in covariance matrix[ 2 ] = -0.00103736
Warning in <Minuit2>: MnPosDef Added to diagonal of Error matrix a value 0.501038
Warning in <Minuit2>: VariableMetricBuilder gdel = -2.22826
Warning in <Minuit2>: VariableMetricBuilder No improvement in line search
Warning in <Minuit2>: VariableMetricBuilder Reached machine accuracy limit; Edm 3.64742e-07 is smaller than machine limit 4.53919e-07 while 2e-07 was requested
Warning in <Minuit2>: MnPosDef Matrix forced pos-def by adding to diagonal 7.37944
Warning in <Minuit2>: VariableMetricBuilder No improvement in line search
Warning in <Minuit2>: VariableMetricBuilder Iterations finish without convergence; Edm 60.6383 Requested 2e-07
Warning in <Minuit2>: MnPosDef Matrix forced pos-def by adding to diagonal 3374.67
Warning in <Minuit2>: DavidonErrorUpdator delgam < 0 : first derivatives increasing along search line
Warning in <Minuit2>: VariableMetricBuilder Matrix not pos.def, gdel = 0.00126679 > 0
Warning in <Minuit2>: MnPosDef non-positive diagonal element in covariance matrix[ 1 ] = -0.0021509
Warning in <Minuit2>: MnPosDef non-positive diagonal element in covariance matrix[ 2 ] = -0.00143031
Warning in <Minuit2>: MnPosDef Added to diagonal of Error matrix a value 0.502152
Warning in <Minuit2>: VariableMetricBuilder gdel = -126.163
Warning in <Minuit2>: MnPosDef Matrix forced pos-def by adding to diagonal 0.667643
Warning in <Minuit2>: DavidonErrorUpdator delgam < 0 : first derivatives increasing along search line
Warning in <Minuit2>: MnPosDef Matrix forced pos-def by adding to diagonal 0.536313
Warning in <Minuit2>: VariableMetricBuilder No improvement in line search
Warning in <Minuit2>: MnPosDef Matrix forced pos-def by adding to diagonal 0.057542
Warning in <Minuit2>: DavidonErrorUpdator delgam < 0 : first derivatives increasing along search line
Warning in <Minuit2>: VariableMetricBuilder Matrix not pos.def, gdel = 0.00102037 > 0
Warning in <Minuit2>: MnPosDef non-positive diagonal element in covariance matrix[ 0 ] = -0.000493615
Warning in <Minuit2>: MnPosDef Added to diagonal of Error matrix a value 0.500495
Warning in <Minuit2>: VariableMetricBuilder gdel = -0.942678
Warning in <Minuit2>: DavidonErrorUpdator delgam < 0 : first derivatives increasing along search line
Warning in <Minuit2>: VariableMetricBuilder Matrix not pos.def, gdel = 0.00606549 > 0
Warning in <Minuit2>: MnPosDef non-positive diagonal element in covariance matrix[ 0 ] = -0.0015016
Warning in <Minuit2>: MnPosDef non-positive diagonal element in covariance matrix[ 1 ] = -0.0317672
Warning in <Minuit2>: MnPosDef non-positive diagonal element in covariance matrix[ 3 ] = -0.0296855
Warning in <Minuit2>: MnPosDef Added to diagonal of Error matrix a value 0.531768
Warning in <Minuit2>: VariableMetricBuilder gdel = -0.160132
Warning in <Minuit2>: DavidonErrorUpdator delgam < 0 : first derivatives increasing along search line
Warning in <Minuit2>: MnPosDef non-positive diagonal element in covariance matrix[ 1 ] = -52.5927
Warning in <Minuit2>: MnPosDef Added to diagonal of Error matrix a value 53.0927
Warning in <Minuit2>: MnPosDef Matrix forced pos-def by adding to diagonal 35.3854
Warning in <Minuit2>: DavidonErrorUpdator delgam < 0 : first derivatives increasing along search line
Warning in <Minuit2>: DavidonErrorUpdator delgam < 0 : first derivatives increasing along search line
Warning in <Minuit2>: VariableMetricBuilder Matrix not pos.def, gdel = 0.000132252 > 0
Warning in <Minuit2>: MnPosDef non-positive diagonal element in covariance matrix[ 1 ] = -0.0157269
Warning in <Minuit2>: MnPosDef non-positive diagonal element in covariance matrix[ 2 ] = -7.24681e-07
Warning in <Minuit2>: MnPosDef Added to diagonal of Error matrix a value 0.515728
Warning in <Minuit2>: VariableMetricBuilder gdel = -0.0343983
Warning in <Minuit2>: DavidonErrorUpdator delgam < 0 : first derivatives increasing along search line
Warning in <Minuit2>: DavidonErrorUpdator delgam < 0 : first derivatives increasing along search line
Warning in <Minuit2>: VariableMetricBuilder Matrix not pos.def, gdel = 0.00014596 > 0
Warning in <Minuit2>: MnPosDef Matrix forced pos-def by adding to diagonal 0.935734
Warning in <Minuit2>: VariableMetricBuilder gdel = -0.00129667
Warning in <Minuit2>: VariableMetricBuilder No improvement in line search
Warning in <Minuit2>: VariableMetricBuilder Iterations finish without convergence; Edm 6.06775 Requested 2e-07
Warning in <Minuit2>: VariableMetricBuilder FunctionMinimum is invalid after second try
Warning in <Minuit2>: Minuit2Minimizer::Minimize Minimization did NOT converge, Edm is above max
Warning in <Minuit2>: DavidonErrorUpdator delgam < 0 : first derivatives increasing along search line
Warning in <Minuit2>: VariableMetricBuilder Matrix not pos.def, gdel = 0.00256615 > 0
Warning in <Minuit2>: MnPosDef non-positive diagonal element in covariance matrix[ 0 ] = -0.00380152
Warning in <Minuit2>: MnPosDef non-positive diagonal element in covariance matrix[ 1 ] = -0.000936103
Warning in <Minuit2>: MnPosDef non-positive diagonal element in covariance matrix[ 2 ] = -0.00334572
Warning in <Minuit2>: MnPosDef non-positive diagonal element in covariance matrix[ 3 ] = -0.00172519
Warning in <Minuit2>: MnPosDef Added to diagonal of Error matrix a value 0.503803
Warning in <Minuit2>: VariableMetricBuilder gdel = -7.1125
Warning in <Minuit2>: DavidonErrorUpdator delgam < 0 : first derivatives increasing along search line
Warning in <Minuit2>: VariableMetricBuilder Matrix not pos.def., try to make pos.def.
Warning in <Minuit2>: MnPosDef non-positive diagonal element in covariance matrix[ 2 ] = -0.0304524
Warning in <Minuit2>: MnPosDef Added to diagonal of Error matrix a value 0.530453
Warning in <Minuit2>: DavidonErrorUpdator delgam < 0 : first derivatives increasing along search line
Warning in <Minuit2>: VariableMetricBuilder Matrix not pos.def, gdel = 0.00646277 > 0
Warning in <Minuit2>: MnPosDef non-positive diagonal element in covariance matrix[ 1 ] = -0.00838705
Warning in <Minuit2>: MnPosDef non-positive diagonal element in covariance matrix[ 2 ] = -0.00605127
Warning in <Minuit2>: MnPosDef non-positive diagonal element in covariance matrix[ 3 ] = -0.0145276
Warning in <Minuit2>: MnPosDef Added to diagonal of Error matrix a value 0.514529
Warning in <Minuit2>: VariableMetricBuilder gdel = -0.199264
Warning in <Minuit2>: DavidonErrorUpdator delgam < 0 : first derivatives increasing along search line
Warning in <Minuit2>: VariableMetricBuilder Matrix not pos.def, gdel = 0.00191475 > 0
Warning in <Minuit2>: MnPosDef non-positive diagonal element in covariance matrix[ 0 ] = -0.00567636
Warning in <Minuit2>: MnPosDef non-positive diagonal element in covariance matrix[ 1 ] = -0.0115934
Warning in <Minuit2>: MnPosDef non-positive diagonal element in covariance matrix[ 2 ] = -0.000636742
Warning in <Minuit2>: MnPosDef Added to diagonal of Error matrix a value 0.511594
Warning in <Minuit2>: VariableMetricBuilder gdel = -0.0889899
Warning in <Minuit2>: DavidonErrorUpdator delgam < 0 : first derivatives increasing along search line
Warning in <Minuit2>: DavidonErrorUpdator delgam < 0 : first derivatives increasing along search line
Warning in <Minuit2>: VariableMetricBuilder No improvement in line search
Warning in <Minuit2>: VariableMetricBuilder Iterations finish without convergence; Edm 6903.65 Requested 2e-07
Warning in <Minuit2>: VariableMetricBuilder No improvement in line search
Warning in <Minuit2>: VariableMetricBuilder Iterations finish without convergence; Edm 13.621 Requested 2e-07
Warning in <Minuit2>: MnPosDef non-positive diagonal element in covariance matrix[ 3 ] = -19.2429
Warning in <Minuit2>: MnPosDef Added to diagonal of Error matrix a value 19.7429
Warning in <Minuit2>: MnPosDef Matrix forced pos-def by adding to diagonal 1.85916
Warning in <Minuit2>: DavidonErrorUpdator delgam < 0 : first derivatives increasing along search line
Warning in <Minuit2>: VariableMetricBuilder Matrix not pos.def, gdel = 0.000579881 > 0
Warning in <Minuit2>: MnPosDef non-positive diagonal element in covariance matrix[ 2 ] = -5.6598e-06
Warning in <Minuit2>: MnPosDef Added to diagonal of Error matrix a value 0.500007
Warning in <Minuit2>: VariableMetricBuilder gdel = -0.785567
Warning in <Minuit2>: DavidonErrorUpdator delgam < 0 : first derivatives increasing along search line
Warning in <Minuit2>: VariableMetricBuilder Matrix not pos.def, gdel = 0.000685451 > 0
Warning in <Minuit2>: MnPosDef Matrix forced pos-def by adding to diagonal 0.00548279
Warning in <Minuit2>: VariableMetricBuilder gdel = -0.113993
Warning in <Minuit2>: VariableMetricBuilder No improvement in line search
Warning in <Minuit2>: VariableMetricBuilder Iterations finish without convergence; Edm 3899.12 Requested 2e-07
Warning in <Minuit2>: VariableMetricBuilder FunctionMinimum is invalid after second try
Warning in <Minuit2>: Minuit2Minimizer::Minimize Minimization did NOT converge, Edm is above max
Warning in <Minuit2>: DavidonErrorUpdator delgam < 0 : first derivatives increasing along search line
Warning in <Minuit2>: VariableMetricBuilder Matrix not pos.def, gdel = 0.0068277 > 0
Warning in <Minuit2>: MnPosDef non-positive diagonal element in covariance matrix[ 2 ] = -0.00891657
Warning in <Minuit2>: MnPosDef Added to diagonal of Error matrix a value 0.508918
Warning in <Minuit2>: VariableMetricBuilder gdel = -0.328177
Warning in <Minuit2>: DavidonErrorUpdator delgam < 0 : first derivatives increasing along search line
Warning in <Minuit2>: VariableMetricBuilder No improvement in line search
Warning in <Minuit2>: VariableMetricBuilder Iterations finish without convergence; Edm 40.8819 Requested 2e-07
Warning in <Minuit2>: MnPosDef Matrix forced pos-def by adding to diagonal 10.4468
Warning in <Minuit2>: VariableMetricBuilder No improvement in line search
Warning in <Minuit2>: VariableMetricBuilder Iterations finish without convergence; Edm 2.86858e-05 Requested 2e-07
Warning in <Minuit2>: VariableMetricBuilder FunctionMinimum is invalid after second try
Warning in <Minuit2>: Minuit2Minimizer::Minimize Minimization did NOT converge, Edm is above max
Warning in <Minuit2>: DavidonErrorUpdator delgam < 0 : first derivatives increasing along search line
Warning in <Minuit2>: DavidonErrorUpdator delgam < 0 : first derivatives increasing along search line
Warning in <Minuit2>: VariableMetricBuilder Matrix not pos.def, gdel = 0.000154733 > 0
Warning in <Minuit2>: MnPosDef non-positive diagonal element in covariance matrix[ 0 ] = -0.450969
Warning in <Minuit2>: MnPosDef non-positive diagonal element in covariance matrix[ 1 ] = -0.0070972
Warning in <Minuit2>: MnPosDef non-positive diagonal element in covariance matrix[ 3 ] = -0.0116695
Warning in <Minuit2>: MnPosDef Added to diagonal of Error matrix a value 0.95097
Warning in <Minuit2>: VariableMetricBuilder gdel = -0.43118
Warning in <Minuit2>: DavidonErrorUpdator delgam < 0 : first derivatives increasing along search line
Warning in <Minuit2>: DavidonErrorUpdator delgam < 0 : first derivatives increasing along search line
Warning in <Minuit2>: VariableMetricBuilder Matrix not pos.def, gdel = 0.000832087 > 0
Warning in <Minuit2>: MnPosDef non-positive diagonal element in covariance matrix[ 1 ] = -0.0323308
Warning in <Minuit2>: MnPosDef non-positive diagonal element in covariance matrix[ 2 ] = -0.00643045
Warning in <Minuit2>: MnPosDef non-positive diagonal element in covariance matrix[ 3 ] = -2.25924e-08
Warning in <Minuit2>: MnPosDef Added to diagonal of Error matrix a value 0.532332
Warning in <Minuit2>: VariableMetricBuilder gdel = -0.205699
Warning in <Minuit2>: DavidonErrorUpdator delgam < 0 : first derivatives increasing along search line
Warning in <Minuit2>: DavidonErrorUpdator delgam < 0 : first derivatives increasing along search line
Warning in <Minuit2>: DavidonErrorUpdator delgam < 0 : first derivatives increasing along search line
Warning in <Minuit2>: DavidonErrorUpdator gvg <= 0 : cannot update - return same matrix
Warning in <Minuit2>: VariableMetricBuilder Matrix not pos.def, gdel = 0.000216026 > 0
Warning in <Minuit2>: MnPosDef non-positive diagonal element in covariance matrix[ 0 ] = -0.00113002
Warning in <Minuit2>: MnPosDef non-positive diagonal element in covariance matrix[ 1 ] = -0.000684682
Warning in <Minuit2>: MnPosDef non-positive diagonal element in covariance matrix[ 2 ] = -0.0006101
Warning in <Minuit2>: MnPosDef non-positive diagonal element in covariance matrix[ 3 ] = -4.5931e-08
Warning in <Minuit2>: MnPosDef Added to diagonal of Error matrix a value 0.501131
Warning in <Minuit2>: VariableMetricBuilder gdel = -0.220898
Warning in <Minuit2>: DavidonErrorUpdator delgam < 0 : first derivatives increasing along search line
Warning in <Minuit2>: DavidonErrorUpdator delgam < 0 : first derivatives increasing along search line
Warning in <Minuit2>: VariableMetricBuilder No improvement in line search
Warning in <Minuit2>: VariableMetricBuilder Iterations finish without convergence; Edm 8136.25 Requested 2e-07
Warning in <Minuit2>: MnPosDef Matrix forced pos-def by adding to diagonal 9.11738e+08
Warning in <Minuit2>: Minuit2Minimizer::Minimize Covar was made pos def
Warning in <Minuit2>: VariableMetricBuilder No improvement in line search
Warning in <Minuit2>: VariableMetricBuilder Iterations finish without convergence; Edm 812.189 Requested 2e-07
Warning in <Minuit2>: VariableMetricBuilder FunctionMinimum is invalid after second try
Warning in <Minuit2>: Minuit2Minimizer::Minimize Minimization did NOT converge, Edm is above max
End event rec
[doOne (8)] Tue Dec 14 18:38:48 CET 2021 completed (status=0)

[doOneWrapper (8)] Tue Dec 14 18:38:48 CET 2021 : process 8 (pid=1241) completed ok

