{
  "bmk_checksum": "862325c06297e768b92e2405d62868a7",
  "bmkdata_checksum": "b277ed3c8c42df390e91f44e20a631f1",
  "cvmfs_checksum": "35ac0e4e8a7070aedf3e9e751e64fcca",
  "description": "belle2-gen-sim-reco-2021-bmk",
  "version": "v1.0"
}
