{
  "version": "ci-v0.1",
  "description": "CMS GEN-SIM of ttbar events, based on CMSSW_12_5_0",
  "cvmfs_checksum": "88b90cb71c88eb74db5f25fdca98d161",
  "bmkdata_checksum": "b6e7b45b64d893bcbacf849c89a7e5eb",
  "bmk_checksum": "6333907d19b57825ababa6e1818cf132",
  "containment": "docker"
}
