{
  "run_info": {
    "n_tot_cores": 2,
    "copies": 1,
    "threads_per_copy": 2,
    "events_per_thread": 3,
    "extra_arguments": ""
  },
  "report": {
    "wl-scores": {
      "sim": 0.01026
    },
    "wl-stats": {
      "max": 0.01026,
      "avg": 0.01026,
      "median": 0.01026,
      "min": 0.01026
    },
    "custom": {
      "vmem": [
        3621056
      ],
      "swap": [
        0
      ],
      "score_proc": [
        0.01026
      ],
      "cputime_proc": [
        883580
      ],
      "walltime_proc": [
        487313
      ],
      "score_unit": "evt/s",
      "events_proc_Athena(MT)": [
        6
      ],
      "RSS": [
        3284544
      ]
    },
    "log": "ok"
  },
  "app": {
    "version": "ci-v1.0",
    "description": "Atlas simulation MT (GEANT4) based on athena version 22.0.25",
    "cvmfs_checksum": "e24857616a944a21488e2c679236d4a4",
    "bmkdata_checksum": "70d6dda12886420657b62fcd7b23bb88",
    "bmk_checksum": "4bc7076aa39449b245349756599103de",
    "containment": "docker"
  }
}
