# trfJobReport file generated on 2022-10-13T21:08:33
{'cmdLine': "'/cvmfs/atlas.cern.ch/repo/sw/software/23.0/Athena/23.0.3/InstallArea/x86_64-centos7-gcc11-opt/share/Gen_tf.py' "
            "'--ecmEnergy=13000' '--firstEvent=1' "
            "'--jobConfig=/bmk/atlas-gen_sherpa-ma/auxfiles' "
            "'--outputEVNTFile=test_sherpa_tttautau.EVNT.pool.root' "
            "'--maxEvents=4'",
 'created': '2022-10-13T21:08:33',
 'executor': [{'asetup': None,
               'errMsg': '',
               'exeConfig': {'outputs': ['EVNT'],
                             'script': 'athena.py',
                             'substep': None},
               'logfileReport': {'countSummary': {'CATASTROPHE': 0,
                                                  'CRITICAL': 0,
                                                  'DEBUG': 0,
                                                  'ERROR': 0,
                                                  'FATAL': 0,
                                                  'IGNORED': 0,
                                                  'INFO': 426,
                                                  'UNKNOWN': 4242,
                                                  'VERBOSE': 0,
                                                  'WARNING': 2},
                                 'details': {}},
               'metaData': {'GenFiltEff': '1.000000e+00',
                            'PDF': 'LHA[NNPDF30_nnlo_as_0118_hessian]',
                            'contactPhysicist': 'frank.siegert@cern.ch, '
                                                'atlas-generators-sherpa@cern.ch',
                            'cross-section (nb)': '1.9739e-05',
                            'genFilterNames': '',
                            'generator': 'Sherpa2.2.12',
                            'generatorName': 'Sherpa(v.2.2.12.bbba1f7)',
                            'generatorTune': 'NNPDF3.0 NNLO',
                            'keywords': 'top, multilepton, sm',
                            'nEventsPerJob': '10',
                            'physicsComment': 'Sherpa tttautau@LO',
                            'randomSeed': '12345',
                            'specialConfig': 'NONE',
                            'sumOfNegWeights': '0.000000e+00',
                            'sumOfNegWeightsNoFilter': '0.000000e+00',
                            'sumOfPosWeights': '2.356833e+01',
                            'sumOfPosWeightsNoFilter': '2.356833e+01'},
               'name': 'generate',
               'rc': 0,
               'statusOK': True,
               'validation': True}],
 'exitAcronym': 'OK',
 'exitCode': 0,
 'exitMsg': 'OK',
 'exitMsgExtra': '',
 'files': {'input': [],
           'output': [{'argName': 'outputEVNTFile',
                       'dataset': None,
                       'subFiles': [{'file_guid': '69C6E032-3EF9-2942-A585-95BA7EAC91BE',
                                     'file_size': 159359,
                                     'name': 'test_sherpa_tttautau.EVNT.pool.root',
                                     'nentries': 4}],
                       'type': 'EVNT'}]},
 'name': 'Gen_tf',
 'reportVersion': '2.1.2',
 'resource': {'executor': {'generate': {'cpuTime': 230.35,
                                        'memory': {'Avg': {'nprocs': 2.888,
                                                           'nthreads': 3.0,
                                                           'pss': 832851.0,
                                                           'rchar': 430574704.0,
                                                           'read_bytes': 721045853.0,
                                                           'rss': 834951.0,
                                                           'rx_bytes': 28.455,
                                                           'rx_packets': 0.406,
                                                           'swap': 0.0,
                                                           'tx_bytes': 0.0,
                                                           'tx_packets': 0.0,
                                                           'vmem': 1378275.0,
                                                           'wchar': 12502034.0,
                                                           'write_bytes': 12068214.0},
                                                   'HW': {'cpu': {'CPUs': 4,
                                                                  'CoresPerSocket': 1,
                                                                  'ModelName': 'Intel '
                                                                               'Core '
                                                                               'Processor '
                                                                               '(Haswell, '
                                                                               'no '
                                                                               'TSX, '
                                                                               'IBRS)',
                                                                  'Sockets': 4,
                                                                  'ThreadsPerCore': 1},
                                                          'mem': {'MemTotal': 7310480}},
                                                   'Max': {'nprocs': 3,
                                                           'nthreads': 4,
                                                           'pss': 1792446,
                                                           'rchar': 1059213773,
                                                           'read_bytes': 1773772800,
                                                           'rss': 1794604,
                                                           'rx_bytes': 70,
                                                           'rx_packets': 1,
                                                           'stime': 6,
                                                           'swap': 0,
                                                           'tx_bytes': 0,
                                                           'tx_packets': 0,
                                                           'utime': 213,
                                                           'vmem': 2433348,
                                                           'wchar': 30755006,
                                                           'write_bytes': 29687808,
                                                           'wtime': 246},
                                                   'prmon': {'Version': '3.0.1'}},
                                        'memoryAnalysis': {'chi2': 263893.97,
                                                           'slope': 2483.15},
                                        'postExe': {'cpuTime': 0.32,
                                                    'wallTime': 1.0},
                                        'preExe': {'cpuTime': 0.0,
                                                   'wallTime': 0.16},
                                        'total': {'cpuTime': 231.01,
                                                  'wallTime': 265.6},
                                        'validation': {'cpuTime': 0.34,
                                                       'wallTime': 4.44},
                                        'wallTime': 260.0}},
              'machine': {'cpu_family': '6',
                          'linux_distribution': ('CentOS Linux', '7', 'Core'),
                          'model': '60',
                          'model_name': 'Intel Core Processor (Haswell, no '
                                        'TSX, IBRS)',
                          'node': '8370901c9952',
                          'platform': 'Linux-3.10.0-957.21.3.el7.x86_64-x86_64-with-glibc2.17'},
              'transform': {'cpuEfficiency': 0.8686,
                            'cpuPWEfficiency': 0.8686,
                            'cpuTime': 3.16,
                            'cpuTimeTotal': 231.01,
                            'externalCpuTime': 0.7,
                            'inFileValidation': {'cpuTime': 0.0,
                                                 'wallTime': 0.0},
                            'outFileValidation': {'cpuTime': 0.0,
                                                  'wallTime': 0.12},
                            'reportGeneration': {'cpuTime': 0.04,
                                                 'wallTime': 3.12},
                            'transformSetup': {'cpuTime': 0.0,
                                               'wallTime': 0.01},
                            'trfPredata': None,
                            'wallTime': 268.85}}}
# Environment dump
ALRB_ACM_PATH=/cvmfs/atlas.cern.ch/repo/ATLASLocalRootBase/x86_64/acm/0.1.28/acm
ALRB_OSMAJORVER=7
ALRB_OSTYPE=Linux
ALRB_RELOCATEALRB=NO
ALRB_RELOCATECVMFS=NO
ALRB_RHVER=7
ALRB_SCRATCH=/results/atlas-gen_sherpa-ma-c1-e4-1665695036_8962/proc_1/HOME/.alrb
ALRB_SFTNIGHT_LCG=none
ALRB_SFT_LCG=/cvmfs/sft.cern.ch/lcg
ALRB_SFT_LCGEXT_MAP=/cvmfs/sft.cern.ch/lcg/mapfile.txt
ALRB_SHELL=bash
ALRB_USER_PLATFORM=centos7
ALRB_allowSL6onSL5=NO
ALRB_availableTools= acm adctools agis art asetup astyle atlantis boost clang cmake cppcheck davix dcube eiclient emi fax fftw ganga gcc gccxml git gitlab gsl hdf5 lcgenv logstash pacman panda png prmon pyami python rcsetup root rucio sft stomp swmgr tbb views xcache xrootd
ALRB_availableToolsPost= acm adctools agis art asetup astyle atlantis boost clang cmake cppcheck davix dcube eiclient emi fax fftw ganga gcc gccxml git gitlab gsl hdf5 lcgenv logstash pacman panda png prmon pyami python rcsetup root rucio sft stomp swmgr tbb views xcache xrootd installRpm printmenu showversions
ALRB_availableToolsPre= lsetup
ALRB_clientShell=bash
ALRB_cvmfs_ALRB=/cvmfs/atlas.cern.ch/repo/ATLASLocalRootBase
ALRB_cvmfs_Athena=/cvmfs/atlas.cern.ch/repo/sw/software
ALRB_cvmfs_CDB=/cvmfs/atlas-condb.cern.ch/repo/conditions
ALRB_cvmfs_condb_repo=/cvmfs/atlas-condb.cern.ch/repo
ALRB_cvmfs_nightly_repo=/cvmfs/atlas-nightlies.cern.ch/repo
ALRB_cvmfs_repo=/cvmfs/atlas.cern.ch/repo
ALRB_cvmfs_sft_repo=/cvmfs/sft.cern.ch/lcg
ALRB_cvmfs_sftnight_repo=/cvmfs/sft-nightlies.cern.ch/lcg
ALRB_cvmfs_unpacked_repo=/cvmfs/unpacked.cern.ch
ALRB_envPython=python
ALRB_gridType=none
ALRB_infoProc=model name	: Intel Core Processor (Haswell, no TSX, IBRS)
ALRB_infoUname=Linux 8370901c9952 3.10.0-957.21.3.el7.x86_64 #1 SMP Tue Jun 18 16:35:19 UTC 2019 x86_64 x86_64 x86_64 GNU/Linux
ALRB_motdExclusions=
ALRB_printHelpMain=
ALRB_requestedVersions=cmake:3.21.3  rcsetup:00-04-18  acm:0.1.28 asetup:V02-01-01  
ALRB_sedExclusions=
ALRB_testPath=,,
ALRB_tmpScratch=/tmp/bmkuser/.alrb
ALRB_useGridSW=emi
APP=atlas-gen_sherpa-ma
ASETUP_ENVFILE=/tmp/bmkuser/.envBefore_asetup.sh-lsLCGg_77
ASETUP_PPID=77
ASETUP_PRINTLEVEL=0
ASETUP_SYSBIN=/tmp/bmkuser/.asetup-sysbin-a2Zo2p_1
ASG_TEST_FILE_DATA=/cvmfs/atlas-nightlies.cern.ch/repo/data/data-art/ASG/DAOD_PHYS/p5169/data18_13TeV.00348885.physics_Main.deriv.DAOD_PHYS.r13286_p4910_p5169/DAOD_PHYS.29445515._000301.pool.root.1
ASG_TEST_FILE_LITE_DATA=/cvmfs/atlas-nightlies.cern.ch/repo/data/data-art/ASG/DAOD_PHYSLITE/p5169/data18_13TeV.00348885.physics_Main.deriv.DAOD_PHYSLITE.r13286_p4910_p5169/DAOD_PHYSLITE.29445515._000679.pool.root.1
ASG_TEST_FILE_LITE_MC=/cvmfs/atlas-nightlies.cern.ch/repo/data/data-art/ASG/DAOD_PHYSLITE/p5169/mc20_13TeV.410470.PhPy8EG_A14_ttbar_hdamp258p75_nonallhad.deriv.DAOD_PHYSLITE.e6337_s3681_r13167_p5169/DAOD_PHYSLITE.29445530._000001.pool.root.1
ASG_TEST_FILE_LITE_MC_AFII=/cvmfs/atlas-nightlies.cern.ch/repo/data/data-art/ASG/DAOD_PHYSLITE/p5169/mc20_13TeV.410470.PhPy8EG_A14_ttbar_hdamp258p75_nonallhad.deriv.DAOD_PHYSLITE.e6337_a899_r13167_p5169/DAOD_PHYSLITE.29445540._000002.pool.root.1
ASG_TEST_FILE_MC=/cvmfs/atlas-nightlies.cern.ch/repo/data/data-art/ASG/DAOD_PHYS/p5169/mc20_13TeV.410470.PhPy8EG_A14_ttbar_hdamp258p75_nonallhad.deriv.DAOD_PHYS.e6337_s3681_r13167_p5169/DAOD_PHYS.29445530._000001.pool.root.1
ASG_TEST_FILE_MC_AFII=/cvmfs/atlas-nightlies.cern.ch/repo/data/data-art/ASG/DAOD_PHYS/p5169/mc20_13TeV.410470.PhPy8EG_A14_ttbar_hdamp258p75_nonallhad.deriv.DAOD_PHYS.e6337_a899_r13167_p5169/DAOD_PHYS.29445540._000002.pool.root.1
ASG_TEST_FILE_RUN3_MC=/cvmfs/atlas-nightlies.cern.ch/repo/data/data-art/ASG/DAOD_PHYS/p5169/mc21_13p6TeV.601237.PhPy8EG_A14_ttbar_hdamp258p75_allhad.deriv.DAOD_PHYS.e8357_s3775_r13504_p5169/DAOD_PHYS.29453689._001003.pool.root.1
ATLASCALDATA=/cvmfs/atlas.cern.ch/repo/sw/software/23.0/atlas/offline/ReleaseData/v20
ATLASMKLLIBDIR_PRELOAD=/cvmfs/atlas.cern.ch/repo/sw/software/23.0/AthenaExternals/23.0.3/InstallArea/x86_64-centos7-gcc11-opt/lib
ATLASTESTDATA=/cvmfs/atlas.cern.ch/repo/sw/software/23.0/atlas/offline/ReleaseData/v20/testfile
ATLAS_DB_AREA=/cvmfs/atlas.cern.ch/repo/sw/database
ATLAS_GPERFTOOLS_DIR=/cvmfs/atlas.cern.ch/repo/sw/software/23.0/sw/lcg/releases/LCG_101_ATLAS_24/gperftools/2.9.1/x86_64-centos7-gcc11-opt/lib
ATLAS_LOCAL_ACM_VERSION=0.1.28
ATLAS_LOCAL_ASETUP_PATH=/cvmfs/atlas.cern.ch/repo/ATLASLocalRootBase/x86_64/AtlasSetup/V02-01-01
ATLAS_LOCAL_ASETUP_VERSION=V02-01-01
ATLAS_LOCAL_CMAKE_VERSION=3.21.3
ATLAS_LOCAL_RCSETUP_PATH=/cvmfs/atlas.cern.ch/repo/ATLASLocalRootBase/x86_64/rcSetup/00-04-18
ATLAS_LOCAL_RCSETUP_VERSION=00-04-18
ATLAS_LOCAL_ROOT=/cvmfs/atlas.cern.ch/repo/ATLASLocalRootBase/x86_64
ATLAS_LOCAL_ROOT_ARCH=x86_64
ATLAS_LOCAL_ROOT_BASE=/cvmfs/atlas.cern.ch/repo/ATLASLocalRootBase
ATLAS_LOCAL_ROOT_PACOPT=
ATLAS_LOCAL_SETUP_OPTIONS=-q
ATLAS_POOLCOND_PATH=/cvmfs/atlas-condb.cern.ch/repo/conditions
ATLAS_RELEASEDATA=/cvmfs/atlas.cern.ch/repo/sw/software/23.0/atlas/offline/ReleaseData
ATLAS_RELEASE_BASE=/cvmfs/atlas.cern.ch/repo/sw/software/23.0
ATLAS_TWISSFILES=/cvmfs/atlas.cern.ch/repo/sw/software/23.0/atlas/offline/external/TwissFiles
AthenaExternals_DIR=/cvmfs/atlas.cern.ch/repo/sw/software/23.0/AthenaExternals/23.0.3/InstallArea/x86_64-centos7-gcc11-opt
AthenaExternals_PLATFORM=x86_64-centos7-gcc11-opt
AthenaExternals_SET_UP=1
AthenaExternals_VERSION=23.0.3
Athena_DIR=/cvmfs/atlas.cern.ch/repo/sw/software/23.0/Athena/23.0.3/InstallArea/x86_64-centos7-gcc11-opt
Athena_PLATFORM=x86_64-centos7-gcc11-opt
Athena_SET_UP=1
Athena_VERSION=23.0.3
AtlasArea=/cvmfs/atlas.cern.ch/repo/sw/software/23.0/Athena/23.0.3
AtlasBaseDir=/cvmfs/atlas.cern.ch/repo/sw/software/23.0
AtlasBuildBranch=23.0
AtlasBuildStamp=2022-07-10T2101
AtlasProject=Athena
AtlasReleaseType=stable
AtlasSetup=/cvmfs/atlas.cern.ch/repo/ATLASLocalRootBase/x86_64/AtlasSetup/V02-01-01/AtlasSetup
AtlasSetupSite=/cvmfs/atlas.cern.ch/repo/ATLASLocalRootBase/x86_64/AtlasSetup/.config/.asetup.site
AtlasSetupSiteCMake=/cvmfs/atlas.cern.ch/repo/ATLASLocalRootBase/x86_64/AtlasSetup/.configCMake/.asetup.site
AtlasSetupStatus=0
AtlasVersion=23.0.3
BINARY_TAG=x86_64-centos7-gcc11-opt
BMKDIR=/bmk/atlas-gen_sherpa-ma
CALIBPATH=/cvmfs/atlas.cern.ch/repo/sw/software/23.0/Athena/23.0.3/InstallArea/x86_64-centos7-gcc11-opt/data:/cvmfs/atlas.cern.ch/repo/sw/software/23.0/Athena/23.0.3/InstallArea/x86_64-centos7-gcc11-opt/share:/cvmfs/atlas.cern.ch/repo/sw/software/23.0/AthenaExternals/23.0.3/InstallArea/x86_64-centos7-gcc11-opt/data:/cvmfs/atlas.cern.ch/repo/sw/software/23.0/AthenaExternals/23.0.3/InstallArea/x86_64-centos7-gcc11-opt/share:/sw/DbData/GroupData:/cvmfs/atlas.cern.ch/repo/sw/database/GroupData:/eos/atlas/atlascerngroupdisk/asg-calib:http//cern.ch/atlas-groupdata:http//atlas.web.cern.ch/Atlas/GROUPS/DATABASE/GroupData
CC=/cvmfs/sft.cern.ch/lcg/releases/gcc/11.2.0-8a51a/x86_64-centos7/bin/gcc
CHECKERGCCPLUGINS_CONFIG=/cvmfs/atlas.cern.ch/repo/sw/software/23.0/Athena/23.0.3/InstallArea/x86_64-centos7-gcc11-opt/share/checkergcc.config
CLING_STANDARD_PCH=none
CMAKE_NO_VERBOSE=1
CMAKE_PREFIX_PATH=/cvmfs/atlas.cern.ch/repo/sw/software/23.0/Athena/23.0.3/InstallArea/x86_64-centos7-gcc11-opt:/cvmfs/atlas.cern.ch/repo/sw/software/23.0/AthenaExternals/23.0.3/InstallArea/x86_64-centos7-gcc11-opt
CMTCONFIG=x86_64-centos7-gcc11-opt
CMTUSERCONTEXT=/cvmfs/atlas.cern.ch/repo/tools/slc6/cmt
COMPILER_PATH=/cvmfs/sft.cern.ch/lcg/releases/gcc/11.2.0-8a51a/x86_64-centos7
COOL_DISABLE_CORALCONNECTIONPOOLCLEANUP=YES
COOL_ORA_ENABLE_ADAPTIVE_OPT=Y
CORAL_AUTH_PATH=/cvmfs/atlas.cern.ch/repo/sw/software/23.0/Athena/23.0.3/InstallArea/x86_64-centos7-gcc11-opt/XML/AtlasAuthentication
CORAL_DBLOOKUP_PATH=/cvmfs/atlas.cern.ch/repo/sw/software/23.0/Athena/23.0.3/InstallArea/x86_64-centos7-gcc11-opt/XML/AtlasAuthentication
CPPYY_API_PATH=none
CPPYY_NO_ROOT_FILTER=1
CUDACXX=/cvmfs/atlas.cern.ch/repo/sw/software/23.0/sw/lcg/releases/LCG_101_ATLAS_24/cuda/11.4/x86_64-centos7-gcc11-opt/bin/nvcc
CXX=/cvmfs/sft.cern.ch/lcg/releases/gcc/11.2.0-8a51a/x86_64-centos7/bin/g++
DATAPATH=/bmk/atlas-gen_sherpa-ma/auxfiles:/cvmfs/atlas.cern.ch/repo/sw/Generators/MCJobOptions/common/MadGraphControl/dat/:/cvmfs/atlas.cern.ch/repo/sw/software/23.0/Athena/23.0.3/InstallArea/x86_64-centos7-gcc11-opt/data:/cvmfs/atlas.cern.ch/repo/sw/software/23.0/Athena/23.0.3/InstallArea/x86_64-centos7-gcc11-opt/share:/cvmfs/atlas.cern.ch/repo/sw/software/23.0/AthenaExternals/23.0.3/InstallArea/x86_64-centos7-gcc11-opt/share:/cvmfs/atlas.cern.ch/repo/sw/software/23.0/AthenaExternals/23.0.3/InstallArea/x86_64-centos7-gcc11-opt/data:/sw/DbData:/cvmfs/atlas.cern.ch/repo/sw/software/23.0/atlas/offline/ReleaseData/v20:/cvmfs/atlas.cern.ch/repo/sw/software/23.0/atlas/offline/ReleaseData/v20/testfile:/cvmfs/atlas.cern.ch/repo/sw/software/23.0/atlas/offline/external/TwissFiles/v003:/cvmfs/atlas-nightlies.cern.ch/repo/data/data-art
DBRELEASE_OVERRIDE=current
DEBUG=1
DYLD_LIBRARY_PATH=/cvmfs/atlas.cern.ch/repo/sw/software/23.0/Athena/23.0.3/InstallArea/x86_64-centos7-gcc11-opt/lib:/cvmfs/atlas.cern.ch/repo/sw/software/23.0/AthenaExternals/23.0.3/InstallArea/x86_64-centos7-gcc11-opt/lib
EMI_PYTHONBIN=python
EPOSVER=2.0.1p4
EVTGENVER=2.1.1
EXTRA_CLING_ARGS= -O2 -mavx
FASTJETPATH=/cvmfs/atlas.cern.ch/repo/sw/software/23.0/sw/lcg/releases/LCG_101_ATLAS_24/fastjet/3.4.0p1/x86_64-centos7-gcc11-opt
FC=/cvmfs/sft.cern.ch/lcg/releases/gcc/11.2.0-8a51a/x86_64-centos7/bin/gfortran
FRONTIER_LOG_LEVEL=warning
FRONTIER_SERVER=(serverurl=http://atlasfrontier-ai.cern.ch:8000/atlr)(serverurl=http://frontier-atlas.lcg.triumf.ca:3128/ATLAS_frontier)(serverurl=http://ccfrontier.in2p3.fr:23128/ccin2p3-AtlasFrontier)(proxyurl=http://atlasbpfrontier.cern.ch:3127)(proxyurl=http://atlasbpfrontier.fnal.gov:3127)
G4ABLADATA=/cvmfs/atlas.cern.ch/repo/sw/software/23.0/Geant4/share/geant4.10.6.patch03.atlasmt03/data/G4ABLA
G4ENSDFSTATEDATA=/cvmfs/atlas.cern.ch/repo/sw/software/23.0/Geant4/share/geant4.10.6.patch03.atlasmt03/data/G4ENSDFSTATE
G4INCLDATA=/cvmfs/atlas.cern.ch/repo/sw/software/23.0/Geant4/share/geant4.10.6.patch03.atlasmt03/data/G4INCL
G4INCLUDE=/cvmfs/atlas.cern.ch/repo/sw/software/23.0/Athena/23.0.3/InstallArea/x86_64-centos7-gcc11-opt/../../../../AthenaExternals/23.0.3/InstallArea/x86_64-centos7-gcc11-opt/include/Geant4
G4INSTALL=/cvmfs/atlas.cern.ch/repo/sw/software/23.0/Athena/23.0.3/InstallArea/x86_64-centos7-gcc11-opt/../../../../AthenaExternals/23.0.3/InstallArea/x86_64-centos7-gcc11-opt
G4LEDATA=/cvmfs/atlas.cern.ch/repo/sw/software/23.0/Geant4/share/geant4.10.6.patch03.atlasmt03/data/G4EMLOW
G4LEVELGAMMADATA=/cvmfs/atlas.cern.ch/repo/sw/software/23.0/Geant4/share/geant4.10.6.patch03.atlasmt03/data/PhotonEvaporation
G4LIB=/cvmfs/atlas.cern.ch/repo/sw/software/23.0/Athena/23.0.3/InstallArea/x86_64-centos7-gcc11-opt/../../../../AthenaExternals/23.0.3/InstallArea/x86_64-centos7-gcc11-opt/lib
G4NEUTRONHPDATA=/cvmfs/atlas.cern.ch/repo/sw/software/23.0/Geant4/share/geant4.10.6.patch03.atlasmt03/data/G4NDL
G4PARTICLEXSDATA=/cvmfs/atlas.cern.ch/repo/sw/software/23.0/Geant4/share/geant4.10.6.patch03.atlasmt03/data/G4PARTICLEXS
G4PATH=/cvmfs/atlas.cern.ch/repo/sw/software/23.0/Geant4
G4PIIDATA=/cvmfs/atlas.cern.ch/repo/sw/software/23.0/Geant4/share/geant4.10.6.patch03.atlasmt03/data/G4PII
G4RADIOACTIVEDATA=/cvmfs/atlas.cern.ch/repo/sw/software/23.0/Geant4/share/geant4.10.6.patch03.atlasmt03/data/RadioactiveDecay
G4REALSURFACEDATA=/cvmfs/atlas.cern.ch/repo/sw/software/23.0/Geant4/share/geant4.10.6.patch03.atlasmt03/data/RealSurface
G4SAIDXSDATA=/cvmfs/atlas.cern.ch/repo/sw/software/23.0/Geant4/share/geant4.10.6.patch03.atlasmt03/data/G4SAIDDATA
G4SYSTEM=Linux-g++
G4VERS=geant4.10.6.patch03.atlasmt03
GAUDI_PROPERTY_PARSING_ERROR_DEFAULT_POLICY=Exception
GEANT4=/cvmfs/atlas.cern.ch/repo/sw/software/23.0/Athena/23.0.3/InstallArea/x86_64-centos7-gcc11-opt/../../../../AthenaExternals/23.0.3/InstallArea/x86_64-centos7-gcc11-opt
GFORTRAN_UNBUFFERED_ALL=y
Geant4_data=/cvmfs/atlas.cern.ch/repo/sw/software/23.0/Geant4/share/geant4.10.6.patch03.atlasmt03/data
HEPUTILSVER=1.3.2
HERWIG7VER=7.2.3
HERWIG7_PATH=/cvmfs/atlas.cern.ch/repo/sw/software/23.0/sw/lcg/releases/LCG_101_ATLAS_24/MCGenerators/herwig++/7.2.3/x86_64-centos7-gcc11-opt
HOME=/results/atlas-gen_sherpa-ma-c1-e4-1665695036_8962/proc_1/HOME
HOSTNAME=8370901c9952
JOBOPTSEARCHPATH=/bmk/atlas-gen_sherpa-ma/auxfiles:/cvmfs/atlas.cern.ch/repo/sw/Generators/MCJobOptions/common:.:/cvmfs/atlas.cern.ch/repo/sw/software/23.0/Athena/23.0.3/InstallArea/x86_64-centos7-gcc11-opt/jobOptions:/cvmfs/atlas.cern.ch/repo/sw/software/23.0/AthenaExternals/23.0.3/InstallArea/x86_64-centos7-gcc11-opt/jobOptions:/results/atlas-gen_sherpa-ma-c1-e4-1665695036_8962/proc_1
LANG=C
LCG_PLATFORM=x86_64-centos7-gcc11-opt
LCG_RELEASE_BASE=/cvmfs/atlas.cern.ch/repo/sw/software/23.0/sw/lcg/releases
LC_ALL=C
LD_LIBRARY_PATH=/cvmfs/atlas.cern.ch/repo/sw/software/23.0/Athena/23.0.3/InstallArea/x86_64-centos7-gcc11-opt/lib:/cvmfs/atlas.cern.ch/repo/sw/software/23.0/AthenaExternals/23.0.3/InstallArea/x86_64-centos7-gcc11-opt/lib:/cvmfs/atlas.cern.ch/repo/sw/software/23.0/sw/lcg/releases/LCG_101_ATLAS_24/fmt/7.1.3/x86_64-centos7-gcc11-opt/lib64:/cvmfs/atlas.cern.ch/repo/sw/software/23.0/sw/lcg/releases/LCG_101_ATLAS_24/frontier_client/2.9.1/x86_64-centos7-gcc11-opt/lib:/cvmfs/atlas.cern.ch/repo/sw/software/23.0/sw/lcg/releases/LCG_101_ATLAS_24/png/1.6.37/x86_64-centos7-gcc11-opt/lib:/cvmfs/atlas.cern.ch/repo/sw/software/23.0/sw/lcg/releases/LCG_101_ATLAS_24/zlib/1.2.11/x86_64-centos7-gcc11-opt/lib:/cvmfs/atlas.cern.ch/repo/sw/software/23.0/sw/lcg/releases/LCG_101_ATLAS_24/tiff/4.2.0/x86_64-centos7-gcc11-opt/lib64:/cvmfs/atlas.cern.ch/repo/sw/software/23.0/sw/lcg/releases/LCG_101_ATLAS_24/cudnn/8.2.4.15/x86_64-centos7-gcc11-opt/lib64:/cvmfs/atlas.cern.ch/repo/sw/software/23.0/sw/lcg/releases/LCG_101_ATLAS_24/libunwind/1.3.1/x86_64-centos7-gcc11-opt/lib:/cvmfs/atlas.cern.ch/repo/sw/software/23.0/sw/lcg/releases/LCG_101_ATLAS_24/gperftools/2.9.1/x86_64-centos7-gcc11-opt/lib:/cvmfs/atlas.cern.ch/repo/sw/software/23.0/sw/lcg/releases/LCG_101_ATLAS_24/vdt/0.4.3/x86_64-centos7-gcc11-opt/lib:/cvmfs/atlas.cern.ch/repo/sw/software/23.0/sw/lcg/releases/LCG_101_ATLAS_24/CppUnit/1.14.0/x86_64-centos7-gcc11-opt/lib:/cvmfs/atlas.cern.ch/repo/sw/software/23.0/sw/lcg/releases/LCG_101_ATLAS_24/protobuf/3.18.1/x86_64-centos7-gcc11-opt/lib:/cvmfs/atlas.cern.ch/repo/sw/software/23.0/sw/lcg/releases/LCG_101_ATLAS_24/sqlite/3320300/x86_64-centos7-gcc11-opt/lib:/cvmfs/atlas.cern.ch/repo/sw/software/23.0/sw/lcg/releases/LCG_101_ATLAS_24/xrootd/5.3.1/x86_64-centos7-gcc11-opt/lib64:/cvmfs/atlas.cern.ch/repo/sw/software/23.0/sw/lcg/releases/LCG_101_ATLAS_24/Davix/0.7.6/x86_64-centos7-gcc11-opt/lib64:/cvmfs/atlas.cern.ch/repo/sw/software/23.0/sw/lcg/releases/LCG_101_ATLAS_24/MCGenerators/crmc/2.0.1p4/x86_64-centos7-gcc11-opt/lib:/cvmfs/atlas.cern.ch/repo/sw/software/23.0/sw/lcg/releases/LCG_101_ATLAS_24/MCGenerators/evtgen/2.1.1/x86_64-centos7-gcc11-opt/lib64:/cvmfs/atlas.cern.ch/repo/sw/software/23.0/sw/lcg/releases/LCG_101_ATLAS_24/MCGenerators/herwig++/7.2.3/x86_64-centos7-gcc11-opt/lib/Herwig:/cvmfs/atlas.cern.ch/repo/sw/software/23.0/sw/lcg/releases/LCG_101_ATLAS_24/MCGenerators/thepeg/2.2.3/x86_64-centos7-gcc11-opt/lib/ThePEG:/cvmfs/atlas.cern.ch/repo/sw/software/23.0/sw/lcg/releases/LCG_101_ATLAS_24/MCGenerators/hijing/1.383bs.2/x86_64-centos7-gcc11-opt/lib:/cvmfs/atlas.cern.ch/repo/sw/software/23.0/sw/lcg/releases/LCG_101_ATLAS_24/MCGenerators/hydjet/1.8/x86_64-centos7-gcc11-opt/lib:/cvmfs/atlas.cern.ch/repo/sw/software/23.0/sw/lcg/releases/LCG_101_ATLAS_24/MCGenerators/pyquen/1.5.1/x86_64-centos7-gcc11-opt/lib:/cvmfs/atlas.cern.ch/repo/sw/software/23.0/sw/lcg/releases/LCG_101_ATLAS_24/MCGenerators/pythia6/429.2/x86_64-centos7-gcc11-opt/lib:/cvmfs/atlas.cern.ch/repo/sw/software/23.0/sw/lcg/releases/LCG_101_ATLAS_24/MCGenerators/photos++/3.64/x86_64-centos7-gcc11-opt/lib:/cvmfs/atlas.cern.ch/repo/sw/software/23.0/sw/lcg/releases/LCG_101_ATLAS_24/HepMC/2.06.11/x86_64-centos7-gcc11-opt/lib:/cvmfs/atlas.cern.ch/repo/sw/software/23.0/sw/lcg/releases/LCG_101_ATLAS_24/MCGenerators/sherpa/2.2.12.bbba1f7/x86_64-centos7-gcc11-opt/lib/SHERPA-MC:/cvmfs/atlas.cern.ch/repo/sw/software/23.0/sw/lcg/releases/LCG_101_ATLAS_24/MCGenerators/openloops/2.1.2/x86_64-centos7-gcc11-opt/lib:/cvmfs/atlas.cern.ch/repo/sw/software/23.0/sw/lcg/releases/LCG_101_ATLAS_24/MCGenerators/starlight/r313/x86_64-centos7-gcc11-opt/lib:/cvmfs/atlas.cern.ch/repo/sw/software/23.0/sw/lcg/releases/LCG_101_ATLAS_24/MCGenerators/apfel/3.0.4/x86_64-centos7-gcc11-opt/lib:/cvmfs/atlas.cern.ch/repo/sw/software/23.0/sw/lcg/releases/LCG_101_ATLAS_24/MCGenerators/superchic/4.13p1/x86_64-centos7-gcc11-opt/lib:/cvmfs/atlas.cern.ch/repo/sw/software/23.0/sw/lcg/releases/LCG_101_ATLAS_24/MCGenerators/tauola++/1.1.8.atlas1/x86_64-centos7-gcc11-opt/lib:/cvmfs/atlas.cern.ch/repo/sw/software/23.0/sw/lcg/releases/LCG_101_ATLAS_24/MCGenerators/rivet/3.1.6/x86_64-centos7-gcc11-opt/lib:/cvmfs/atlas.cern.ch/repo/sw/software/23.0/sw/lcg/releases/LCG_101_ATLAS_24/MCGenerators/yoda/1.9.5/x86_64-centos7-gcc11-opt/lib:/cvmfs/atlas.cern.ch/repo/sw/software/23.0/sw/lcg/releases/LCG_101_ATLAS_24/libxslt/1.1.34/x86_64-centos7-gcc11-opt/lib:/cvmfs/atlas.cern.ch/repo/sw/software/23.0/tdaq/tdaq-09-04-00/installed/x86_64-centos7-gcc11-opt/lib:/cvmfs/atlas.cern.ch/repo/sw/software/23.0/sw/lcg/releases/LCG_101_ATLAS_24/fftw3/3.3.8/x86_64-centos7-gcc11-opt/lib:/cvmfs/atlas.cern.ch/repo/sw/software/23.0/sw/lcg/releases/LCG_101_ATLAS_24/hdf5/1.10.6/x86_64-centos7-gcc11-opt/lib:/cvmfs/atlas.cern.ch/repo/sw/software/23.0/sw/lcg/releases/LCG_101_ATLAS_24/fastjet/3.4.0p1/x86_64-centos7-gcc11-opt/lib:/cvmfs/atlas.cern.ch/repo/sw/software/23.0/sw/lcg/releases/LCG_101_ATLAS_24/fjcontrib/1.046/x86_64-centos7-gcc11-opt/lib:/cvmfs/atlas.cern.ch/repo/sw/software/23.0/sw/lcg/releases/LCG_101_ATLAS_24/MCGenerators/lhapdf/6.5.1/x86_64-centos7-gcc11-opt/lib:/cvmfs/atlas.cern.ch/repo/sw/software/23.0/sw/lcg/releases/LCG_101_ATLAS_24/MCGenerators/pythia8/307p1/x86_64-centos7-gcc11-opt/lib:/cvmfs/atlas.cern.ch/repo/sw/software/23.0/sw/lcg/releases/LCG_101_ATLAS_24/libxml2/2.9.10/x86_64-centos7-gcc11-opt/lib:/cvmfs/atlas.cern.ch/repo/sw/software/23.0/sw/lcg/releases/LCG_101_ATLAS_24/graphviz/2.40.1/x86_64-centos7-gcc11-opt/lib:/cvmfs/atlas.cern.ch/repo/sw/software/23.0/sw/lcg/releases/LCG_101_ATLAS_24/blas/0.3.17.openblas/x86_64-centos7-gcc11-opt/lib:/cvmfs/atlas.cern.ch/repo/sw/software/23.0/sw/lcg/releases/LCG_101_ATLAS_24/expat/2.2.6/x86_64-centos7-gcc11-opt/lib64:/cvmfs/atlas.cern.ch/repo/sw/software/23.0/sw/lcg/releases/LCG_101_ATLAS_24/XercesC/3.2.3/x86_64-centos7-gcc11-opt/lib:/cvmfs/atlas.cern.ch/repo/sw/software/23.0/sw/lcg/releases/LCG_101_ATLAS_24/cuda/11.4/x86_64-centos7-gcc11-opt/lib64:/cvmfs/atlas.cern.ch/repo/sw/software/23.0/sw/lcg/releases/LCG_101_ATLAS_24/GSL/2.7/x86_64-centos7-gcc11-opt/lib:/cvmfs/atlas.cern.ch/repo/sw/software/23.0/sw/lcg/releases/LCG_101_ATLAS_24/tbb/2020_U2/x86_64-centos7-gcc11-opt/lib:/cvmfs/atlas.cern.ch/repo/sw/software/23.0/sw/lcg/releases/LCG_101_ATLAS_24/oracle/19.11.0.0.0/x86_64-centos7-gcc11-opt/lib:/cvmfs/atlas.cern.ch/repo/sw/software/23.0/tdaq-common/tdaq-common-04-04-00/installed/external/x86_64-centos7-gcc11-opt/lib:/cvmfs/atlas.cern.ch/repo/sw/software/23.0/sw/lcg/releases/LCG_101_ATLAS_24/Python/3.9.6/x86_64-centos7-gcc11-opt/lib:/cvmfs/atlas.cern.ch/repo/sw/software/23.0/tdaq-common/tdaq-common-04-04-00/installed/x86_64-centos7-gcc11-opt/lib:/cvmfs/atlas.cern.ch/repo/sw/software/23.0/sw/lcg/releases/LCG_101_ATLAS_24/Boost/1.77.0/x86_64-centos7-gcc11-opt/lib:/cvmfs/atlas.cern.ch/repo/sw/software/23.0/sw/lcg/releases/LCG_101_ATLAS_24/libxkbcommon/0.7.1/x86_64-centos7-gcc11-opt/lib:/cvmfs/atlas.cern.ch/repo/sw/software/23.0/sw/lcg/releases/LCG_101_ATLAS_24/libffi/3.2.1/x86_64-centos7-gcc11-opt/lib64:/cvmfs/atlas.cern.ch/repo/sw/software/23.0/sw/lcg/releases/LCG_101_ATLAS_24/ROOT/6.24.06a/x86_64-centos7-gcc11-opt/lib:/cvmfs/atlas.cern.ch/repo/sw/software/23.0/sw/lcg/releases/LCG_101_ATLAS_24/HepPDT/2.06.01/x86_64-centos7-gcc11-opt/lib:/cvmfs/atlas.cern.ch/repo/sw/software/23.0/sw/lcg/releases/LCG_101_ATLAS_24/freetype/2.10.0/x86_64-centos7-gcc11-opt/lib:/cvmfs/atlas.cern.ch/repo/sw/software/23.0/sw/lcg/releases/LCG_101_ATLAS_24/qt5/5.12.4/x86_64-centos7-gcc11-opt/lib:/cvmfs/sft.cern.ch/lcg/releases/gcc/11.2.0-8a51a/x86_64-centos7/lib:/cvmfs/sft.cern.ch/lcg/releases/gcc/11.2.0-8a51a/x86_64-centos7/lib64:/cvmfs/sft.cern.ch/lcg/releases/binutils/2.37-355ed/x86_64-centos7/lib
LHAPATH=/cvmfs/atlas.cern.ch/repo/sw/Generators/lhapdfsets/current:/cvmfs/atlas.cern.ch/repo/sw/software/23.0/sw/lcg/releases/LCG_101_ATLAS_24/MCGenerators/lhapdf/6.5.1/x86_64-centos7-gcc11-opt/share/LHAPDF:/cvmfs/sft.cern.ch/lcg/external/lhapdfsets/current:/cvmfs/atlas.cern.ch/repo/sw/software/23.0/sw/lcg/releases/LCG_101_ATLAS_24/MCGenerators/lhapdf/6.5.1/x86_64-centos7-gcc11-opt/share/LHAPDF
LHAPDFVER=6.5.1
LHAPDF_DATA_PATH=/cvmfs/atlas.cern.ch/repo/sw/Generators/lhapdfsets/current:/cvmfs/atlas.cern.ch/repo/sw/software/23.0/sw/lcg/releases/LCG_101_ATLAS_24/MCGenerators/lhapdf/6.5.1/x86_64-centos7-gcc11-opt/share/LHAPDF:/cvmfs/sft.cern.ch/lcg/external/lhapdfsets/current:/cvmfs/atlas.cern.ch/repo/sw/software/23.0/sw/lcg/releases/LCG_101_ATLAS_24/MCGenerators/lhapdf/6.5.1/x86_64-centos7-gcc11-opt/share/LHAPDF
LOCAL_INSTALL_DIR=.
MADGRAPHVER=3.3.1.atlas3
MADPATH=/cvmfs/atlas.cern.ch/repo/sw/software/23.0/sw/lcg/releases/LCG_101_ATLAS_24/MCGenerators/madgraph5amc/3.3.1.atlas3/x86_64-centos7-gcc11-opt
MAKEFLAGS=-j4 -l4
MANPATH=/cvmfs/sft.cern.ch/lcg/releases/gcc/11.2.0-8a51a/x86_64-centos7/share/man:/cvmfs/sft.cern.ch/lcg/releases/binutils/2.37-355ed/x86_64-centos7/share/man:/usr/local/share/man:/usr/share/man
MCUTILSVER=1.3.5
NCOPIES=1
NEVENTS_THREAD=4
NTHREADS=1
OLDPWD=/proc/50
OPENBLAS_NUM_THREADS=1
OPENLOOPSPATH=/cvmfs/atlas.cern.ch/repo/sw/software/23.0/sw/lcg/releases/LCG_101_ATLAS_24/MCGenerators/openloops/2.1.2/x86_64-centos7-gcc11-opt
OPENLOOPSVER=2.1.2
ORA_FPU_PRECISION=EXTENDED
PATH=/tmp/bmkuser/.asetup-sysbin-a2Zo2p_1:/cvmfs/atlas.cern.ch/repo/sw/software/23.0/Athena/23.0.3/InstallArea/x86_64-centos7-gcc11-opt/share:/cvmfs/atlas.cern.ch/repo/sw/software/23.0/Athena/23.0.3/InstallArea/x86_64-centos7-gcc11-opt/bin:/cvmfs/atlas.cern.ch/repo/sw/software/23.0/AthenaExternals/23.0.3/InstallArea/x86_64-centos7-gcc11-opt/bin:/cvmfs/atlas.cern.ch/repo/sw/software/23.0/sw/lcg/releases/LCG_101_ATLAS_24/doxygen/1.8.18/x86_64-centos7-gcc11-opt/bin:/cvmfs/atlas.cern.ch/repo/sw/software/23.0/sw/lcg/releases/LCG_101_ATLAS_24/heaptrack/1.3.0/x86_64-centos7-gcc11-opt/bin:/cvmfs/atlas.cern.ch/repo/sw/software/23.0/sw/lcg/releases/LCG_101_ATLAS_24/numpy/1.21.1/x86_64-centos7-gcc11-opt/bin:/cvmfs/atlas.cern.ch/repo/sw/software/23.0/sw/lcg/releases/LCG_101_ATLAS_24/pprof/54271f7/x86_64-centos7-gcc11-opt/bin:/cvmfs/atlas.cern.ch/repo/sw/software/23.0/sw/lcg/releases/LCG_101_ATLAS_24/valgrind/3.19.0/x86_64-centos7-gcc11-opt/bin:/cvmfs/atlas.cern.ch/repo/sw/software/23.0/sw/lcg/releases/LCG_101_ATLAS_24/ipython/7.25.0/x86_64-centos7-gcc11-opt/bin:/cvmfs/atlas.cern.ch/repo/sw/software/23.0/sw/lcg/releases/LCG_101_ATLAS_24/protobuf/3.18.1/x86_64-centos7-gcc11-opt/bin:/cvmfs/atlas.cern.ch/repo/sw/software/23.0/sw/lcg/releases/LCG_101_ATLAS_24/jmespath/0.10.0/x86_64-centos7-gcc11-opt/bin:/cvmfs/atlas.cern.ch/repo/sw/software/23.0/sw/lcg/releases/LCG_101_ATLAS_24/sqlite/3320300/x86_64-centos7-gcc11-opt/bin:/cvmfs/atlas.cern.ch/repo/sw/software/23.0/sw/lcg/releases/LCG_101_ATLAS_24/xrootd/5.3.1/x86_64-centos7-gcc11-opt/bin:/cvmfs/atlas.cern.ch/repo/sw/software/23.0/sw/lcg/releases/LCG_101_ATLAS_24/MCGenerators/hto4l/2.02/x86_64-centos7-gcc11-opt/bin:/cvmfs/atlas.cern.ch/repo/sw/software/23.0/sw/lcg/releases/LCG_101_ATLAS_24/MCGenerators/prophecy4f/3.0/x86_64-centos7-gcc11-opt/bin:/cvmfs/atlas.cern.ch/repo/sw/software/23.0/sw/lcg/releases/LCG_101_ATLAS_24/MCGenerators/sherpa/2.2.12.bbba1f7/x86_64-centos7-gcc11-opt/bin:/cvmfs/atlas.cern.ch/repo/sw/software/23.0/sw/lcg/releases/LCG_101_ATLAS_24/MCGenerators/superchic/4.13p1/x86_64-centos7-gcc11-opt/bin:/cvmfs/atlas.cern.ch/repo/sw/software/23.0/tdaq/tdaq-09-04-00/installed/x86_64-centos7-gcc11-opt/bin:/cvmfs/atlas.cern.ch/repo/sw/software/23.0/tdaq/tdaq-09-04-00/installed/share/bin:/cvmfs/atlas.cern.ch/repo/sw/software/23.0/sw/lcg/releases/LCG_101_ATLAS_24/graphviz/2.40.1/x86_64-centos7-gcc11-opt/bin:/cvmfs/atlas.cern.ch/repo/sw/software/23.0/sw/lcg/releases/LCG_101_ATLAS_24/cuda/11.4/x86_64-centos7-gcc11-opt/bin:/cvmfs/atlas.cern.ch/repo/sw/software/23.0/tdaq-common/tdaq-common-04-04-00/installed/external/x86_64-centos7-gcc11-opt/bin:/cvmfs/atlas.cern.ch/repo/sw/software/23.0/sw/lcg/releases/LCG_101_ATLAS_24/Python/3.9.6/x86_64-centos7-gcc11-opt/bin:/cvmfs/atlas.cern.ch/repo/sw/software/23.0/sw/lcg/releases/LCG_101_ATLAS_24/future/0.17.1/x86_64-centos7-gcc11-opt/bin:/cvmfs/atlas.cern.ch/repo/sw/software/23.0/tdaq-common/tdaq-common-04-04-00/installed/x86_64-centos7-gcc11-opt/bin:/cvmfs/atlas.cern.ch/repo/sw/software/23.0/tdaq-common/tdaq-common-04-04-00/installed/share/bin:/cvmfs/atlas.cern.ch/repo/sw/software/23.0/sw/lcg/releases/LCG_101_ATLAS_24/ROOT/6.24.06a/x86_64-centos7-gcc11-opt/bin:/cvmfs/atlas.cern.ch/repo/sw/software/23.0/AthenaExternals/23.0.3/InstallArea/x86_64-centos7-gcc11-opt/share:/cvmfs/atlas.cern.ch/repo/sw/software/23.0/sw/lcg/releases/LCG_101_ATLAS_24/nose/1.3.7/x86_64-centos7-gcc11-opt/bin:/cvmfs/atlas.cern.ch/repo/sw/software/23.0/sw/lcg/releases/LCG_101_ATLAS_24/pip/21.0.1/x86_64-centos7-gcc11-opt/bin:/cvmfs/atlas.cern.ch/repo/ATLASLocalRootBase/x86_64/Cmake/3.21.3/Linux-x86_64/bin:/cvmfs/sft.cern.ch/lcg/releases/gcc/11.2.0-8a51a/x86_64-centos7/bin:/cvmfs/sft.cern.ch/lcg/releases/binutils/2.37-355ed/x86_64-centos7/bin:/usr/local/sbin:/usr/local/bin:/usr/sbin:/usr/bin:/sbin:/bin
PHOTOSPPVER=3.64
POWHEGPATH=/cvmfs/atlas.cern.ch/repo/sw/Generators/powheg/ATLASOTF-05-03
POWHEGVER=05-03
PWD=/results/atlas-gen_sherpa-ma-c1-e4-1665695036_8962/proc_1
PY8PATH=/cvmfs/atlas.cern.ch/repo/sw/software/23.0/sw/lcg/releases/LCG_101_ATLAS_24/MCGenerators/pythia8/307p1/x86_64-centos7-gcc11-opt
PYTHIA8VER=307p1
PYTHONHOME=/cvmfs/atlas.cern.ch/repo/sw/software/23.0/sw/lcg/releases/LCG_101_ATLAS_24/Python/3.9.6/x86_64-centos7-gcc11-opt
PYTHONPATH=/cvmfs/atlas.cern.ch/repo/sw/software/23.0/Athena/23.0.3/InstallArea/x86_64-centos7-gcc11-opt/python:/cvmfs/atlas.cern.ch/repo/sw/software/23.0/Athena/23.0.3/InstallArea/x86_64-centos7-gcc11-opt/lib:/cvmfs/atlas.cern.ch/repo/sw/software/23.0/AthenaExternals/23.0.3/InstallArea/x86_64-centos7-gcc11-opt/python:/cvmfs/atlas.cern.ch/repo/sw/software/23.0/sw/lcg/releases/LCG_101_ATLAS_24/matplotlib/3.4.3/x86_64-centos7-gcc11-opt/lib/python3.9/site-packages:/cvmfs/atlas.cern.ch/repo/sw/software/23.0/sw/lcg/releases/LCG_101_ATLAS_24/numpy/1.21.1/x86_64-centos7-gcc11-opt/lib/python3.9/site-packages:/cvmfs/atlas.cern.ch/repo/sw/software/23.0/sw/lcg/releases/LCG_101_ATLAS_24/pandas/1.2.2/x86_64-centos7-gcc11-opt/lib/python3.9/site-packages:/cvmfs/atlas.cern.ch/repo/sw/software/23.0/sw/lcg/releases/LCG_101_ATLAS_24/ipython/7.25.0/x86_64-centos7-gcc11-opt/lib/python3.9/site-packages:/cvmfs/atlas.cern.ch/repo/sw/software/23.0/sw/lcg/releases/LCG_101_ATLAS_24/sqlalchemy/1.2.10/x86_64-centos7-gcc11-opt/lib/python3.9/site-packages:/cvmfs/atlas.cern.ch/repo/sw/software/23.0/sw/lcg/releases/LCG_101_ATLAS_24/protobuf/3.18.1/x86_64-centos7-gcc11-opt/lib/python3.9/site-packages:/cvmfs/atlas.cern.ch/repo/sw/software/23.0/sw/lcg/releases/LCG_101_ATLAS_24/boto3/1.18.37/x86_64-centos7-gcc11-opt/lib/python3.9/site-packages:/cvmfs/atlas.cern.ch/repo/sw/software/23.0/sw/lcg/releases/LCG_101_ATLAS_24/botocore/1.21.37/x86_64-centos7-gcc11-opt/lib/python3.9/site-packages:/cvmfs/atlas.cern.ch/repo/sw/software/23.0/sw/lcg/releases/LCG_101_ATLAS_24/jmespath/0.10.0/x86_64-centos7-gcc11-opt/lib/python3.9/site-packages:/cvmfs/atlas.cern.ch/repo/sw/software/23.0/sw/lcg/releases/LCG_101_ATLAS_24/s3transfer/0.5.0/x86_64-centos7-gcc11-opt/lib/python3.9/site-packages:/cvmfs/atlas.cern.ch/repo/sw/software/23.0/sw/lcg/releases/LCG_101_ATLAS_24/stomppy/6.1.0/x86_64-centos7-gcc11-opt/lib/python3.9/site-packages:/cvmfs/atlas.cern.ch/repo/sw/software/23.0/sw/lcg/releases/LCG_101_ATLAS_24/MCGenerators/madgraph5amc/3.3.1.atlas3/x86_64-centos7-gcc11-opt:/cvmfs/atlas.cern.ch/repo/sw/software/23.0/tdaq/tdaq-09-04-00/installed/share/lib/python:/cvmfs/atlas.cern.ch/repo/sw/software/23.0/tdaq/tdaq-09-04-00/installed/x86_64-centos7-gcc11-opt/lib:/cvmfs/atlas.cern.ch/repo/sw/software/23.0/sw/lcg/releases/LCG_101_ATLAS_24/pyyaml/5.3.1/x86_64-centos7-gcc11-opt/lib/python3.9/site-packages:/cvmfs/atlas.cern.ch/repo/sw/software/23.0/sw/lcg/releases/LCG_101_ATLAS_24/distro/1.5.0/x86_64-centos7-gcc11-opt/lib/python3.9/site-packages:/cvmfs/atlas.cern.ch/repo/sw/software/23.0/sw/lcg/releases/LCG_101_ATLAS_24/decorator/5.0.9/x86_64-centos7-gcc11-opt/lib/python3.9/site-packages:/cvmfs/atlas.cern.ch/repo/sw/software/23.0/sw/lcg/releases/LCG_101_ATLAS_24/pygraphviz/1.7/x86_64-centos7-gcc11-opt/lib/python3.9/site-packages:/cvmfs/atlas.cern.ch/repo/sw/software/23.0/sw/lcg/releases/LCG_101_ATLAS_24/six/1.16.0/x86_64-centos7-gcc11-opt/lib/python3.9/site-packages:/cvmfs/atlas.cern.ch/repo/sw/software/23.0/sw/lcg/releases/LCG_101_ATLAS_24/cx_oracle/7.1.3/x86_64-centos7-gcc11-opt/lib/python3.9/site-packages:/cvmfs/atlas.cern.ch/repo/sw/software/23.0/tdaq-common/tdaq-common-04-04-00/installed/external/x86_64-centos7-gcc11-opt/python:/cvmfs/atlas.cern.ch/repo/sw/software/23.0/tdaq-common/tdaq-common-04-04-00/installed/external/x86_64-centos7-gcc11-opt/lib:/cvmfs/atlas.cern.ch/repo/sw/software/23.0/sw/lcg/releases/LCG_101_ATLAS_24/future/0.17.1/x86_64-centos7-gcc11-opt/lib/python3.9/site-packages:/cvmfs/atlas.cern.ch/repo/sw/software/23.0/tdaq-common/tdaq-common-04-04-00/installed/share/lib/python:/cvmfs/atlas.cern.ch/repo/sw/software/23.0/tdaq-common/tdaq-common-04-04-00/installed/x86_64-centos7-gcc11-opt/lib:/cvmfs/atlas.cern.ch/repo/sw/software/23.0/sw/lcg/releases/LCG_101_ATLAS_24/requests/2.26.0/x86_64-centos7-gcc11-opt/lib/python3.9/site-packages:/cvmfs/atlas.cern.ch/repo/sw/software/23.0/sw/lcg/releases/LCG_101_ATLAS_24/psutil/5.6.2/x86_64-centos7-gcc11-opt/lib/python3.9/site-packages:/cvmfs/atlas.cern.ch/repo/sw/software/23.0/sw/lcg/releases/LCG_101_ATLAS_24/ROOT/6.24.06a/x86_64-centos7-gcc11-opt/lib:/cvmfs/atlas.cern.ch/repo/sw/software/23.0/AthenaExternals/23.0.3/InstallArea/x86_64-centos7-gcc11-opt/lib:/cvmfs/atlas.cern.ch/repo/sw/software/23.0/sw/lcg/releases/LCG_101_ATLAS_24/nose/1.3.7/x86_64-centos7-gcc11-opt/lib/python3.9/site-packages:/cvmfs/atlas.cern.ch/repo/sw/software/23.0/sw/lcg/releases/LCG_101_ATLAS_24/mccabe/0.6.1/x86_64-centos7-gcc11-opt/lib/python3.9/site-packages:/cvmfs/atlas.cern.ch/repo/sw/software/23.0/sw/lcg/releases/LCG_101_ATLAS_24/pip/21.0.1/x86_64-centos7-gcc11-opt/lib/python3.9/site-packages:/cvmfs/atlas.cern.ch/repo/sw/software/23.0/AthenaExternals/23.0.3/InstallArea/x86_64-centos7-gcc11-opt/lib/python3.9/site-packages
QTLIB=/cvmfs/atlas.cern.ch/repo/sw/software/23.0/sw/lcg/releases/LCG_101_ATLAS_24/qt5/5.12.4/x86_64-centos7-gcc11-opt/lib
QT_PLUGIN_PATH=/cvmfs/atlas.cern.ch/repo/sw/software/23.0/sw/lcg/releases/LCG_101_ATLAS_24/qt5/5.12.4/x86_64-centos7-gcc11-opt/plugins:/cvmfs/atlas.cern.ch/repo/sw/software/23.0/sw/lcg/releases/LCG_101_ATLAS_24/qt5/5.12.4/x86_64-centos7-gcc11-opt/plugins
QT_XKB_CONFIG_ROOT=/cvmfs/atlas.cern.ch/repo/sw/software/23.0/sw/lcg/releases/LCG_101_ATLAS_24/libxkbcommon/0.7.1/x86_64-centos7-gcc11-opt/lib
RIVETVER=3.1.6
RIVET_PATH=/cvmfs/atlas.cern.ch/repo/sw/software/23.0/sw/lcg/releases/LCG_101_ATLAS_24/MCGenerators/rivet/3.1.6/x86_64-centos7-gcc11-opt
ROOTCORE_RELEASE_SERIES=25
ROOTCORE_TEST_DATA=/cvmfs/atlas-nightlies.cern.ch/repo/data/data-art/ASG/DAOD_PHYS/p5169/mc20_13TeV.410470.PhPy8EG_A14_ttbar_hdamp258p75_nonallhad.deriv.DAOD_PHYS.e6337_s3681_r13167_p5169
ROOTCORE_TEST_FILE=/cvmfs/atlas-nightlies.cern.ch/repo/data/data-art/ASG/DAOD_PHYS/p5169/mc20_13TeV.410470.PhPy8EG_A14_ttbar_hdamp258p75_nonallhad.deriv.DAOD_PHYS.e6337_s3681_r13167_p5169/DAOD_PHYS.29445530._000001.pool.root.1
ROOTSYS=/cvmfs/atlas.cern.ch/repo/sw/software/23.0/sw/lcg/releases/LCG_101_ATLAS_24/ROOT/6.24.06a/x86_64-centos7-gcc11-opt
ROOT_INCLUDE_PATH=/cvmfs/atlas.cern.ch/repo/sw/software/23.0/Athena/23.0.3/InstallArea/x86_64-centos7-gcc11-opt/include:/cvmfs/atlas.cern.ch/repo/sw/software/23.0/AthenaExternals/23.0.3/InstallArea/x86_64-centos7-gcc11-opt/include:/cvmfs/atlas.cern.ch/repo/sw/software/23.0/sw/lcg/releases/LCG_101_ATLAS_24/rangev3/0.11.0/x86_64-centos7-gcc11-opt/include:/cvmfs/atlas.cern.ch/repo/sw/software/23.0/sw/lcg/releases/LCG_101_ATLAS_24/cppgsl/3.1.0/x86_64-centos7-gcc11-opt/include:/cvmfs/atlas.cern.ch/repo/sw/software/23.0/sw/lcg/releases/LCG_101_ATLAS_24/fmt/7.1.3/x86_64-centos7-gcc11-opt/include:/cvmfs/atlas.cern.ch/repo/sw/software/23.0/sw/lcg/releases/LCG_101_ATLAS_24/frontier_client/2.9.1/x86_64-centos7-gcc11-opt/include:/cvmfs/atlas.cern.ch/repo/sw/software/23.0/sw/lcg/releases/LCG_101_ATLAS_24/png/1.6.37/x86_64-centos7-gcc11-opt/include:/cvmfs/atlas.cern.ch/repo/sw/software/23.0/sw/lcg/releases/LCG_101_ATLAS_24/zlib/1.2.11/x86_64-centos7-gcc11-opt/include:/cvmfs/atlas.cern.ch/repo/sw/software/23.0/sw/lcg/releases/LCG_101_ATLAS_24/tiff/4.2.0/x86_64-centos7-gcc11-opt/include:/cvmfs/atlas.cern.ch/repo/sw/software/23.0/sw/lcg/releases/LCG_101_ATLAS_24/heaptrack/1.3.0/x86_64-centos7-gcc11-opt/include:/cvmfs/atlas.cern.ch/repo/sw/software/23.0/sw/lcg/releases/LCG_101_ATLAS_24/cudnn/8.2.4.15/x86_64-centos7-gcc11-opt/include:/cvmfs/atlas.cern.ch/repo/sw/software/23.0/sw/lcg/releases/LCG_101_ATLAS_24/libunwind/1.3.1/x86_64-centos7-gcc11-opt/include:/cvmfs/atlas.cern.ch/repo/sw/software/23.0/sw/lcg/releases/LCG_101_ATLAS_24/gperftools/2.9.1/x86_64-centos7-gcc11-opt/include:/cvmfs/atlas.cern.ch/repo/sw/software/23.0/sw/lcg/releases/LCG_101_ATLAS_24/valgrind/3.19.0/x86_64-centos7-gcc11-opt/include:/cvmfs/atlas.cern.ch/repo/sw/software/23.0/sw/lcg/releases/LCG_101_ATLAS_24/vdt/0.4.3/x86_64-centos7-gcc11-opt/include:/cvmfs/atlas.cern.ch/repo/sw/software/23.0/sw/lcg/releases/LCG_101_ATLAS_24/CppUnit/1.14.0/x86_64-centos7-gcc11-opt/include:/cvmfs/atlas.cern.ch/repo/sw/software/23.0/sw/lcg/releases/LCG_101_ATLAS_24/protobuf/3.18.1/x86_64-centos7-gcc11-opt/include:/cvmfs/atlas.cern.ch/repo/sw/software/23.0/sw/lcg/releases/LCG_101_ATLAS_24/sqlite/3320300/x86_64-centos7-gcc11-opt/include:/cvmfs/atlas.cern.ch/repo/sw/software/23.0/sw/lcg/releases/LCG_101_ATLAS_24/xrootd/5.3.1/x86_64-centos7-gcc11-opt/include:/cvmfs/atlas.cern.ch/repo/sw/software/23.0/sw/lcg/releases/LCG_101_ATLAS_24/Davix/0.7.6/x86_64-centos7-gcc11-opt/include/davix:/cvmfs/atlas.cern.ch/repo/sw/software/23.0/sw/lcg/releases/LCG_101_ATLAS_24/MCGenerators/crmc/2.0.1p4/x86_64-centos7-gcc11-opt/include/crmc:/cvmfs/atlas.cern.ch/repo/sw/software/23.0/sw/lcg/releases/LCG_101_ATLAS_24/MCGenerators/evtgen/2.1.1/x86_64-centos7-gcc11-opt/include:/cvmfs/atlas.cern.ch/repo/sw/software/23.0/sw/lcg/releases/LCG_101_ATLAS_24/MCGenerators/herwig++/7.2.3/x86_64-centos7-gcc11-opt/include:/cvmfs/atlas.cern.ch/repo/sw/software/23.0/sw/lcg/releases/LCG_101_ATLAS_24/MCGenerators/thepeg/2.2.3/x86_64-centos7-gcc11-opt/include:/cvmfs/atlas.cern.ch/repo/sw/software/23.0/sw/lcg/releases/LCG_101_ATLAS_24/MCGenerators/pythia6/429.2/x86_64-centos7-gcc11-opt/include:/cvmfs/atlas.cern.ch/repo/sw/software/23.0/sw/lcg/releases/LCG_101_ATLAS_24/MCGenerators/photos++/3.64/x86_64-centos7-gcc11-opt/include:/cvmfs/atlas.cern.ch/repo/sw/software/23.0/sw/lcg/releases/LCG_101_ATLAS_24/HepMC/2.06.11/x86_64-centos7-gcc11-opt/include:/cvmfs/atlas.cern.ch/repo/sw/software/23.0/sw/lcg/releases/LCG_101_ATLAS_24/MCGenerators/sherpa/2.2.12.bbba1f7/x86_64-centos7-gcc11-opt/include/SHERPA-MC:/cvmfs/atlas.cern.ch/repo/sw/software/23.0/sw/lcg/releases/LCG_101_ATLAS_24/MCGenerators/openloops/2.1.2/x86_64-centos7-gcc11-opt/include:/cvmfs/atlas.cern.ch/repo/sw/software/23.0/sw/lcg/releases/LCG_101_ATLAS_24/MCGenerators/starlight/r313/x86_64-centos7-gcc11-opt/include:/cvmfs/atlas.cern.ch/repo/sw/software/23.0/sw/lcg/releases/LCG_101_ATLAS_24/MCGenerators/apfel/3.0.4/x86_64-centos7-gcc11-opt/include:/cvmfs/atlas.cern.ch/repo/sw/software/23.0/sw/lcg/releases/LCG_101_ATLAS_24/MCGenerators/superchic/4.13p1/x86_64-centos7-gcc11-opt/src/inc:/cvmfs/atlas.cern.ch/repo/sw/software/23.0/sw/lcg/releases/LCG_101_ATLAS_24/MCGenerators/tauola++/1.1.8.atlas1/x86_64-centos7-gcc11-opt/include:/cvmfs/atlas.cern.ch/repo/sw/software/23.0/sw/lcg/releases/LCG_101_ATLAS_24/MCGenerators/rivet/3.1.6/x86_64-centos7-gcc11-opt/include:/cvmfs/atlas.cern.ch/repo/sw/software/23.0/sw/lcg/releases/LCG_101_ATLAS_24/MCGenerators/yoda/1.9.5/x86_64-centos7-gcc11-opt/include:/cvmfs/atlas.cern.ch/repo/sw/software/23.0/sw/lcg/releases/LCG_101_ATLAS_24/libxslt/1.1.34/x86_64-centos7-gcc11-opt/include:/cvmfs/atlas.cern.ch/repo/sw/software/23.0/tdaq/tdaq-09-04-00/installed/include:/cvmfs/atlas.cern.ch/repo/sw/software/23.0/tdaq/tdaq-09-04-00/installed/x86_64-centos7-gcc11-opt/include:/cvmfs/atlas.cern.ch/repo/sw/software/23.0/sw/lcg/releases/LCG_101_ATLAS_24/fftw3/3.3.8/x86_64-centos7-gcc11-opt/include:/cvmfs/atlas.cern.ch/repo/sw/software/23.0/sw/lcg/releases/LCG_101_ATLAS_24/AIDA/3.2.1/x86_64-centos7-gcc11-opt/src/cpp:/cvmfs/atlas.cern.ch/repo/sw/software/23.0/sw/lcg/releases/hdf5/1.10.6-a3b1e/x86_64-centos7-gcc11-opt/include:/cvmfs/atlas.cern.ch/repo/sw/software/23.0/sw/lcg/releases/zlib/1.2.11-8af4c/x86_64-centos7-gcc11-opt/include:/cvmfs/atlas.cern.ch/repo/sw/software/23.0/AthenaExternals/23.0.3/InstallArea/x86_64-centos7-gcc11-opt/include/onnxruntime:/cvmfs/atlas.cern.ch/repo/sw/software/23.0/sw/lcg/releases/LCG_101_ATLAS_24/fastjet/3.4.0p1/x86_64-centos7-gcc11-opt/include:/cvmfs/atlas.cern.ch/repo/sw/software/23.0/sw/lcg/releases/LCG_101_ATLAS_24/fjcontrib/1.046/x86_64-centos7-gcc11-opt/include:/cvmfs/atlas.cern.ch/repo/sw/software/23.0/sw/lcg/releases/LCG_101_ATLAS_24/MCGenerators/lhapdf/6.5.1/x86_64-centos7-gcc11-opt/include:/cvmfs/atlas.cern.ch/repo/sw/software/23.0/sw/lcg/releases/LCG_101_ATLAS_24/MCGenerators/heputils/1.3.2/x86_64-centos7-gcc11-opt/include:/cvmfs/atlas.cern.ch/repo/sw/software/23.0/sw/lcg/releases/LCG_101_ATLAS_24/MCGenerators/mcutils/1.3.5/x86_64-centos7-gcc11-opt/include:/cvmfs/atlas.cern.ch/repo/sw/software/23.0/sw/lcg/releases/LCG_101_ATLAS_24/MCGenerators/pythia8/307p1/x86_64-centos7-gcc11-opt/include:/cvmfs/atlas.cern.ch/repo/sw/software/23.0/sw/lcg/releases/LCG_101_ATLAS_24/libxml2/2.9.10/x86_64-centos7-gcc11-opt/include/libxml2:/cvmfs/atlas.cern.ch/repo/sw/software/23.0/sw/lcg/releases/LCG_101_ATLAS_24/graphviz/2.40.1/x86_64-centos7-gcc11-opt/include:/cvmfs/atlas.cern.ch/repo/sw/software/23.0/sw/lcg/releases/LCG_101_ATLAS_24/eigen/3.3.7/x86_64-centos7-gcc11-opt/include/eigen3:/cvmfs/atlas.cern.ch/repo/sw/software/23.0/sw/lcg/releases/LCG_101_ATLAS_24/expat/2.2.6/x86_64-centos7-gcc11-opt/include:/cvmfs/atlas.cern.ch/repo/sw/software/23.0/sw/lcg/releases/LCG_101_ATLAS_24/XercesC/3.2.3/x86_64-centos7-gcc11-opt/include:/cvmfs/atlas.cern.ch/repo/sw/software/23.0/AthenaExternals/23.0.3/InstallArea/x86_64-centos7-gcc11-opt/include/Geant4:/cvmfs/atlas.cern.ch/repo/sw/software/23.0/sw/lcg/releases/LCG_101_ATLAS_24/cuda/11.4/x86_64-centos7-gcc11-opt/include:/cvmfs/atlas.cern.ch/repo/sw/software/23.0/sw/lcg/releases/LCG_101_ATLAS_24/GSL/2.7/x86_64-centos7-gcc11-opt/include:/cvmfs/atlas.cern.ch/repo/sw/software/23.0/sw/lcg/releases/LCG_101_ATLAS_24/tbb/2020_U2/x86_64-centos7-gcc11-opt/include:/cvmfs/atlas.cern.ch/repo/sw/software/23.0/sw/lcg/releases/LCG_101_ATLAS_24/oracle/19.11.0.0.0/x86_64-centos7-gcc11-opt/include:/cvmfs/atlas.cern.ch/repo/sw/software/23.0/tdaq-common/tdaq-common-04-04-00/installed/external/x86_64-centos7-gcc11-opt/include:/cvmfs/atlas.cern.ch/repo/sw/software/23.0/sw/lcg/releases/LCG_101_ATLAS_24/jsonmcpp/3.9.1/x86_64-centos7-gcc11-opt/include:/cvmfs/atlas.cern.ch/repo/sw/software/23.0/sw/lcg/releases/LCG_101_ATLAS_24/Python/3.9.6/x86_64-centos7-gcc11-opt/include/python3.9:/cvmfs/atlas.cern.ch/repo/sw/software/23.0/tdaq-common/tdaq-common-04-04-00/installed/include:/cvmfs/atlas.cern.ch/repo/sw/software/23.0/sw/lcg/releases/LCG_101_ATLAS_24/Boost/1.77.0/x86_64-centos7-gcc11-opt/include:/cvmfs/atlas.cern.ch/repo/sw/software/23.0/sw/lcg/releases/LCG_101_ATLAS_24/libxkbcommon/0.7.1/x86_64-centos7-gcc11-opt/include:/cvmfs/atlas.cern.ch/repo/sw/software/23.0/sw/lcg/releases/LCG_101_ATLAS_24/libffi/3.2.1/x86_64-centos7-gcc11-opt/lib/libffi-3.2.1/include:/cvmfs/atlas.cern.ch/repo/sw/software/23.0/sw/lcg/releases/LCG_101_ATLAS_24/ROOT/6.24.06a/x86_64-centos7-gcc11-opt/include:/cvmfs/atlas.cern.ch/repo/sw/software/23.0/sw/lcg/releases/LCG_101_ATLAS_24/HepPDT/2.06.01/x86_64-centos7-gcc11-opt/include:/cvmfs/atlas.cern.ch/repo/sw/software/23.0/sw/lcg/releases/LCG_101_ATLAS_24/freetype/2.10.0/x86_64-centos7-gcc11-opt/include/freetype2:/cvmfs/atlas.cern.ch/repo/sw/software/23.0/sw/lcg/releases/LCG_101_ATLAS_24/qt5/5.12.4/x86_64-centos7-gcc11-opt/include:/cvmfs/atlas.cern.ch/repo/sw/software/23.0/sw/lcg/releases/LCG_101_ATLAS_24/qt5/5.12.4/x86_64-centos7-gcc11-opt/include/QtCore:/cvmfs/atlas.cern.ch/repo/sw/software/23.0/sw/lcg/releases/LCG_101_ATLAS_24/qt5/5.12.4/x86_64-centos7-gcc11-opt/mkspecs/linux-g++:/cvmfs/atlas.cern.ch/repo/sw/software/23.0/sw/lcg/releases/LCG_101_ATLAS_24/Vc/1.4.2/x86_64-centos7-gcc11-opt/include:/cvmfs/atlas.cern.ch/repo/sw/software/23.0/sw/lcg/releases/LCG_101_ATLAS_24/qt5/5.12.4/x86_64-centos7-gcc11-opt/include/QtGui:/cvmfs/atlas.cern.ch/repo/sw/software/23.0/sw/lcg/releases/LCG_101_ATLAS_24/qt5/5.12.4/x86_64-centos7-gcc11-opt/include/QtWidgets:/cvmfs/atlas.cern.ch/repo/sw/software/23.0/sw/lcg/releases/LCG_101_ATLAS_24/qt5/5.12.4/x86_64-centos7-gcc11-opt/include/QtOpenGL
RUCIO_PYTHONBIN=python
SHERPAVER=2.2.12.bbba1f7
SHERPA_SHARE_PATH=/cvmfs/atlas.cern.ch/repo/sw/software/23.0/sw/lcg/releases/LCG_101_ATLAS_24/MCGenerators/sherpa/2.2.12.bbba1f7/x86_64-centos7-gcc11-opt/share/SHERPA-MC
SHLVL=1
SITEROOT=/cvmfs/atlas.cern.ch/repo/sw/software/23.0
SSL_CERT_DIR=/cvmfs/atlas.cern.ch/repo/ATLASLocalRootBase/etc/grid-security-emi/certificates
STARLIGHTVER=r313
SUPERCHICPATH=/cvmfs/atlas.cern.ch/repo/sw/software/23.0/sw/lcg/releases/LCG_101_ATLAS_24/MCGenerators/superchic/4.13p1/x86_64-centos7-gcc11-opt
SUPERCHICVER=4.13p1
TAUOLAPPVER=1.1.8.atlas1
TCMALLOCDIR=/cvmfs/atlas.cern.ch/repo/sw/software/23.0/sw/lcg/releases/LCG_101_ATLAS_24/gperftools/2.9.1/x86_64-centos7-gcc11-opt/lib
TDAQ_DB_PATH=/cvmfs/atlas.cern.ch/repo/sw/software/23.0/tdaq/tdaq-09-04-00/installed/share/data:/cvmfs/atlas.cern.ch/repo/sw/software/23.0/tdaq/tdaq-09-04-00/installed/databases:/cvmfs/atlas.cern.ch/repo/sw/software/23.0/tdaq/tdaq-09-04-00/databases
TDAQ_PLATFORM=x86_64-centos7-gcc11-opt
TDAQ_PYTHON_HOME=/cvmfs/atlas.cern.ch/repo/sw/software/23.0/sw/lcg/releases/LCG_101_ATLAS_24/Python/3.9.6/x86_64-centos7-gcc11-opt
TDAQ_RELEASE_BASE=/cvmfs/atlas.cern.ch/repo/sw/software/23.0
TDAQ_VERSION=09-04-00
THEPEGVER=2.2.3
TestArea=/results/atlas-gen_sherpa-ma-c1-e4-1665695036_8962/proc_1
TwissFilesPATH=/cvmfs/atlas.cern.ch/repo/sw/software/23.0/atlas/offline/external/TwissFiles/v003
UBSAN_OPTIONS=suppressions=/cvmfs/atlas.cern.ch/repo/sw/software/23.0/Athena/23.0.3/InstallArea/x86_64-centos7-gcc11-opt/share/ubsan.supp
VALGRIND_LIB=/cvmfs/atlas.cern.ch/repo/sw/software/23.0/sw/lcg/releases/LCG_101_ATLAS_24/valgrind/3.19.0/x86_64-centos7-gcc11-opt/libexec/valgrind
VALGRIND_OPTS=--smc-check=all
VIEWSDIR=/cvmfs/sft.cern.ch/lcg/views
VP1PLUGINPATH=/cvmfs/atlas.cern.ch/repo/sw/software/23.0/Athena/23.0.3/InstallArea/x86_64-centos7-gcc11-opt/lib
XMLPATH=/cvmfs/atlas.cern.ch/repo/sw/software/23.0/Athena/23.0.3/InstallArea/x86_64-centos7-gcc11-opt/XML:/cvmfs/atlas.cern.ch/repo/sw/software/23.0/AthenaExternals/23.0.3/InstallArea/x86_64-centos7-gcc11-opt/XML
YODAVER=1.9.5
_=/cvmfs/atlas.cern.ch/repo/sw/software/23.0/Athena/23.0.3/InstallArea/x86_64-centos7-gcc11-opt/share/Gen_tf.py
baseWDir=/results/atlas-gen_sherpa-ma-c1-e4-1665695036_8962
flavor=docker
rcSetup=/cvmfs/atlas.cern.ch/repo/ATLASLocalRootBase/x86_64/rcSetup/00-04-18
# Machine report
{'cpu_family': '6',
 'linux_distribution': ('CentOS Linux', '7', 'Core'),
 'model': '60',
 'model_name': 'Intel Core Processor (Haswell, no TSX, IBRS)',
 'node': '8370901c9952',
 'platform': 'Linux-3.10.0-957.21.3.el7.x86_64-x86_64-with-glibc2.17'}
