{
  "Avg": {
    "nprocs": 2.888,
    "nthreads": 3.0,
    "pss": 832851.0,
    "rchar": 430574704.0,
    "read_bytes": 721045853.0,
    "rss": 834951.0,
    "rx_bytes": 28.455,
    "rx_packets": 0.406,
    "swap": 0.0,
    "tx_bytes": 0.0,
    "tx_packets": 0.0,
    "vmem": 1378275.0,
    "wchar": 12502034.0,
    "write_bytes": 12068214.0
  },
  "HW": {
    "cpu": {
      "CPUs": 4,
      "CoresPerSocket": 1,
      "ModelName": "Intel Core Processor (Haswell, no TSX, IBRS)",
      "Sockets": 4,
      "ThreadsPerCore": 1
    },
    "mem": {
      "MemTotal": 7310480
    }
  },
  "Max": {
    "nprocs": 3,
    "nthreads": 4,
    "pss": 1792446,
    "rchar": 1059213773,
    "read_bytes": 1773772800,
    "rss": 1794604,
    "rx_bytes": 70,
    "rx_packets": 1,
    "stime": 6,
    "swap": 0,
    "tx_bytes": 0,
    "tx_packets": 0,
    "utime": 213,
    "vmem": 2433348,
    "wchar": 30755006,
    "write_bytes": 29687808,
    "wtime": 246
  },
  "prmon": {
    "Version": "3.0.1"
  }
}
