# trfJobReport file generated on 2022-09-07T08:39:59
{'cmdLine': "'/cvmfs/atlas.cern.ch/repo/sw/software/23.0/Athena/23.0.3/InstallArea/aarch64-centos7-gcc11-opt/bin/Sim_tf.py' "
            "'--multithreaded=True' "
            "'--inputEVNTFile=/cvmfs/atlas.cern.ch/repo/benchmarks/hep-workloads/input-data/EVNT.13043099._000859.pool.root.1' "
            "'--maxEvents=6' '--geometryVersion=ATLAS-R3S-2021-03-00-00' "
            "'--AMITag=s3873' "
            "'--postInclude=default:RecJobTransforms/UseFrontier.py' "
            "'--preInclude=EVNTtoHITS:Campaigns/MC21SimulationMultiBeamSpot.py,SimulationJobOptions/preInclude.ExtraParticles.py,SimulationJobOptions/preInclude.G4ExtraProcesses.py' "
            "'--firstEvent=6160001' '--outputHITSFile=myHITS.pool.root' "
            "'--physicsList=FTFP_BERT_ATL' '--randomSeed=6163' "
            "'--conditionsTag=default:OFLCOND-MC21-SDR-RUN3-05' "
            "'--truthStrategy=MC15aPlus' '--DBRelease=300.0.4' "
            "'--simulator=FullG4MT_QS' '--jobNumber=1'",
 'created': '2022-09-07T08:39:59',
 'executor': [{'asetup': None,
               'errMsg': '',
               'exeConfig': {'inputs': ['EVNT'],
                             'outputs': ['HITS'],
                             'script': 'athena.py',
                             'substep': 'sim'},
               'logfileReport': {'countSummary': {'CATASTROPHE': 0,
                                                  'CRITICAL': 0,
                                                  'DEBUG': 1,
                                                  'ERROR': 0,
                                                  'FATAL': 0,
                                                  'IGNORED': 0,
                                                  'INFO': 2829,
                                                  'UNKNOWN': 12348,
                                                  'VERBOSE': 0,
                                                  'WARNING': 36},
                                 'details': {}},
               'metaData': {},
               'name': 'EVNTtoHITS',
               'rc': 0,
               'statusOK': True,
               'validation': True}],
 'exitAcronym': 'OK',
 'exitCode': 0,
 'exitMsg': 'OK',
 'exitMsgExtra': '',
 'files': {'input': [{'dataset': None,
                      'nentries': 10000,
                      'subFiles': [{'file_guid': '6F29B2BF-E01D-D541-A819-89CF9B212CB6',
                                    'name': 'EVNT.13043099._000859.pool.root.1'}],
                      'type': 'EVNT'}],
           'output': [{'argName': 'outputHITSFile',
                       'dataset': None,
                       'subFiles': [{'file_guid': '2F8B1E63-1070-7C4E-B53E-0EA546C9AAD9',
                                     'file_size': 5885750,
                                     'name': 'myHITS.pool.root',
                                     'nentries': 6}],
                       'type': 'HITS'}]},
 'name': 'Sim_tf',
 'reportVersion': '2.1.2',
 'resource': {'executor': {'EVNTtoHITS': {'cpuTime': 1193.22,
                                          'memory': {'Avg': {'nprocs': 2.0,
                                                             'nthreads': 5.129,
                                                             'pss': 2935217.0,
                                                             'rchar': 41650423.0,
                                                             'read_bytes': 131001606.0,
                                                             'rss': 2941590.0,
                                                             'rx_bytes': 30.075,
                                                             'rx_packets': 0.429,
                                                             'swap': 0.0,
                                                             'tx_bytes': 0.0,
                                                             'tx_packets': 0.0,
                                                             'vmem': 3259394.0,
                                                             'wchar': 1383312.0,
                                                             'write_bytes': 1323390.0},
                                                     'HW': {'cpu': {'CPUs': 160,
                                                                    'CoresPerSocket': 80,
                                                                    'Sockets': 2,
                                                                    'ThreadsPerCore': 1},
                                                            'mem': {'MemTotal': 1069694336}},
                                                     'Max': {'nprocs': 2,
                                                             'nthreads': 6,
                                                             'pss': 3281610,
                                                             'rchar': 387765446,
                                                             'read_bytes': 1219624960,
                                                             'rss': 3288064,
                                                             'rx_bytes': 280,
                                                             'rx_packets': 4,
                                                             'stime': 3,
                                                             'swap': 0,
                                                             'tx_bytes': 0,
                                                             'tx_packets': 0,
                                                             'utime': 1182,
                                                             'vmem': 3625408,
                                                             'wchar': 12878644,
                                                             'write_bytes': 12320768,
                                                             'wtime': 931},
                                                     'prmon': {'Version': '3.0.1'}},
                                          'memoryAnalysis': {'chi2': 14213.74,
                                                             'slope': 337.68},
                                          'nevents': 6,
                                          'postExe': {'cpuTime': 0.41,
                                                      'wallTime': 1.02},
                                          'preExe': {'cpuTime': 0.0,
                                                     'wallTime': 0.05},
                                          'total': {'cpuTime': 1193.63,
                                                    'wallTime': 939.88},
                                          'validation': {'cpuTime': 0.0,
                                                         'wallTime': 0.68},
                                          'wallTime': 938.13}},
              'machine': {'linux_distribution': ('CentOS Linux',
                                                 '7',
                                                 'AltArch'),
                          'node': 'b702595f0a19',
                          'platform': 'Linux-5.4.17-2136.302.7.2.2.el7uek.aarch64-aarch64-with-glibc2.17'},
              'transform': {'cpuEfficiency': 1.2465,
                            'cpuPWEfficiency': 1.2465,
                            'cpuTime': 2.63,
                            'cpuTimeTotal': 1193.63,
                            'externalCpuTime': 0.58,
                            'inFileValidation': {'cpuTime': 0.15,
                                                 'wallTime': 16.23},
                            'outFileValidation': {'cpuTime': 0.0,
                                                  'wallTime': 0.13},
                            'processedEvents': 6,
                            'reportGeneration': {'cpuTime': 0.02,
                                                 'wallTime': 3.07},
                            'transformSetup': {'cpuTime': 0.0,
                                               'wallTime': 0.05},
                            'trfPredata': None,
                            'wallTime': 959.36}}}
# Environment dump
ALRB_ACM_PATH=/cvmfs/atlas.cern.ch/repo/ATLASLocalRootBase/aarch64-Linux/acm/0.1.28/acm
ALRB_OSMAJORVER=7
ALRB_OSTYPE=Linux
ALRB_RELOCATEALRB=NO
ALRB_RELOCATECVMFS=NO
ALRB_RHVER=7
ALRB_SCRATCH=/results/atlas-sim_mt-aarch64-c1-e3-1662539025_5562/proc_1/HOME/.alrb
ALRB_SFTNIGHT_LCG=none
ALRB_SFT_LCG=/cvmfs/sft.cern.ch/lcg
ALRB_SFT_LCGEXT_MAP=/cvmfs/sft.cern.ch/lcg/mapfile.txt
ALRB_SHELL=bash
ALRB_USER_PLATFORM=centos7
ALRB_allowSL6onSL5=NO
ALRB_availableTools= acm adctools agis art asetup atlantis cmake davix dcube eiclient emi gcc git gitlab lcgenv logstash pacman panda prmon pyami python root rucio sft stomp swmgr views xcache xrootd
ALRB_availableToolsPost= acm adctools agis art asetup atlantis cmake davix dcube eiclient emi gcc git gitlab lcgenv logstash pacman panda prmon pyami python root rucio sft stomp swmgr views xcache xrootd installRpm printmenu showversions
ALRB_availableToolsPre= lsetup
ALRB_clientShell=bash
ALRB_cvmfs_ALRB=/cvmfs/atlas.cern.ch/repo/ATLASLocalRootBase
ALRB_cvmfs_Athena=/cvmfs/atlas.cern.ch/repo/sw/software
ALRB_cvmfs_CDB=/cvmfs/atlas-condb.cern.ch/repo/conditions
ALRB_cvmfs_condb_repo=/cvmfs/atlas-condb.cern.ch/repo
ALRB_cvmfs_nightly_repo=/cvmfs/atlas-nightlies.cern.ch/repo
ALRB_cvmfs_repo=/cvmfs/atlas.cern.ch/repo
ALRB_cvmfs_sft_repo=/cvmfs/sft.cern.ch/lcg
ALRB_cvmfs_sftnight_repo=/cvmfs/sft-nightlies.cern.ch/lcg
ALRB_cvmfs_unpacked_repo=/cvmfs/unpacked.cern.ch
ALRB_envPython=python
ALRB_gridType=none
ALRB_infoProc=
ALRB_infoUname=Linux b702595f0a19 5.4.17-2136.302.7.2.2.el7uek.aarch64 #2 SMP Fri Jan 28 19:44:17 PST 2022 aarch64 aarch64 aarch64 GNU/Linux
ALRB_motdExclusions=
ALRB_printHelpMain=
ALRB_requestedVersions=cmake:3.21.3  acm:0.1.28 asetup:V02-00-44  
ALRB_sedExclusions=
ALRB_testPath=,,
ALRB_tmpScratch=/tmp/bmkuser/.alrb
ALRB_useGridSW=emi
APP=atlas-sim_mt-aarch64
ASETUP_ENVFILE=/tmp/bmkuser/.envBefore_asetup.sh-8HZWjk_82
ASETUP_PPID=82
ASETUP_PRINTLEVEL=0
ASETUP_SYSBIN=/tmp/bmkuser/.asetup-sysbin-SSqU9k_1
ASG_TEST_FILE_DATA=/cvmfs/atlas-nightlies.cern.ch/repo/data/data-art/ASG/DAOD_PHYS/p5169/data18_13TeV.00348885.physics_Main.deriv.DAOD_PHYS.r13286_p4910_p5169/DAOD_PHYS.29445515._000301.pool.root.1
ASG_TEST_FILE_LITE_DATA=/cvmfs/atlas-nightlies.cern.ch/repo/data/data-art/ASG/DAOD_PHYSLITE/p5169/data18_13TeV.00348885.physics_Main.deriv.DAOD_PHYSLITE.r13286_p4910_p5169/DAOD_PHYSLITE.29445515._000679.pool.root.1
ASG_TEST_FILE_LITE_MC=/cvmfs/atlas-nightlies.cern.ch/repo/data/data-art/ASG/DAOD_PHYSLITE/p5169/mc20_13TeV.410470.PhPy8EG_A14_ttbar_hdamp258p75_nonallhad.deriv.DAOD_PHYSLITE.e6337_s3681_r13167_p5169/DAOD_PHYSLITE.29445530._000001.pool.root.1
ASG_TEST_FILE_LITE_MC_AFII=/cvmfs/atlas-nightlies.cern.ch/repo/data/data-art/ASG/DAOD_PHYSLITE/p5169/mc20_13TeV.410470.PhPy8EG_A14_ttbar_hdamp258p75_nonallhad.deriv.DAOD_PHYSLITE.e6337_a899_r13167_p5169/DAOD_PHYSLITE.29445540._000002.pool.root.1
ASG_TEST_FILE_MC=/cvmfs/atlas-nightlies.cern.ch/repo/data/data-art/ASG/DAOD_PHYS/p5169/mc20_13TeV.410470.PhPy8EG_A14_ttbar_hdamp258p75_nonallhad.deriv.DAOD_PHYS.e6337_s3681_r13167_p5169/DAOD_PHYS.29445530._000001.pool.root.1
ASG_TEST_FILE_MC_AFII=/cvmfs/atlas-nightlies.cern.ch/repo/data/data-art/ASG/DAOD_PHYS/p5169/mc20_13TeV.410470.PhPy8EG_A14_ttbar_hdamp258p75_nonallhad.deriv.DAOD_PHYS.e6337_a899_r13167_p5169/DAOD_PHYS.29445540._000002.pool.root.1
ASG_TEST_FILE_RUN3_MC=/cvmfs/atlas-nightlies.cern.ch/repo/data/data-art/ASG/DAOD_PHYS/p5169/mc21_13p6TeV.601237.PhPy8EG_A14_ttbar_hdamp258p75_allhad.deriv.DAOD_PHYS.e8357_s3775_r13504_p5169/DAOD_PHYS.29453689._001003.pool.root.1
ATHENA_CORE_NUMBER=2
ATLASCALDATA=/cvmfs/atlas.cern.ch/repo/sw/software/23.0/atlas/offline/ReleaseData/v20
ATLASTESTDATA=/cvmfs/atlas.cern.ch/repo/sw/software/23.0/atlas/offline/ReleaseData/v20/testfile
ATLAS_DB_AREA=/cvmfs/atlas.cern.ch/repo/sw/database
ATLAS_GPERFTOOLS_DIR=/cvmfs/atlas.cern.ch/repo/sw/software/23.0/sw/lcg/releases/LCG_101_ATLAS_22/gperftools/2.9.1/aarch64-centos7-gcc11-opt/lib
ATLAS_LOCAL_ACM_VERSION=0.1.28
ATLAS_LOCAL_ASETUP_PATH=/cvmfs/atlas.cern.ch/repo/ATLASLocalRootBase/aarch64-Linux/AtlasSetup/V02-00-44
ATLAS_LOCAL_ASETUP_VERSION=V02-00-44
ATLAS_LOCAL_CMAKE_VERSION=3.21.3
ATLAS_LOCAL_ROOT=/cvmfs/atlas.cern.ch/repo/ATLASLocalRootBase/aarch64-Linux
ATLAS_LOCAL_ROOT_ARCH=aarch64-Linux
ATLAS_LOCAL_ROOT_BASE=/cvmfs/atlas.cern.ch/repo/ATLASLocalRootBase
ATLAS_LOCAL_ROOT_PACOPT=
ATLAS_LOCAL_SETUP_OPTIONS=-q
ATLAS_POOLCOND_PATH=/cvmfs/atlas-condb.cern.ch/repo/conditions
ATLAS_RELEASEDATA=/cvmfs/atlas.cern.ch/repo/sw/software/23.0/atlas/offline/ReleaseData
ATLAS_RELEASE_BASE=/cvmfs/atlas.cern.ch/repo/sw/software/23.0
ATLAS_TWISSFILES=/cvmfs/atlas.cern.ch/repo/sw/software/23.0/atlas/offline/external/TwissFiles
AthenaExternals_DIR=/cvmfs/atlas.cern.ch/repo/sw/software/23.0/AthenaExternals/23.0.3/InstallArea/aarch64-centos7-gcc11-opt
AthenaExternals_PLATFORM=aarch64-centos7-gcc11-opt
AthenaExternals_SET_UP=1
AthenaExternals_VERSION=23.0.3
Athena_DIR=/cvmfs/atlas.cern.ch/repo/sw/software/23.0/Athena/23.0.3/InstallArea/aarch64-centos7-gcc11-opt
Athena_PLATFORM=aarch64-centos7-gcc11-opt
Athena_SET_UP=1
Athena_VERSION=23.0.3
AtlasArea=/cvmfs/atlas.cern.ch/repo/sw/software/23.0/Athena/23.0.3
AtlasBaseDir=/cvmfs/atlas.cern.ch/repo/sw/software/23.0
AtlasBuildBranch=23.0
AtlasBuildStamp=2022-07-11T0402
AtlasProject=Athena
AtlasReleaseType=stable
AtlasSetup=/cvmfs/atlas.cern.ch/repo/ATLASLocalRootBase/aarch64-Linux/AtlasSetup/V02-00-44/AtlasSetup
AtlasSetupSite=/cvmfs/atlas.cern.ch/repo/ATLASLocalRootBase/aarch64-Linux/AtlasSetup/.config/.asetup.site
AtlasSetupSiteCMake=/cvmfs/atlas.cern.ch/repo/ATLASLocalRootBase/aarch64-Linux/AtlasSetup/.configCMake/.asetup.site
AtlasSetupStatus=0
AtlasVersion=23.0.3
BINARY_TAG=aarch64-centos7-gcc11-opt
BMKDIR=/bmk/atlas-sim_mt-aarch64
CALIBPATH=/cvmfs/atlas.cern.ch/repo/sw/software/23.0/Athena/23.0.3/InstallArea/aarch64-centos7-gcc11-opt/data:/cvmfs/atlas.cern.ch/repo/sw/software/23.0/Athena/23.0.3/InstallArea/aarch64-centos7-gcc11-opt/share:/cvmfs/atlas.cern.ch/repo/sw/software/23.0/AthenaExternals/23.0.3/InstallArea/aarch64-centos7-gcc11-opt/data:/cvmfs/atlas.cern.ch/repo/sw/software/23.0/AthenaExternals/23.0.3/InstallArea/aarch64-centos7-gcc11-opt/share:/sw/DbData/GroupData:/cvmfs/atlas.cern.ch/repo/sw/database/GroupData:/eos/atlas/atlascerngroupdisk/asg-calib:http//cern.ch/atlas-groupdata:http//atlas.web.cern.ch/Atlas/GROUPS/DATABASE/GroupData
CC=/cvmfs/sft.cern.ch/lcg/releases/gcc/11.2.0-8a51a/aarch64-centos7/bin/gcc
CHECKERGCCPLUGINS_CONFIG=/cvmfs/atlas.cern.ch/repo/sw/software/23.0/Athena/23.0.3/InstallArea/aarch64-centos7-gcc11-opt/share/checkergcc.config
CLING_STANDARD_PCH=none
CMAKE_NO_VERBOSE=1
CMAKE_PREFIX_PATH=/cvmfs/atlas.cern.ch/repo/sw/software/23.0/Athena/23.0.3/InstallArea/aarch64-centos7-gcc11-opt:/cvmfs/atlas.cern.ch/repo/sw/software/23.0/AthenaExternals/23.0.3/InstallArea/aarch64-centos7-gcc11-opt
CMTCONFIG=aarch64-centos7-gcc11-opt
CMTUSERCONTEXT=/cvmfs/atlas.cern.ch/repo/tools/slc6/cmt
COMPILER_PATH=/cvmfs/sft.cern.ch/lcg/releases/gcc/11.2.0-8a51a/aarch64-centos7
COOL_DISABLE_CORALCONNECTIONPOOLCLEANUP=YES
COOL_ORA_ENABLE_ADAPTIVE_OPT=Y
CORAL_AUTH_PATH=/cvmfs/atlas.cern.ch/repo/sw/software/23.0/Athena/23.0.3/InstallArea/aarch64-centos7-gcc11-opt/XML/AtlasAuthentication
CORAL_DBLOOKUP_PATH=/cvmfs/atlas.cern.ch/repo/sw/software/23.0/Athena/23.0.3/InstallArea/aarch64-centos7-gcc11-opt/XML/AtlasAuthentication
CPPYY_API_PATH=none
CPPYY_NO_ROOT_FILTER=1
CXX=/cvmfs/sft.cern.ch/lcg/releases/gcc/11.2.0-8a51a/aarch64-centos7/bin/g++
DATAPATH=/cvmfs/atlas.cern.ch/repo/sw/software/23.0/Athena/23.0.3/InstallArea/aarch64-centos7-gcc11-opt/data:/cvmfs/atlas.cern.ch/repo/sw/software/23.0/Athena/23.0.3/InstallArea/aarch64-centos7-gcc11-opt/share:/cvmfs/atlas.cern.ch/repo/sw/software/23.0/AthenaExternals/23.0.3/InstallArea/aarch64-centos7-gcc11-opt/share:/cvmfs/atlas.cern.ch/repo/sw/software/23.0/AthenaExternals/23.0.3/InstallArea/aarch64-centos7-gcc11-opt/data:/sw/DbData:/cvmfs/atlas.cern.ch/repo/sw/software/23.0/atlas/offline/ReleaseData/v20:/cvmfs/atlas.cern.ch/repo/sw/software/23.0/atlas/offline/ReleaseData/v20/testfile:/cvmfs/atlas.cern.ch/repo/sw/software/23.0/atlas/offline/external/TwissFiles/v003:/cvmfs/atlas-nightlies.cern.ch/repo/data/data-art
DBRELEASE_OVERRIDE=current
DEBUG=1
DYLD_LIBRARY_PATH=/cvmfs/atlas.cern.ch/repo/sw/software/23.0/Athena/23.0.3/InstallArea/aarch64-centos7-gcc11-opt/lib:/cvmfs/atlas.cern.ch/repo/sw/software/23.0/AthenaExternals/23.0.3/InstallArea/aarch64-centos7-gcc11-opt/lib
EMI_PYTHONBIN=python
EPOSVER=2.0.1p4
EVTGENVER=2.1.1
EXTRA_CLING_ARGS= -O2
FASTJETPATH=/cvmfs/atlas.cern.ch/repo/sw/software/23.0/sw/lcg/releases/LCG_101_ATLAS_22/fastjet/3.4.0p1/aarch64-centos7-gcc11-opt
FC=/cvmfs/sft.cern.ch/lcg/releases/gcc/11.2.0-8a51a/aarch64-centos7/bin/gfortran
FRONTIER_LOG_LEVEL=warning
G4ABLADATA=/cvmfs/atlas.cern.ch/repo/sw/software/23.0/Geant4/share/geant4.10.6.patch03.atlasmt03/data/G4ABLA
G4ENSDFSTATEDATA=/cvmfs/atlas.cern.ch/repo/sw/software/23.0/Geant4/share/geant4.10.6.patch03.atlasmt03/data/G4ENSDFSTATE
G4INCLDATA=/cvmfs/atlas.cern.ch/repo/sw/software/23.0/Geant4/share/geant4.10.6.patch03.atlasmt03/data/G4INCL
G4INCLUDE=/cvmfs/atlas.cern.ch/repo/sw/software/23.0/Athena/23.0.3/InstallArea/aarch64-centos7-gcc11-opt/../../../../AthenaExternals/23.0.3/InstallArea/aarch64-centos7-gcc11-opt/include/Geant4
G4INSTALL=/cvmfs/atlas.cern.ch/repo/sw/software/23.0/Athena/23.0.3/InstallArea/aarch64-centos7-gcc11-opt/../../../../AthenaExternals/23.0.3/InstallArea/aarch64-centos7-gcc11-opt
G4LEDATA=/cvmfs/atlas.cern.ch/repo/sw/software/23.0/Geant4/share/geant4.10.6.patch03.atlasmt03/data/G4EMLOW
G4LEVELGAMMADATA=/cvmfs/atlas.cern.ch/repo/sw/software/23.0/Geant4/share/geant4.10.6.patch03.atlasmt03/data/PhotonEvaporation
G4LIB=/cvmfs/atlas.cern.ch/repo/sw/software/23.0/Athena/23.0.3/InstallArea/aarch64-centos7-gcc11-opt/../../../../AthenaExternals/23.0.3/InstallArea/aarch64-centos7-gcc11-opt/lib
G4NEUTRONHPDATA=/cvmfs/atlas.cern.ch/repo/sw/software/23.0/Geant4/share/geant4.10.6.patch03.atlasmt03/data/G4NDL
G4PARTICLEXSDATA=/cvmfs/atlas.cern.ch/repo/sw/software/23.0/Geant4/share/geant4.10.6.patch03.atlasmt03/data/G4PARTICLEXS
G4PATH=/cvmfs/atlas.cern.ch/repo/sw/software/23.0/Geant4
G4PIIDATA=/cvmfs/atlas.cern.ch/repo/sw/software/23.0/Geant4/share/geant4.10.6.patch03.atlasmt03/data/G4PII
G4RADIOACTIVEDATA=/cvmfs/atlas.cern.ch/repo/sw/software/23.0/Geant4/share/geant4.10.6.patch03.atlasmt03/data/RadioactiveDecay
G4REALSURFACEDATA=/cvmfs/atlas.cern.ch/repo/sw/software/23.0/Geant4/share/geant4.10.6.patch03.atlasmt03/data/RealSurface
G4SAIDXSDATA=/cvmfs/atlas.cern.ch/repo/sw/software/23.0/Geant4/share/geant4.10.6.patch03.atlasmt03/data/G4SAIDDATA
G4SYSTEM=Linux-g++
G4VERS=geant4.10.6.patch03.atlasmt03
GAUDI_PROPERTY_PARSING_ERROR_DEFAULT_POLICY=Exception
GEANT4=/cvmfs/atlas.cern.ch/repo/sw/software/23.0/Athena/23.0.3/InstallArea/aarch64-centos7-gcc11-opt/../../../../AthenaExternals/23.0.3/InstallArea/aarch64-centos7-gcc11-opt
GFORTRAN_UNBUFFERED_ALL=y
Geant4_data=/cvmfs/atlas.cern.ch/repo/sw/software/23.0/Geant4/share/geant4.10.6.patch03.atlasmt03/data
HEPUTILSVER=1.3.2
HERWIG7VER=7.2.3
HERWIG7_PATH=/cvmfs/atlas.cern.ch/repo/sw/software/23.0/sw/lcg/releases/LCG_101_ATLAS_22/MCGenerators/herwig++/7.2.3/aarch64-centos7-gcc11-opt
HOME=/results/atlas-sim_mt-aarch64-c1-e3-1662539025_5562/proc_1/HOME
HOSTNAME=b702595f0a19
JOBOPTSEARCHPATH=.:/cvmfs/atlas.cern.ch/repo/sw/software/23.0/Athena/23.0.3/InstallArea/aarch64-centos7-gcc11-opt/jobOptions:/cvmfs/atlas.cern.ch/repo/sw/software/23.0/AthenaExternals/23.0.3/InstallArea/aarch64-centos7-gcc11-opt/jobOptions:/results/atlas-sim_mt-aarch64-c1-e3-1662539025_5562/proc_1
LANG=C
LCG_PLATFORM=aarch64-centos7-gcc11-opt
LCG_RELEASE_BASE=/cvmfs/atlas.cern.ch/repo/sw/software/23.0/sw/lcg/releases
LC_ALL=C
LD_LIBRARY_PATH=/cvmfs/atlas.cern.ch/repo/sw/software/23.0/Athena/23.0.3/InstallArea/aarch64-centos7-gcc11-opt/lib:/cvmfs/atlas.cern.ch/repo/sw/software/23.0/AthenaExternals/23.0.3/InstallArea/aarch64-centos7-gcc11-opt/lib:/cvmfs/atlas.cern.ch/repo/sw/software/23.0/sw/lcg/releases/LCG_101_ATLAS_22/fmt/7.1.3/aarch64-centos7-gcc11-opt/lib64:/cvmfs/atlas.cern.ch/repo/sw/software/23.0/sw/lcg/releases/LCG_101_ATLAS_22/frontier_client/2.9.1/aarch64-centos7-gcc11-opt/lib:/cvmfs/atlas.cern.ch/repo/sw/software/23.0/sw/lcg/releases/LCG_101_ATLAS_22/png/1.6.37/aarch64-centos7-gcc11-opt/lib:/cvmfs/atlas.cern.ch/repo/sw/software/23.0/sw/lcg/releases/LCG_101_ATLAS_22/zlib/1.2.11/aarch64-centos7-gcc11-opt/lib:/cvmfs/atlas.cern.ch/repo/sw/software/23.0/sw/lcg/releases/LCG_101_ATLAS_22/tiff/4.2.0/aarch64-centos7-gcc11-opt/lib64:/cvmfs/atlas.cern.ch/repo/sw/software/23.0/sw/lcg/releases/LCG_101_ATLAS_22/libunwind/1.3.1/aarch64-centos7-gcc11-opt/lib:/cvmfs/atlas.cern.ch/repo/sw/software/23.0/sw/lcg/releases/LCG_101_ATLAS_22/gperftools/2.9.1/aarch64-centos7-gcc11-opt/lib:/cvmfs/atlas.cern.ch/repo/sw/software/23.0/sw/lcg/releases/LCG_101_ATLAS_22/vdt/0.4.3/aarch64-centos7-gcc11-opt/lib:/cvmfs/atlas.cern.ch/repo/sw/software/23.0/sw/lcg/releases/LCG_101_ATLAS_22/CppUnit/1.14.0/aarch64-centos7-gcc11-opt/lib:/cvmfs/atlas.cern.ch/repo/sw/software/23.0/sw/lcg/releases/LCG_101_ATLAS_22/protobuf/3.18.1/aarch64-centos7-gcc11-opt/lib:/cvmfs/atlas.cern.ch/repo/sw/software/23.0/sw/lcg/releases/LCG_101_ATLAS_22/sqlite/3320300/aarch64-centos7-gcc11-opt/lib:/cvmfs/atlas.cern.ch/repo/sw/software/23.0/sw/lcg/releases/LCG_101_ATLAS_22/xrootd/5.3.1/aarch64-centos7-gcc11-opt/lib64:/cvmfs/atlas.cern.ch/repo/sw/software/23.0/sw/lcg/releases/LCG_101_ATLAS_22/Davix/0.7.6/aarch64-centos7-gcc11-opt/lib64:/cvmfs/atlas.cern.ch/repo/sw/software/23.0/sw/lcg/releases/LCG_101_ATLAS_22/MCGenerators/crmc/2.0.1p4/aarch64-centos7-gcc11-opt/lib:/cvmfs/atlas.cern.ch/repo/sw/software/23.0/sw/lcg/releases/LCG_101_ATLAS_22/MCGenerators/evtgen/2.1.1/aarch64-centos7-gcc11-opt/lib64:/cvmfs/atlas.cern.ch/repo/sw/software/23.0/sw/lcg/releases/LCG_101_ATLAS_22/MCGenerators/herwig++/7.2.3/aarch64-centos7-gcc11-opt/lib/Herwig:/cvmfs/atlas.cern.ch/repo/sw/software/23.0/sw/lcg/releases/LCG_101_ATLAS_22/MCGenerators/thepeg/2.2.3/aarch64-centos7-gcc11-opt/lib/ThePEG:/cvmfs/atlas.cern.ch/repo/sw/software/23.0/sw/lcg/releases/LCG_101_ATLAS_22/MCGenerators/hijing/1.383bs.2/aarch64-centos7-gcc11-opt/lib:/cvmfs/atlas.cern.ch/repo/sw/software/23.0/sw/lcg/releases/LCG_101_ATLAS_22/MCGenerators/hydjet/1.8/aarch64-centos7-gcc11-opt/lib:/cvmfs/atlas.cern.ch/repo/sw/software/23.0/sw/lcg/releases/LCG_101_ATLAS_22/MCGenerators/pyquen/1.5.1/aarch64-centos7-gcc11-opt/lib:/cvmfs/atlas.cern.ch/repo/sw/software/23.0/sw/lcg/releases/LCG_101_ATLAS_22/MCGenerators/pythia6/429.2/aarch64-centos7-gcc11-opt/lib:/cvmfs/atlas.cern.ch/repo/sw/software/23.0/sw/lcg/releases/LCG_101_ATLAS_22/MCGenerators/photos++/3.64/aarch64-centos7-gcc11-opt/lib:/cvmfs/atlas.cern.ch/repo/sw/software/23.0/sw/lcg/releases/LCG_101_ATLAS_22/HepMC/2.06.11/aarch64-centos7-gcc11-opt/lib:/cvmfs/atlas.cern.ch/repo/sw/software/23.0/sw/lcg/releases/LCG_101_ATLAS_22/MCGenerators/sherpa/2.2.12.bbba1f7/aarch64-centos7-gcc11-opt/lib/SHERPA-MC:/cvmfs/atlas.cern.ch/repo/sw/software/23.0/sw/lcg/releases/LCG_101_ATLAS_22/MCGenerators/openloops/2.1.2/aarch64-centos7-gcc11-opt/lib:/cvmfs/atlas.cern.ch/repo/sw/software/23.0/sw/lcg/releases/LCG_101_ATLAS_22/MCGenerators/starlight/r313/aarch64-centos7-gcc11-opt/lib:/cvmfs/atlas.cern.ch/repo/sw/software/23.0/sw/lcg/releases/LCG_101_ATLAS_22/MCGenerators/apfel/3.0.4/aarch64-centos7-gcc11-opt/lib:/cvmfs/atlas.cern.ch/repo/sw/software/23.0/sw/lcg/releases/LCG_101_ATLAS_22/MCGenerators/superchic/4.13p1/aarch64-centos7-gcc11-opt/lib:/cvmfs/atlas.cern.ch/repo/sw/software/23.0/sw/lcg/releases/LCG_101_ATLAS_22/MCGenerators/tauola++/1.1.8.atlas1/aarch64-centos7-gcc11-opt/lib:/cvmfs/atlas.cern.ch/repo/sw/software/23.0/sw/lcg/releases/LCG_101_ATLAS_22/MCGenerators/rivet/3.1.6/aarch64-centos7-gcc11-opt/lib:/cvmfs/atlas.cern.ch/repo/sw/software/23.0/sw/lcg/releases/LCG_101_ATLAS_22/MCGenerators/yoda/1.9.5/aarch64-centos7-gcc11-opt/lib:/cvmfs/atlas.cern.ch/repo/sw/software/23.0/sw/lcg/releases/LCG_101_ATLAS_22/libxslt/1.1.34/aarch64-centos7-gcc11-opt/lib:/cvmfs/atlas.cern.ch/repo/sw/software/23.0/tdaq/tdaq-09-04-02/installed/aarch64-centos7-gcc11-opt/lib:/cvmfs/atlas.cern.ch/repo/sw/software/23.0/sw/lcg/releases/LCG_101_ATLAS_22/fftw3/3.3.8/aarch64-centos7-gcc11-opt/lib:/cvmfs/atlas.cern.ch/repo/sw/software/23.0/sw/lcg/releases/LCG_101_ATLAS_22/hdf5/1.10.6/aarch64-centos7-gcc11-opt/lib:/cvmfs/atlas.cern.ch/repo/sw/software/23.0/sw/lcg/releases/LCG_101_ATLAS_22/fastjet/3.4.0p1/aarch64-centos7-gcc11-opt/lib:/cvmfs/atlas.cern.ch/repo/sw/software/23.0/sw/lcg/releases/LCG_101_ATLAS_22/fjcontrib/1.046/aarch64-centos7-gcc11-opt/lib:/cvmfs/atlas.cern.ch/repo/sw/software/23.0/sw/lcg/releases/LCG_101_ATLAS_22/MCGenerators/lhapdf/6.5.1/aarch64-centos7-gcc11-opt/lib:/cvmfs/atlas.cern.ch/repo/sw/software/23.0/sw/lcg/releases/LCG_101_ATLAS_22/MCGenerators/pythia8/307p1.fxfx/aarch64-centos7-gcc11-opt/lib:/cvmfs/atlas.cern.ch/repo/sw/software/23.0/sw/lcg/releases/LCG_101_ATLAS_22/libxml2/2.9.10/aarch64-centos7-gcc11-opt/lib:/cvmfs/atlas.cern.ch/repo/sw/software/23.0/sw/lcg/releases/LCG_101_ATLAS_22/graphviz/2.40.1/aarch64-centos7-gcc11-opt/lib:/cvmfs/atlas.cern.ch/repo/sw/software/23.0/sw/lcg/releases/LCG_101_ATLAS_22/blas/0.3.17.openblas/aarch64-centos7-gcc11-opt/lib:/cvmfs/atlas.cern.ch/repo/sw/software/23.0/sw/lcg/releases/LCG_101_ATLAS_22/expat/2.2.6/aarch64-centos7-gcc11-opt/lib64:/cvmfs/atlas.cern.ch/repo/sw/software/23.0/sw/lcg/releases/LCG_101_ATLAS_22/XercesC/3.2.3/aarch64-centos7-gcc11-opt/lib:/cvmfs/atlas.cern.ch/repo/sw/software/23.0/sw/lcg/releases/LCG_101_ATLAS_22/GSL/2.7/aarch64-centos7-gcc11-opt/lib:/cvmfs/atlas.cern.ch/repo/sw/software/23.0/sw/lcg/releases/LCG_101_ATLAS_22/tbb/2020_U2/aarch64-centos7-gcc11-opt/lib:/cvmfs/atlas.cern.ch/repo/sw/software/23.0/sw/lcg/releases/LCG_101_ATLAS_22/oracle/19.10.0.0.0/aarch64-centos7-gcc11-opt/lib:/cvmfs/atlas.cern.ch/repo/sw/software/23.0/tdaq-common/tdaq-common-04-04-02/installed/external/aarch64-centos7-gcc11-opt/lib:/cvmfs/atlas.cern.ch/repo/sw/software/23.0/sw/lcg/releases/LCG_101_ATLAS_22/Python/3.9.6/aarch64-centos7-gcc11-opt/lib:/cvmfs/atlas.cern.ch/repo/sw/software/23.0/tdaq-common/tdaq-common-04-04-02/installed/aarch64-centos7-gcc11-opt/lib:/cvmfs/atlas.cern.ch/repo/sw/software/23.0/sw/lcg/releases/LCG_101_ATLAS_22/Boost/1.77.0/aarch64-centos7-gcc11-opt/lib:/cvmfs/atlas.cern.ch/repo/sw/software/23.0/sw/lcg/releases/LCG_101_ATLAS_22/libxkbcommon/0.7.1/aarch64-centos7-gcc11-opt/lib:/cvmfs/atlas.cern.ch/repo/sw/software/23.0/sw/lcg/releases/LCG_101_ATLAS_22/libffi/3.2.1/aarch64-centos7-gcc11-opt/lib64:/cvmfs/atlas.cern.ch/repo/sw/software/23.0/sw/lcg/releases/LCG_101_ATLAS_22/ROOT/6.24.06a/aarch64-centos7-gcc11-opt/lib:/cvmfs/atlas.cern.ch/repo/sw/software/23.0/sw/lcg/releases/LCG_101_ATLAS_22/HepPDT/2.06.01/aarch64-centos7-gcc11-opt/lib:/cvmfs/atlas.cern.ch/repo/sw/software/23.0/sw/lcg/releases/LCG_101_ATLAS_22/freetype/2.10.0/aarch64-centos7-gcc11-opt/lib:/cvmfs/atlas.cern.ch/repo/sw/software/23.0/sw/lcg/releases/LCG_101_ATLAS_22/qt5/5.12.4/aarch64-centos7-gcc11-opt/lib:/cvmfs/sft.cern.ch/lcg/releases/gcc/11.2.0-8a51a/aarch64-centos7/lib:/cvmfs/sft.cern.ch/lcg/releases/gcc/11.2.0-8a51a/aarch64-centos7/lib64:/cvmfs/sft.cern.ch/lcg/releases/binutils/2.37-355ed/aarch64-centos7/lib
LHAPATH=/cvmfs/atlas.cern.ch/repo/sw/Generators/lhapdfsets/current:/cvmfs/atlas.cern.ch/repo/sw/software/23.0/sw/lcg/releases/LCG_101_ATLAS_22/MCGenerators/lhapdf/6.5.1/aarch64-centos7-gcc11-opt/share/LHAPDF:/cvmfs/sft.cern.ch/lcg/external/lhapdfsets/current:/cvmfs/atlas.cern.ch/repo/sw/software/23.0/sw/lcg/releases/LCG_101_ATLAS_22/MCGenerators/lhapdf/6.5.1/aarch64-centos7-gcc11-opt/share/LHAPDF
LHAPDFVER=6.5.1
LHAPDF_DATA_PATH=/cvmfs/atlas.cern.ch/repo/sw/Generators/lhapdfsets/current:/cvmfs/atlas.cern.ch/repo/sw/software/23.0/sw/lcg/releases/LCG_101_ATLAS_22/MCGenerators/lhapdf/6.5.1/aarch64-centos7-gcc11-opt/share/LHAPDF:/cvmfs/sft.cern.ch/lcg/external/lhapdfsets/current:/cvmfs/atlas.cern.ch/repo/sw/software/23.0/sw/lcg/releases/LCG_101_ATLAS_22/MCGenerators/lhapdf/6.5.1/aarch64-centos7-gcc11-opt/share/LHAPDF
MADGRAPHVER=3.3.1.atlas3
MADPATH=/cvmfs/atlas.cern.ch/repo/sw/software/23.0/sw/lcg/releases/LCG_101_ATLAS_22/MCGenerators/madgraph5amc/3.3.1.atlas3/aarch64-centos7-gcc11-opt
MAKEFLAGS=-j160 -l160
MANPATH=/cvmfs/sft.cern.ch/lcg/releases/gcc/11.2.0-8a51a/aarch64-centos7/share/man:/cvmfs/sft.cern.ch/lcg/releases/binutils/2.37-355ed/aarch64-centos7/share/man:/usr/local/share/man:/usr/share/man
MCUTILSVER=1.3.5
NCOPIES=1
NEVENTS_THREAD=3
NTHREADS=2
OLDPWD=/proc/56
OPENBLAS_NUM_THREADS=1
OPENLOOPSPATH=/cvmfs/atlas.cern.ch/repo/sw/software/23.0/sw/lcg/releases/LCG_101_ATLAS_22/MCGenerators/openloops/2.1.2/aarch64-centos7-gcc11-opt
OPENLOOPSVER=2.1.2
ORA_FPU_PRECISION=EXTENDED
PATH=/cvmfs/atlas.cern.ch/repo/sw/software/23.0/Athena/23.0.3/InstallArea/aarch64-centos7-gcc11-opt/share:/cvmfs/atlas.cern.ch/repo/sw/software/23.0/Athena/23.0.3/InstallArea/aarch64-centos7-gcc11-opt/bin:/cvmfs/atlas.cern.ch/repo/sw/software/23.0/AthenaExternals/23.0.3/InstallArea/aarch64-centos7-gcc11-opt/bin:/cvmfs/atlas.cern.ch/repo/sw/software/23.0/sw/lcg/releases/LCG_101_ATLAS_22/doxygen/1.8.18/aarch64-centos7-gcc11-opt/bin:/cvmfs/atlas.cern.ch/repo/sw/software/23.0/sw/lcg/releases/LCG_101_ATLAS_22/heaptrack/1.3.0/aarch64-centos7-gcc11-opt/bin:/cvmfs/atlas.cern.ch/repo/sw/software/23.0/sw/lcg/releases/LCG_101_ATLAS_22/numpy/1.21.1/aarch64-centos7-gcc11-opt/bin:/cvmfs/atlas.cern.ch/repo/sw/software/23.0/sw/lcg/releases/LCG_101_ATLAS_22/gperftools/2.9.1/aarch64-centos7-gcc11-opt/bin:/cvmfs/atlas.cern.ch/repo/sw/software/23.0/sw/lcg/releases/LCG_101_ATLAS_22/pprof/54271f7/aarch64-centos7-gcc11-opt/bin:/cvmfs/atlas.cern.ch/repo/sw/software/23.0/sw/lcg/releases/LCG_101_ATLAS_22/valgrind/3.19.0/aarch64-centos7-gcc11-opt/bin:/cvmfs/atlas.cern.ch/repo/sw/software/23.0/sw/lcg/releases/LCG_101_ATLAS_22/ipython/7.25.0/aarch64-centos7-gcc11-opt/bin:/cvmfs/atlas.cern.ch/repo/sw/software/23.0/sw/lcg/releases/LCG_101_ATLAS_22/protobuf/3.18.1/aarch64-centos7-gcc11-opt/bin:/cvmfs/atlas.cern.ch/repo/sw/software/23.0/sw/lcg/releases/LCG_101_ATLAS_22/jmespath/0.10.0/aarch64-centos7-gcc11-opt/bin:/cvmfs/atlas.cern.ch/repo/sw/software/23.0/sw/lcg/releases/LCG_101_ATLAS_22/sqlite/3320300/aarch64-centos7-gcc11-opt/bin:/cvmfs/atlas.cern.ch/repo/sw/software/23.0/sw/lcg/releases/LCG_101_ATLAS_22/xrootd/5.3.1/aarch64-centos7-gcc11-opt/bin:/cvmfs/atlas.cern.ch/repo/sw/software/23.0/sw/lcg/releases/LCG_101_ATLAS_22/MCGenerators/hto4l/2.02/aarch64-centos7-gcc11-opt/bin:/cvmfs/atlas.cern.ch/repo/sw/software/23.0/sw/lcg/releases/LCG_101_ATLAS_22/MCGenerators/prophecy4f/3.0/aarch64-centos7-gcc11-opt/bin:/cvmfs/atlas.cern.ch/repo/sw/software/23.0/sw/lcg/releases/LCG_101_ATLAS_22/MCGenerators/sherpa/2.2.12.bbba1f7/aarch64-centos7-gcc11-opt/bin:/cvmfs/atlas.cern.ch/repo/sw/software/23.0/sw/lcg/releases/LCG_101_ATLAS_22/MCGenerators/superchic/4.13p1/aarch64-centos7-gcc11-opt/bin:/cvmfs/atlas.cern.ch/repo/sw/software/23.0/tdaq/tdaq-09-04-02/installed/aarch64-centos7-gcc11-opt/bin:/cvmfs/atlas.cern.ch/repo/sw/software/23.0/tdaq/tdaq-09-04-02/installed/share/bin:/cvmfs/atlas.cern.ch/repo/sw/software/23.0/sw/lcg/releases/LCG_101_ATLAS_22/graphviz/2.40.1/aarch64-centos7-gcc11-opt/bin:/cvmfs/atlas.cern.ch/repo/sw/software/23.0/tdaq-common/tdaq-common-04-04-02/installed/external/aarch64-centos7-gcc11-opt/bin:/cvmfs/atlas.cern.ch/repo/sw/software/23.0/sw/lcg/releases/LCG_101_ATLAS_22/Python/3.9.6/aarch64-centos7-gcc11-opt/bin:/cvmfs/atlas.cern.ch/repo/sw/software/23.0/sw/lcg/releases/LCG_101_ATLAS_22/future/0.17.1/aarch64-centos7-gcc11-opt/bin:/cvmfs/atlas.cern.ch/repo/sw/software/23.0/tdaq-common/tdaq-common-04-04-02/installed/aarch64-centos7-gcc11-opt/bin:/cvmfs/atlas.cern.ch/repo/sw/software/23.0/tdaq-common/tdaq-common-04-04-02/installed/share/bin:/cvmfs/atlas.cern.ch/repo/sw/software/23.0/sw/lcg/releases/LCG_101_ATLAS_22/ROOT/6.24.06a/aarch64-centos7-gcc11-opt/bin:/cvmfs/atlas.cern.ch/repo/sw/software/23.0/AthenaExternals/23.0.3/InstallArea/aarch64-centos7-gcc11-opt/share:/cvmfs/atlas.cern.ch/repo/sw/software/23.0/sw/lcg/releases/LCG_101_ATLAS_22/nose/1.3.7/aarch64-centos7-gcc11-opt/bin:/cvmfs/atlas.cern.ch/repo/sw/software/23.0/sw/lcg/releases/LCG_101_ATLAS_22/pip/21.0.1/aarch64-centos7-gcc11-opt/bin:/cvmfs/atlas.cern.ch/repo/ATLASLocalRootBase/aarch64-Linux/Cmake/3.21.3/Linux-aarch64/bin:/cvmfs/sft.cern.ch/lcg/releases/gcc/11.2.0-8a51a/aarch64-centos7/bin:/cvmfs/sft.cern.ch/lcg/releases/binutils/2.37-355ed/aarch64-centos7/bin:/usr/local/sbin:/usr/local/bin:/usr/sbin:/usr/bin:/sbin:/bin
PHOTOSPPVER=3.64
POWHEGPATH=/cvmfs/atlas.cern.ch/repo/sw/Generators/powheg/ATLASOTF-05-03
POWHEGVER=05-03
PWD=/results/atlas-sim_mt-aarch64-c1-e3-1662539025_5562/proc_1
PY8PATH=/cvmfs/atlas.cern.ch/repo/sw/software/23.0/sw/lcg/releases/LCG_101_ATLAS_22/MCGenerators/pythia8/307p1.fxfx/aarch64-centos7-gcc11-opt
PYTHIA8VER=307p1.fxfx
PYTHONHOME=/cvmfs/atlas.cern.ch/repo/sw/software/23.0/sw/lcg/releases/LCG_101_ATLAS_22/Python/3.9.6/aarch64-centos7-gcc11-opt
PYTHONPATH=/cvmfs/atlas.cern.ch/repo/sw/software/23.0/Athena/23.0.3/InstallArea/aarch64-centos7-gcc11-opt/python:/cvmfs/atlas.cern.ch/repo/sw/software/23.0/Athena/23.0.3/InstallArea/aarch64-centos7-gcc11-opt/lib:/cvmfs/atlas.cern.ch/repo/sw/software/23.0/AthenaExternals/23.0.3/InstallArea/aarch64-centos7-gcc11-opt/python:/cvmfs/atlas.cern.ch/repo/sw/software/23.0/sw/lcg/releases/LCG_101_ATLAS_22/matplotlib/3.4.3/aarch64-centos7-gcc11-opt/lib/python3.9/site-packages:/cvmfs/atlas.cern.ch/repo/sw/software/23.0/sw/lcg/releases/LCG_101_ATLAS_22/numpy/1.21.1/aarch64-centos7-gcc11-opt/lib/python3.9/site-packages:/cvmfs/atlas.cern.ch/repo/sw/software/23.0/sw/lcg/releases/LCG_101_ATLAS_22/pandas/1.2.2/aarch64-centos7-gcc11-opt/lib/python3.9/site-packages:/cvmfs/atlas.cern.ch/repo/sw/software/23.0/sw/lcg/releases/LCG_101_ATLAS_22/ipython/7.25.0/aarch64-centos7-gcc11-opt/lib/python3.9/site-packages:/cvmfs/atlas.cern.ch/repo/sw/software/23.0/sw/lcg/releases/LCG_101_ATLAS_22/sqlalchemy/1.2.10/aarch64-centos7-gcc11-opt/lib/python3.9/site-packages:/cvmfs/atlas.cern.ch/repo/sw/software/23.0/sw/lcg/releases/LCG_101_ATLAS_22/protobuf/3.18.1/aarch64-centos7-gcc11-opt/lib/python3.9/site-packages:/cvmfs/atlas.cern.ch/repo/sw/software/23.0/sw/lcg/releases/LCG_101_ATLAS_22/boto3/1.18.37/aarch64-centos7-gcc11-opt/lib/python3.9/site-packages:/cvmfs/atlas.cern.ch/repo/sw/software/23.0/sw/lcg/releases/LCG_101_ATLAS_22/botocore/1.21.37/aarch64-centos7-gcc11-opt/lib/python3.9/site-packages:/cvmfs/atlas.cern.ch/repo/sw/software/23.0/sw/lcg/releases/LCG_101_ATLAS_22/jmespath/0.10.0/aarch64-centos7-gcc11-opt/lib/python3.9/site-packages:/cvmfs/atlas.cern.ch/repo/sw/software/23.0/sw/lcg/releases/LCG_101_ATLAS_22/s3transfer/0.5.0/aarch64-centos7-gcc11-opt/lib/python3.9/site-packages:/cvmfs/atlas.cern.ch/repo/sw/software/23.0/sw/lcg/releases/LCG_101_ATLAS_22/stomppy/6.1.0/aarch64-centos7-gcc11-opt/lib/python3.9/site-packages:/cvmfs/atlas.cern.ch/repo/sw/software/23.0/sw/lcg/releases/LCG_101_ATLAS_22/MCGenerators/madgraph5amc/3.3.1.atlas3/aarch64-centos7-gcc11-opt:/cvmfs/atlas.cern.ch/repo/sw/software/23.0/tdaq/tdaq-09-04-02/installed/share/lib/python:/cvmfs/atlas.cern.ch/repo/sw/software/23.0/tdaq/tdaq-09-04-02/installed/aarch64-centos7-gcc11-opt/lib:/cvmfs/atlas.cern.ch/repo/sw/software/23.0/sw/lcg/releases/LCG_101_ATLAS_22/pyyaml/5.3.1/aarch64-centos7-gcc11-opt/lib/python3.9/site-packages:/cvmfs/atlas.cern.ch/repo/sw/software/23.0/sw/lcg/releases/LCG_101_ATLAS_22/distro/1.5.0/aarch64-centos7-gcc11-opt/lib/python3.9/site-packages:/cvmfs/atlas.cern.ch/repo/sw/software/23.0/sw/lcg/releases/LCG_101_ATLAS_22/decorator/5.0.9/aarch64-centos7-gcc11-opt/lib/python3.9/site-packages:/cvmfs/atlas.cern.ch/repo/sw/software/23.0/sw/lcg/releases/LCG_101_ATLAS_22/pygraphviz/1.7/aarch64-centos7-gcc11-opt/lib/python3.9/site-packages:/cvmfs/atlas.cern.ch/repo/sw/software/23.0/sw/lcg/releases/LCG_101_ATLAS_22/six/1.16.0/aarch64-centos7-gcc11-opt/lib/python3.9/site-packages:/cvmfs/atlas.cern.ch/repo/sw/software/23.0/sw/lcg/releases/LCG_101_ATLAS_22/cx_oracle/7.1.3/aarch64-centos7-gcc11-opt/lib/python3.9/site-packages:/cvmfs/atlas.cern.ch/repo/sw/software/23.0/tdaq-common/tdaq-common-04-04-02/installed/external/aarch64-centos7-gcc11-opt/python:/cvmfs/atlas.cern.ch/repo/sw/software/23.0/tdaq-common/tdaq-common-04-04-02/installed/external/aarch64-centos7-gcc11-opt/lib:/cvmfs/atlas.cern.ch/repo/sw/software/23.0/sw/lcg/releases/LCG_101_ATLAS_22/future/0.17.1/aarch64-centos7-gcc11-opt/lib/python3.9/site-packages:/cvmfs/atlas.cern.ch/repo/sw/software/23.0/tdaq-common/tdaq-common-04-04-02/installed/share/lib/python:/cvmfs/atlas.cern.ch/repo/sw/software/23.0/tdaq-common/tdaq-common-04-04-02/installed/aarch64-centos7-gcc11-opt/lib:/cvmfs/atlas.cern.ch/repo/sw/software/23.0/sw/lcg/releases/LCG_101_ATLAS_22/requests/2.26.0/aarch64-centos7-gcc11-opt/lib/python3.9/site-packages:/cvmfs/atlas.cern.ch/repo/sw/software/23.0/sw/lcg/releases/LCG_101_ATLAS_22/psutil/5.6.2/aarch64-centos7-gcc11-opt/lib/python3.9/site-packages:/cvmfs/atlas.cern.ch/repo/sw/software/23.0/sw/lcg/releases/LCG_101_ATLAS_22/ROOT/6.24.06a/aarch64-centos7-gcc11-opt/lib:/cvmfs/atlas.cern.ch/repo/sw/software/23.0/AthenaExternals/23.0.3/InstallArea/aarch64-centos7-gcc11-opt/lib:/cvmfs/atlas.cern.ch/repo/sw/software/23.0/sw/lcg/releases/LCG_101_ATLAS_22/nose/1.3.7/aarch64-centos7-gcc11-opt/lib/python3.9/site-packages:/cvmfs/atlas.cern.ch/repo/sw/software/23.0/sw/lcg/releases/LCG_101_ATLAS_22/mccabe/0.6.1/aarch64-centos7-gcc11-opt/lib/python3.9/site-packages:/cvmfs/atlas.cern.ch/repo/sw/software/23.0/sw/lcg/releases/LCG_101_ATLAS_22/pip/21.0.1/aarch64-centos7-gcc11-opt/lib/python3.9/site-packages:/cvmfs/atlas.cern.ch/repo/sw/software/23.0/AthenaExternals/23.0.3/InstallArea/aarch64-centos7-gcc11-opt/lib/python3.9/site-packages
QTLIB=/cvmfs/atlas.cern.ch/repo/sw/software/23.0/sw/lcg/releases/LCG_101_ATLAS_22/qt5/5.12.4/aarch64-centos7-gcc11-opt/lib
QT_PLUGIN_PATH=/cvmfs/atlas.cern.ch/repo/sw/software/23.0/sw/lcg/releases/LCG_101_ATLAS_22/qt5/5.12.4/aarch64-centos7-gcc11-opt/plugins:/cvmfs/atlas.cern.ch/repo/sw/software/23.0/sw/lcg/releases/LCG_101_ATLAS_22/qt5/5.12.4/aarch64-centos7-gcc11-opt/plugins
QT_XKB_CONFIG_ROOT=/cvmfs/atlas.cern.ch/repo/sw/software/23.0/sw/lcg/releases/LCG_101_ATLAS_22/libxkbcommon/0.7.1/aarch64-centos7-gcc11-opt/lib
RIVETVER=3.1.6
RIVET_PATH=/cvmfs/atlas.cern.ch/repo/sw/software/23.0/sw/lcg/releases/LCG_101_ATLAS_22/MCGenerators/rivet/3.1.6/aarch64-centos7-gcc11-opt
ROOTCORE_RELEASE_SERIES=25
ROOTCORE_TEST_DATA=/cvmfs/atlas-nightlies.cern.ch/repo/data/data-art/ASG/DAOD_PHYS/p5169/mc20_13TeV.410470.PhPy8EG_A14_ttbar_hdamp258p75_nonallhad.deriv.DAOD_PHYS.e6337_s3681_r13167_p5169
ROOTCORE_TEST_FILE=/cvmfs/atlas-nightlies.cern.ch/repo/data/data-art/ASG/DAOD_PHYS/p5169/mc20_13TeV.410470.PhPy8EG_A14_ttbar_hdamp258p75_nonallhad.deriv.DAOD_PHYS.e6337_s3681_r13167_p5169/DAOD_PHYS.29445530._000001.pool.root.1
ROOTSYS=/cvmfs/atlas.cern.ch/repo/sw/software/23.0/sw/lcg/releases/LCG_101_ATLAS_22/ROOT/6.24.06a/aarch64-centos7-gcc11-opt
ROOT_INCLUDE_PATH=/cvmfs/atlas.cern.ch/repo/sw/software/23.0/Athena/23.0.3/InstallArea/aarch64-centos7-gcc11-opt/include:/cvmfs/atlas.cern.ch/repo/sw/software/23.0/AthenaExternals/23.0.3/InstallArea/aarch64-centos7-gcc11-opt/include:/cvmfs/atlas.cern.ch/repo/sw/software/23.0/sw/lcg/releases/LCG_101_ATLAS_22/rangev3/0.11.0/aarch64-centos7-gcc11-opt/include:/cvmfs/atlas.cern.ch/repo/sw/software/23.0/sw/lcg/releases/LCG_101_ATLAS_22/cppgsl/3.1.0/aarch64-centos7-gcc11-opt/include:/cvmfs/atlas.cern.ch/repo/sw/software/23.0/sw/lcg/releases/LCG_101_ATLAS_22/fmt/7.1.3/aarch64-centos7-gcc11-opt/include:/cvmfs/atlas.cern.ch/repo/sw/software/23.0/sw/lcg/releases/LCG_101_ATLAS_22/frontier_client/2.9.1/aarch64-centos7-gcc11-opt/include:/cvmfs/atlas.cern.ch/repo/sw/software/23.0/sw/lcg/releases/LCG_101_ATLAS_22/png/1.6.37/aarch64-centos7-gcc11-opt/include:/cvmfs/atlas.cern.ch/repo/sw/software/23.0/sw/lcg/releases/LCG_101_ATLAS_22/zlib/1.2.11/aarch64-centos7-gcc11-opt/include:/cvmfs/atlas.cern.ch/repo/sw/software/23.0/sw/lcg/releases/LCG_101_ATLAS_22/tiff/4.2.0/aarch64-centos7-gcc11-opt/include:/cvmfs/atlas.cern.ch/repo/sw/software/23.0/sw/lcg/releases/LCG_101_ATLAS_22/heaptrack/1.3.0/aarch64-centos7-gcc11-opt/include:/cvmfs/atlas.cern.ch/repo/sw/software/23.0/sw/lcg/releases/LCG_101_ATLAS_22/libunwind/1.3.1/aarch64-centos7-gcc11-opt/include:/cvmfs/atlas.cern.ch/repo/sw/software/23.0/sw/lcg/releases/LCG_101_ATLAS_22/gperftools/2.9.1/aarch64-centos7-gcc11-opt/include:/cvmfs/atlas.cern.ch/repo/sw/software/23.0/sw/lcg/releases/LCG_101_ATLAS_22/valgrind/3.19.0/aarch64-centos7-gcc11-opt/include:/cvmfs/atlas.cern.ch/repo/sw/software/23.0/sw/lcg/releases/LCG_101_ATLAS_22/vdt/0.4.3/aarch64-centos7-gcc11-opt/include:/cvmfs/atlas.cern.ch/repo/sw/software/23.0/sw/lcg/releases/LCG_101_ATLAS_22/CppUnit/1.14.0/aarch64-centos7-gcc11-opt/include:/cvmfs/atlas.cern.ch/repo/sw/software/23.0/sw/lcg/releases/LCG_101_ATLAS_22/protobuf/3.18.1/aarch64-centos7-gcc11-opt/include:/cvmfs/atlas.cern.ch/repo/sw/software/23.0/sw/lcg/releases/LCG_101_ATLAS_22/sqlite/3320300/aarch64-centos7-gcc11-opt/include:/cvmfs/atlas.cern.ch/repo/sw/software/23.0/sw/lcg/releases/LCG_101_ATLAS_22/xrootd/5.3.1/aarch64-centos7-gcc11-opt/include:/cvmfs/atlas.cern.ch/repo/sw/software/23.0/sw/lcg/releases/LCG_101_ATLAS_22/Davix/0.7.6/aarch64-centos7-gcc11-opt/include/davix:/cvmfs/atlas.cern.ch/repo/sw/software/23.0/sw/lcg/releases/LCG_101_ATLAS_22/MCGenerators/crmc/2.0.1p4/aarch64-centos7-gcc11-opt/include/crmc:/cvmfs/atlas.cern.ch/repo/sw/software/23.0/sw/lcg/releases/LCG_101_ATLAS_22/MCGenerators/evtgen/2.1.1/aarch64-centos7-gcc11-opt/include:/cvmfs/atlas.cern.ch/repo/sw/software/23.0/sw/lcg/releases/LCG_101_ATLAS_22/MCGenerators/herwig++/7.2.3/aarch64-centos7-gcc11-opt/include:/cvmfs/atlas.cern.ch/repo/sw/software/23.0/sw/lcg/releases/LCG_101_ATLAS_22/MCGenerators/thepeg/2.2.3/aarch64-centos7-gcc11-opt/include:/cvmfs/atlas.cern.ch/repo/sw/software/23.0/sw/lcg/releases/LCG_101_ATLAS_22/MCGenerators/pythia6/429.2/aarch64-centos7-gcc11-opt/include:/cvmfs/atlas.cern.ch/repo/sw/software/23.0/sw/lcg/releases/LCG_101_ATLAS_22/MCGenerators/photos++/3.64/aarch64-centos7-gcc11-opt/include:/cvmfs/atlas.cern.ch/repo/sw/software/23.0/sw/lcg/releases/LCG_101_ATLAS_22/HepMC/2.06.11/aarch64-centos7-gcc11-opt/include:/cvmfs/atlas.cern.ch/repo/sw/software/23.0/sw/lcg/releases/LCG_101_ATLAS_22/MCGenerators/sherpa/2.2.12.bbba1f7/aarch64-centos7-gcc11-opt/include/SHERPA-MC:/cvmfs/atlas.cern.ch/repo/sw/software/23.0/sw/lcg/releases/LCG_101_ATLAS_22/MCGenerators/openloops/2.1.2/aarch64-centos7-gcc11-opt/include:/cvmfs/atlas.cern.ch/repo/sw/software/23.0/sw/lcg/releases/LCG_101_ATLAS_22/MCGenerators/starlight/r313/aarch64-centos7-gcc11-opt/include:/cvmfs/atlas.cern.ch/repo/sw/software/23.0/sw/lcg/releases/LCG_101_ATLAS_22/MCGenerators/apfel/3.0.4/aarch64-centos7-gcc11-opt/include:/cvmfs/atlas.cern.ch/repo/sw/software/23.0/sw/lcg/releases/LCG_101_ATLAS_22/MCGenerators/superchic/4.13p1/aarch64-centos7-gcc11-opt/src/inc:/cvmfs/atlas.cern.ch/repo/sw/software/23.0/sw/lcg/releases/LCG_101_ATLAS_22/MCGenerators/tauola++/1.1.8.atlas1/aarch64-centos7-gcc11-opt/include:/cvmfs/atlas.cern.ch/repo/sw/software/23.0/sw/lcg/releases/LCG_101_ATLAS_22/MCGenerators/rivet/3.1.6/aarch64-centos7-gcc11-opt/include:/cvmfs/atlas.cern.ch/repo/sw/software/23.0/sw/lcg/releases/LCG_101_ATLAS_22/MCGenerators/yoda/1.9.5/aarch64-centos7-gcc11-opt/include:/cvmfs/atlas.cern.ch/repo/sw/software/23.0/sw/lcg/releases/LCG_101_ATLAS_22/libxslt/1.1.34/aarch64-centos7-gcc11-opt/include:/cvmfs/atlas.cern.ch/repo/sw/software/23.0/tdaq/tdaq-09-04-02/installed/include:/cvmfs/atlas.cern.ch/repo/sw/software/23.0/tdaq/tdaq-09-04-02/installed/aarch64-centos7-gcc11-opt/include:/cvmfs/atlas.cern.ch/repo/sw/software/23.0/sw/lcg/releases/LCG_101_ATLAS_22/fftw3/3.3.8/aarch64-centos7-gcc11-opt/include:/cvmfs/atlas.cern.ch/repo/sw/software/23.0/sw/lcg/releases/LCG_101_ATLAS_22/AIDA/3.2.1/aarch64-centos7-gcc11-opt/src/cpp:/cvmfs/atlas.cern.ch/repo/sw/software/23.0/sw/lcg/releases/hdf5/1.10.6-a3b1e/aarch64-centos7-gcc11-opt/include:/cvmfs/atlas.cern.ch/repo/sw/software/23.0/sw/lcg/releases/zlib/1.2.11-8af4c/aarch64-centos7-gcc11-opt/include:/cvmfs/atlas.cern.ch/repo/sw/software/23.0/AthenaExternals/23.0.3/InstallArea/aarch64-centos7-gcc11-opt/include/onnxruntime:/cvmfs/atlas.cern.ch/repo/sw/software/23.0/sw/lcg/releases/LCG_101_ATLAS_22/fastjet/3.4.0p1/aarch64-centos7-gcc11-opt/include:/cvmfs/atlas.cern.ch/repo/sw/software/23.0/sw/lcg/releases/LCG_101_ATLAS_22/fjcontrib/1.046/aarch64-centos7-gcc11-opt/include:/cvmfs/atlas.cern.ch/repo/sw/software/23.0/sw/lcg/releases/LCG_101_ATLAS_22/MCGenerators/lhapdf/6.5.1/aarch64-centos7-gcc11-opt/include:/cvmfs/atlas.cern.ch/repo/sw/software/23.0/sw/lcg/releases/LCG_101_ATLAS_22/MCGenerators/heputils/1.3.2/aarch64-centos7-gcc11-opt/include:/cvmfs/atlas.cern.ch/repo/sw/software/23.0/sw/lcg/releases/LCG_101_ATLAS_22/MCGenerators/mcutils/1.3.5/aarch64-centos7-gcc11-opt/include:/cvmfs/atlas.cern.ch/repo/sw/software/23.0/sw/lcg/releases/LCG_101_ATLAS_22/MCGenerators/pythia8/307p1.fxfx/aarch64-centos7-gcc11-opt/include:/cvmfs/atlas.cern.ch/repo/sw/software/23.0/sw/lcg/releases/LCG_101_ATLAS_22/libxml2/2.9.10/aarch64-centos7-gcc11-opt/include/libxml2:/cvmfs/atlas.cern.ch/repo/sw/software/23.0/sw/lcg/releases/LCG_101_ATLAS_22/graphviz/2.40.1/aarch64-centos7-gcc11-opt/include:/cvmfs/atlas.cern.ch/repo/sw/software/23.0/sw/lcg/releases/LCG_101_ATLAS_22/eigen/3.3.7/aarch64-centos7-gcc11-opt/include/eigen3:/cvmfs/atlas.cern.ch/repo/sw/software/23.0/sw/lcg/releases/LCG_101_ATLAS_22/expat/2.2.6/aarch64-centos7-gcc11-opt/include:/cvmfs/atlas.cern.ch/repo/sw/software/23.0/sw/lcg/releases/LCG_101_ATLAS_22/XercesC/3.2.3/aarch64-centos7-gcc11-opt/include:/cvmfs/atlas.cern.ch/repo/sw/software/23.0/AthenaExternals/23.0.3/InstallArea/aarch64-centos7-gcc11-opt/include/Geant4:/cvmfs/atlas.cern.ch/repo/sw/software/23.0/sw/lcg/releases/LCG_101_ATLAS_22/GSL/2.7/aarch64-centos7-gcc11-opt/include:/cvmfs/atlas.cern.ch/repo/sw/software/23.0/sw/lcg/releases/LCG_101_ATLAS_22/tbb/2020_U2/aarch64-centos7-gcc11-opt/include:/cvmfs/atlas.cern.ch/repo/sw/software/23.0/sw/lcg/releases/LCG_101_ATLAS_22/oracle/19.10.0.0.0/aarch64-centos7-gcc11-opt/include:/cvmfs/atlas.cern.ch/repo/sw/software/23.0/tdaq-common/tdaq-common-04-04-02/installed/external/aarch64-centos7-gcc11-opt/include:/cvmfs/atlas.cern.ch/repo/sw/software/23.0/sw/lcg/releases/LCG_101_ATLAS_22/jsonmcpp/3.9.1/aarch64-centos7-gcc11-opt/include:/cvmfs/atlas.cern.ch/repo/sw/software/23.0/sw/lcg/releases/LCG_101_ATLAS_22/Python/3.9.6/aarch64-centos7-gcc11-opt/include/python3.9:/cvmfs/atlas.cern.ch/repo/sw/software/23.0/tdaq-common/tdaq-common-04-04-02/installed/include:/cvmfs/atlas.cern.ch/repo/sw/software/23.0/sw/lcg/releases/LCG_101_ATLAS_22/Boost/1.77.0/aarch64-centos7-gcc11-opt/include:/cvmfs/atlas.cern.ch/repo/sw/software/23.0/sw/lcg/releases/LCG_101_ATLAS_22/libxkbcommon/0.7.1/aarch64-centos7-gcc11-opt/include:/cvmfs/atlas.cern.ch/repo/sw/software/23.0/sw/lcg/releases/LCG_101_ATLAS_22/libffi/3.2.1/aarch64-centos7-gcc11-opt/lib/libffi-3.2.1/include:/cvmfs/atlas.cern.ch/repo/sw/software/23.0/sw/lcg/releases/LCG_101_ATLAS_22/ROOT/6.24.06a/aarch64-centos7-gcc11-opt/include:/cvmfs/atlas.cern.ch/repo/sw/software/23.0/sw/lcg/releases/LCG_101_ATLAS_22/HepPDT/2.06.01/aarch64-centos7-gcc11-opt/include:/cvmfs/atlas.cern.ch/repo/sw/software/23.0/sw/lcg/releases/LCG_101_ATLAS_22/freetype/2.10.0/aarch64-centos7-gcc11-opt/include/freetype2:/cvmfs/atlas.cern.ch/repo/sw/software/23.0/sw/lcg/releases/LCG_101_ATLAS_22/qt5/5.12.4/aarch64-centos7-gcc11-opt/include:/cvmfs/atlas.cern.ch/repo/sw/software/23.0/sw/lcg/releases/LCG_101_ATLAS_22/qt5/5.12.4/aarch64-centos7-gcc11-opt/include/QtCore:/cvmfs/atlas.cern.ch/repo/sw/software/23.0/sw/lcg/releases/LCG_101_ATLAS_22/qt5/5.12.4/aarch64-centos7-gcc11-opt/mkspecs/linux-g++:/cvmfs/atlas.cern.ch/repo/sw/software/23.0/sw/lcg/releases/LCG_101_ATLAS_22/Vc/1.4.2/aarch64-centos7-gcc11-opt/include:/cvmfs/atlas.cern.ch/repo/sw/software/23.0/sw/lcg/releases/LCG_101_ATLAS_22/qt5/5.12.4/aarch64-centos7-gcc11-opt/include/QtGui:/cvmfs/atlas.cern.ch/repo/sw/software/23.0/sw/lcg/releases/LCG_101_ATLAS_22/qt5/5.12.4/aarch64-centos7-gcc11-opt/include/QtWidgets:/cvmfs/atlas.cern.ch/repo/sw/software/23.0/sw/lcg/releases/LCG_101_ATLAS_22/qt5/5.12.4/aarch64-centos7-gcc11-opt/include/QtOpenGL
RUCIO_PYTHONBIN=python
SHERPAVER=2.2.12.bbba1f7
SHERPA_SHARE_PATH=/cvmfs/atlas.cern.ch/repo/sw/software/23.0/sw/lcg/releases/LCG_101_ATLAS_22/MCGenerators/sherpa/2.2.12.bbba1f7/aarch64-centos7-gcc11-opt/share/SHERPA-MC
SHLVL=1
SITEROOT=/cvmfs/atlas.cern.ch/repo/sw/software/23.0
SSL_CERT_DIR=/cvmfs/atlas.cern.ch/repo/ATLASLocalRootBase/etc/grid-security-emi/certificates
STARLIGHTVER=r313
SUPERCHICPATH=/cvmfs/atlas.cern.ch/repo/sw/software/23.0/sw/lcg/releases/LCG_101_ATLAS_22/MCGenerators/superchic/4.13p1/aarch64-centos7-gcc11-opt
SUPERCHICVER=4.13p1
TAUOLAPPVER=1.1.8.atlas1
TCMALLOCDIR=/cvmfs/atlas.cern.ch/repo/sw/software/23.0/sw/lcg/releases/LCG_101_ATLAS_22/gperftools/2.9.1/aarch64-centos7-gcc11-opt/lib
TDAQ_DB_PATH=/cvmfs/atlas.cern.ch/repo/sw/software/23.0/tdaq/tdaq-09-04-02/installed/share/data:/cvmfs/atlas.cern.ch/repo/sw/software/23.0/tdaq/tdaq-09-04-02/installed/databases:/cvmfs/atlas.cern.ch/repo/sw/software/23.0/tdaq/tdaq-09-04-02/databases
TDAQ_PLATFORM=aarch64-centos7-gcc11-opt
TDAQ_PYTHON_HOME=/cvmfs/atlas.cern.ch/repo/sw/software/23.0/sw/lcg/releases/LCG_101_ATLAS_22/Python/3.9.6/aarch64-centos7-gcc11-opt
TDAQ_RELEASE_BASE=/cvmfs/atlas.cern.ch/repo/sw/software/23.0
TDAQ_VERSION=09-04-02
THEPEGVER=2.2.3
TestArea=/results/atlas-sim_mt-aarch64-c1-e3-1662539025_5562/proc_1
TwissFilesPATH=/cvmfs/atlas.cern.ch/repo/sw/software/23.0/atlas/offline/external/TwissFiles/v003
UBSAN_OPTIONS=suppressions=/cvmfs/atlas.cern.ch/repo/sw/software/23.0/Athena/23.0.3/InstallArea/aarch64-centos7-gcc11-opt/share/ubsan.supp
VALGRIND_LIB=/cvmfs/atlas.cern.ch/repo/sw/software/23.0/sw/lcg/releases/LCG_101_ATLAS_22/valgrind/3.19.0/aarch64-centos7-gcc11-opt/libexec/valgrind
VALGRIND_OPTS=--smc-check=all
VIEWSDIR=/cvmfs/sft.cern.ch/lcg/views
VP1PLUGINPATH=/cvmfs/atlas.cern.ch/repo/sw/software/23.0/Athena/23.0.3/InstallArea/aarch64-centos7-gcc11-opt/lib
XMLPATH=/cvmfs/atlas.cern.ch/repo/sw/software/23.0/Athena/23.0.3/InstallArea/aarch64-centos7-gcc11-opt/XML:/cvmfs/atlas.cern.ch/repo/sw/software/23.0/AthenaExternals/23.0.3/InstallArea/aarch64-centos7-gcc11-opt/XML
YODAVER=1.9.5
_=/cvmfs/atlas.cern.ch/repo/sw/software/23.0/Athena/23.0.3/InstallArea/aarch64-centos7-gcc11-opt/bin/Sim_tf.py
baseWDir=/results/atlas-sim_mt-aarch64-c1-e3-1662539025_5562
flavor=docker
s_msg=[WARNING] NCOPIES*NTHREADS (1*2=2) != 160 (number of available cores nproc)
# Machine report
{'linux_distribution': ('CentOS Linux', '7', 'AltArch'),
 'node': 'b702595f0a19',
 'platform': 'Linux-5.4.17-2136.302.7.2.2.el7uek.aarch64-aarch64-with-glibc2.17'}
