{
  "cmdLine": "'/cvmfs/atlas.cern.ch/repo/sw/software/23.0/Athena/23.0.3/InstallArea/aarch64-centos7-gcc11-opt/bin/Sim_tf.py' '--multithreaded=True' '--inputEVNTFile=/cvmfs/atlas.cern.ch/repo/benchmarks/hep-workloads/input-data/EVNT.13043099._000859.pool.root.1' '--maxEvents=6' '--geometryVersion=ATLAS-R3S-2021-03-00-00' '--AMITag=s3873' '--postInclude=default:RecJobTransforms/UseFrontier.py' '--preInclude=EVNTtoHITS:Campaigns/MC21SimulationMultiBeamSpot.py,SimulationJobOptions/preInclude.ExtraParticles.py,SimulationJobOptions/preInclude.G4ExtraProcesses.py' '--firstEvent=6160001' '--outputHITSFile=myHITS.pool.root' '--physicsList=FTFP_BERT_ATL' '--randomSeed=6163' '--conditionsTag=default:OFLCOND-MC21-SDR-RUN3-05' '--truthStrategy=MC15aPlus' '--DBRelease=300.0.4' '--simulator=FullG4MT_QS' '--jobNumber=1'",
  "created": "2022-09-07T08:39:59",
  "executor": [
    {
      "asetup": null,
      "errMsg": "",
      "exeConfig": {
        "inputs": [
          "EVNT"
        ],
        "outputs": [
          "HITS"
        ],
        "script": "athena.py",
        "substep": "sim"
      },
      "logfileReport": {
        "countSummary": {
          "CATASTROPHE": 0,
          "CRITICAL": 0,
          "DEBUG": 1,
          "ERROR": 0,
          "FATAL": 0,
          "IGNORED": 0,
          "INFO": 2829,
          "UNKNOWN": 12348,
          "VERBOSE": 0,
          "WARNING": 36
        },
        "details": {}
      },
      "metaData": {},
      "name": "EVNTtoHITS",
      "rc": 0,
      "statusOK": true,
      "validation": true
    }
  ],
  "exitAcronym": "OK",
  "exitCode": 0,
  "exitMsg": "OK",
  "exitMsgExtra": "",
  "files": {
    "input": [
      {
        "dataset": null,
        "nentries": 10000,
        "subFiles": [
          {
            "file_guid": "6F29B2BF-E01D-D541-A819-89CF9B212CB6",
            "name": "EVNT.13043099._000859.pool.root.1"
          }
        ],
        "type": "EVNT"
      }
    ],
    "output": [
      {
        "argName": "outputHITSFile",
        "dataset": null,
        "subFiles": [
          {
            "file_guid": "2F8B1E63-1070-7C4E-B53E-0EA546C9AAD9",
            "file_size": 5885750,
            "name": "myHITS.pool.root",
            "nentries": 6
          }
        ],
        "type": "HITS"
      }
    ]
  },
  "name": "Sim_tf",
  "reportVersion": "2.1.2",
  "resource": {
    "executor": {
      "EVNTtoHITS": {
        "cpuTime": 1193.22,
        "memory": {
          "Avg": {
            "nprocs": 2.0,
            "nthreads": 5.129,
            "pss": 2935217.0,
            "rchar": 41650423.0,
            "read_bytes": 131001606.0,
            "rss": 2941590.0,
            "rx_bytes": 30.075,
            "rx_packets": 0.429,
            "swap": 0.0,
            "tx_bytes": 0.0,
            "tx_packets": 0.0,
            "vmem": 3259394.0,
            "wchar": 1383312.0,
            "write_bytes": 1323390.0
          },
          "HW": {
            "cpu": {
              "CPUs": 160,
              "CoresPerSocket": 80,
              "Sockets": 2,
              "ThreadsPerCore": 1
            },
            "mem": {
              "MemTotal": 1069694336
            }
          },
          "Max": {
            "nprocs": 2,
            "nthreads": 6,
            "pss": 3281610,
            "rchar": 387765446,
            "read_bytes": 1219624960,
            "rss": 3288064,
            "rx_bytes": 280,
            "rx_packets": 4,
            "stime": 3,
            "swap": 0,
            "tx_bytes": 0,
            "tx_packets": 0,
            "utime": 1182,
            "vmem": 3625408,
            "wchar": 12878644,
            "write_bytes": 12320768,
            "wtime": 931
          },
          "prmon": {
            "Version": "3.0.1"
          }
        },
        "memoryAnalysis": {
          "chi2": 14213.74,
          "slope": 337.68
        },
        "nevents": 6,
        "postExe": {
          "cpuTime": 0.41,
          "wallTime": 1.02
        },
        "preExe": {
          "cpuTime": 0.0,
          "wallTime": 0.05
        },
        "total": {
          "cpuTime": 1193.63,
          "wallTime": 939.88
        },
        "validation": {
          "cpuTime": 0.0,
          "wallTime": 0.68
        },
        "wallTime": 938.13
      }
    },
    "machine": {
      "linux_distribution": [
        "CentOS Linux",
        "7",
        "AltArch"
      ],
      "node": "b702595f0a19",
      "platform": "Linux-5.4.17-2136.302.7.2.2.el7uek.aarch64-aarch64-with-glibc2.17"
    },
    "transform": {
      "cpuEfficiency": 1.2465,
      "cpuPWEfficiency": 1.2465,
      "cpuTime": 2.63,
      "cpuTimeTotal": 1193.63,
      "externalCpuTime": 0.58,
      "inFileValidation": {
        "cpuTime": 0.15,
        "wallTime": 16.23
      },
      "outFileValidation": {
        "cpuTime": 0.0,
        "wallTime": 0.13
      },
      "processedEvents": 6,
      "reportGeneration": {
        "cpuTime": 0.02,
        "wallTime": 3.07
      },
      "transformSetup": {
        "cpuTime": 0.0,
        "wallTime": 0.05
      },
      "trfPredata": null,
      "wallTime": 959.36
    }
  }
}