{
  "run_info": {
    "copies": 2,
    "threads_per_copy": 4,
    "events_per_thread": 1,
    "n_tot_cores": 8,
    "extra_arguments": "--device cuda --n-objects 40000 --batch-size 40000 --n-model-instances 1"
  },
  "report": {
    "wl-scores": {
      "flowsim": 4746.2
    },
    "wl-stats": {
      "performance": {
        "total_time_seconds": [
          16.853,
          16.858
        ],
        "total_objects": [
          40000,
          40000
        ],
        "throughput_objects_per_second": [
          2373.5,
          2372.8
        ]
      },
      "resource_usage": {
        "cpu": {
          "average_percent": [
            6.1,
            6.1
          ],
          "peak_percent": [
            9.1,
            9.1
          ]
        },
        "gpu": {
          "memory_average_percent": [
            10.9,
            10.9
          ],
          "utilization_average_percent": [
            45.9,
            45.9
          ],
          "memory_peak_percent": [
            18.3,
            18.3
          ],
          "utilization_peak_percent": [
            100.0,
            100.0
          ]
        },
        "ram": {
          "average_percent": [
            2.8,
            2.8
          ],
          "peak_percent": [
            4.4,
            4.4
          ]
        }
      },
      "configuration": {
        "num_threads": [
          4,
          4
        ],
        "device": [
          "cuda:0",
          "cuda:0"
        ]
      }
    },
    "log": "ok"
  },
  "app": {
    "version": "ci-v0.1",
    "description": "FlowSim as per https://github.com/francesco-vaselli/FlowSim",
    "cvmfs_checksum": "38a036abb2ff3509577e90a718cd7e22",
    "bmkdata_checksum": "8467d2f61380884155d761b7cfd12d3f",
    "bmk_checksum": "eb49348a0a4109d5442b452d134fcbc7",
    "containment": "docker"
  }
}
